snow_7 282.0 222.0 336.0 9.28026162e-07 8.34383987e-07 3.985245661228666 0.0835802705880496 1.735314553473265e-05 6.203263370388203e-07 2.5e-05 2.5e-06 0.7889468554034363 1.670 1.244
snow_10 139.0 104.0 166.0 3.18988612e-07 4.55991622e-07 3.985245661228666 0.0835802705880496 1.735314553473265e-05 6.203263370388203e-07 1.72e-05 1.72e-06 0.15668024766199484 0.970 0.699
snow_26 855.0 769.0 977.0 2.23552742e-06 1.05896114e-06 4.305410895249162 0.09395487158798144 2.1615480004530253e-05 7.836145073968566e-07 1.17e-05 1.17e-06 0.7857142857142857 1.913 1.145
snow_18 145.0 102.0 172.0 1.73986683e-06 8.23821616e-07 4.130944069443542 0.07660290197647895 1.9165624781207012e-05 6.58887191621129e-07 8.5e-06 8.5e-07 0.0625 1.532 0.764
snow_25 240 276.0 204.0 6.75844201e-07 6.38494466e-07 4.305410895249162 0.09395487158798144 2.1615480004530253e-05 7.836145073968566e-07 1.54e-05 1.54e-06 0.7894736842105263 1.163 0.775
snow_27 99.0 87.0 123.0 5.62457909e-07 3.76782443e-07 4.305410895249162 0.09395487158798144 2.1615480004530253e-05 7.836145073968566e-07 1.2e-05 1.2e-06 0.2 1.527 1.145
