-29.796   1.2704
-29.360   1.2768
-28.923   1.2860
-28.486   1.3015
-28.050   1.3186
-27.613   1.3305
-27.177   1.3564
-26.740   1.4122
-26.281   1.4421
-25.867   1.4972
-25.430   1.5617
-24.993   1.6331
-24.557   1.7158
-24.120   1.7982
-23.683   1.8636
-23.247   1.9020
-22.810   1.8952
-22.413   1.8152
-22.096   1.6893
-21.838   1.5673
-21.600   1.4372
-21.382   1.3228
-21.184   1.2305
-20.965   1.1258
-20.827   1.0699
-20.669   1.0003
-20.519   0.95247
-20.389   0.90287
-20.092   0.82012
-19.922   0.77283
-19.676   0.69769
-19.505   0.66056
-19.359   0.62692
-19.168   0.59425
-18.970   0.56359
-18.684   0.51867
-18.499   0.48304
-18.223   0.44335
-18.014   0.41736
-17.673   0.38529
-17.336   0.35472
-16.959   0.32905
-16.582   0.30509
-16.145   0.29283
-15.709   0.28114
-15.272   0.27465
-14.836   0.27315
-14.399   0.27904
-13.962   0.29425
-13.565   0.31205
-13.208   0.33794
-12.890   0.36520
-12.592   0.38976
-12.307   0.41819
-12.159   0.43891
-11.950   0.46399
-11.694   0.50271
-11.469   0.53767
-11.183   0.58967
-10.905   0.63880
-10.730   0.68887
-10.498   0.73101
-10.262   0.78921
-10.051   0.84203
-9.8029   0.92075
-9.5548   0.99712
-9.2372   1.0953
-8.8997   1.2085
-8.6018   1.3331
-8.3239   1.4532
-8.0657   1.5824
-7.8076   1.7079
-7.5694   1.8233
-7.2716   1.9722
-6.9547   2.1162
-6.5056   2.2788
-6.0211   2.3169
-5.6442   2.2060
-5.4730   2.1151
-5.3466   1.9963
-5.1947   1.8652
-5.1118   1.7243
-5.0140   1.6516
-4.9303   1.5598
-4.8358   1.4604
-4.7604   1.3323
-4.6409   1.2283
-4.5368   1.1192
-4.4788   1.0561
-4.4318   0.99580
-4.3787   0.94745
-4.3209   0.89463
-4.2877   0.84160
-4.2181   0.79698
-4.1348   0.73994
-4.1004   0.68972
-4.0393   0.63963
-3.9554   0.59846
-3.9055   0.56811
-3.8405   0.54154
-3.7909   0.51320
-3.6819   0.49024
-3.5135   0.46675
-3.4005   0.48910
-3.2519   0.53916
-3.1565   0.59405
-3.0823   0.64609
-3.0215   0.68542
-2.8163   0.73388
-2.5957   0.76746
-2.1729   0.81199
-1.7362   0.85192
-1.2996   0.89161
-0.87251   0.92048
-0.42629   0.95696
-0.054144   0.99016
0.0   1.0000