 0.1611451E-03 0.1000000E-05 0.0000000E+00 0.0000000E+00 0.1867318E+00 0.3203666E-04 0.2232790E+01
 0.1611451E-03 0.2000000E-05 0.0000000E+00 0.0000000E+00 0.1867318E+00 0.1281460E-03 0.2231641E+01
 0.1611451E-03 0.3000000E-05 0.0000000E+00 0.0000000E+00 0.1867318E+00 0.2883251E-03 0.2229725E+01
 0.1611451E-03 0.4000000E-05 0.0000000E+00 0.0000000E+00 0.1867318E+00 0.5125658E-03 0.2227044E+01
 0.1611451E-03 0.5000000E-05 0.0000000E+00 0.0000000E+00 0.1867318E+00 0.8008529E-03 0.2223596E+01
 0.1611451E-03 0.6000000E-05 0.7090619E-02 0.2425535E-06 0.1867318E+00 0.1153162E-02 0.2219382E+01
 0.1611451E-03 0.7000000E-05 0.3122920E-01 0.1074965E-05 0.1867318E+00 0.1569457E-02 0.2214404E+01
 0.1611451E-03 0.8000000E-05 0.5840794E-01 0.2022235E-05 0.1867318E+00 0.2049689E-02 0.2208661E+01
 0.1611451E-03 0.9000000E-05 0.8931279E-01 0.3108964E-05 0.1867318E+00 0.2593792E-02 0.2202154E+01
 0.1611451E-03 0.1000000E-04 0.1237000E+00 0.4327424E-05 0.1867318E+00 0.3201685E-02 0.2194884E+01
 0.1611451E-03 0.1100000E-04 0.1608353E+00 0.5652143E-05 0.1867318E+00 0.3873269E-02 0.2186852E+01
 0.1611451E-03 0.1200000E-04 0.1997435E+00 0.7048395E-05 0.1867318E+00 0.4608423E-02 0.2178060E+01
 0.1611451E-03 0.1300000E-04 0.2394171E+00 0.8479513E-05 0.1867318E+00 0.5407007E-02 0.2168510E+01
 0.1611451E-03 0.1400000E-04 0.2789537E+00 0.9911909E-05 0.1867318E+00 0.6268859E-02 0.2158203E+01
 0.1611451E-03 0.1500000E-04 0.3176249E+00 0.1131772E-04 0.1867318E+00 0.7193793E-02 0.2147141E+01
 0.1611451E-03 0.1600000E-04 0.3548927E+00 0.1267562E-04 0.1867318E+00 0.8181601E-02 0.2135328E+01
 0.1611451E-03 0.1700000E-04 0.3903940E+00 0.1397043E-04 0.1867318E+00 0.9232050E-02 0.2122765E+01
 0.1611451E-03 0.1800000E-04 0.4239109E+00 0.1519219E-04 0.1867318E+00 0.1034488E-01 0.2109456E+01
 0.1611451E-03 0.1900000E-04 0.4553382E+00 0.1633511E-04 0.1867318E+00 0.1151981E-01 0.2095405E+01
 0.1611451E-03 0.2000000E-04 0.4846534E+00 0.1739650E-04 0.1867318E+00 0.1275654E-01 0.2080615E+01
 0.1611451E-03 0.2100000E-04 0.5118920E+00 0.1837596E-04 0.1867318E+00 0.1405472E-01 0.2065089E+01
 0.1611451E-03 0.2200000E-04 0.5371276E+00 0.1927464E-04 0.1867318E+00 0.1541401E-01 0.2048833E+01
 0.1611451E-03 0.2300000E-04 0.5604576E+00 0.2009470E-04 0.1867318E+00 0.1683401E-01 0.2031851E+01
 0.1611451E-03 0.2400000E-04 0.5819924E+00 0.2083896E-04 0.1867318E+00 0.1831433E-01 0.2014148E+01
 0.1611451E-03 0.2500000E-04 0.6018479E+00 0.2151060E-04 0.1867318E+00 0.1985452E-01 0.1995728E+01
 0.1611451E-03 0.2600000E-04 0.6201403E+00 0.2211293E-04 0.1867318E+00 0.2145413E-01 0.1976598E+01
 0.1611451E-03 0.2700000E-04 0.6369826E+00 0.2264927E-04 0.1867318E+00 0.2311268E-01 0.1956763E+01
 0.1611451E-03 0.2800000E-04 0.6524828E+00 0.2312289E-04 0.1867318E+00 0.2482968E-01 0.1936229E+01
 0.1611451E-03 0.2900000E-04 0.6667423E+00 0.2353689E-04 0.1867318E+00 0.2660458E-01 0.1915002E+01
 0.1611451E-03 0.3000000E-04 0.6798553E+00 0.2389422E-04 0.1867318E+00 0.2843685E-01 0.1893090E+01
 0.1611451E-03 0.3100000E-04 0.6919087E+00 0.2419764E-04 0.1867318E+00 0.3032592E-01 0.1870498E+01
 0.1611451E-03 0.3200000E-04 0.7029823E+00 0.2444970E-04 0.1867318E+00 0.3227119E-01 0.1847234E+01
 0.1611451E-03 0.3306587E-04 0.7126372E+00 0.2464069E-04 0.1867318E+00 0.3423739E-01 0.1823720E+01
 0.1611451E-03 0.3450654E-04 0.7187637E+00 0.2472629E-04 0.1867318E+00 0.3605582E-01 0.1801973E+01
 0.1611451E-03 0.3596548E-04 0.7243376E+00 0.2478084E-04 0.1867318E+00 0.3790934E-01 0.1779806E+01
 0.1611451E-03 0.3744240E-04 0.7293948E+00 0.2480568E-04 0.1867318E+00 0.3979706E-01 0.1757230E+01
 0.1611451E-03 0.3893700E-04 0.7339674E+00 0.2480204E-04 0.1867318E+00 0.4171807E-01 0.1734256E+01
 0.1611451E-03 0.4044902E-04 0.7380836E+00 0.2477102E-04 0.1867318E+00 0.4367148E-01 0.1710895E+01
 0.1611451E-03 0.4197819E-04 0.7417685E+00 0.2471366E-04 0.1867318E+00 0.4565640E-01 0.1687157E+01
 0.1611451E-03 0.4352427E-04 0.7450445E+00 0.2463091E-04 0.1867318E+00 0.4767193E-01 0.1663053E+01
 0.1611451E-03 0.4508699E-04 0.7479311E+00 0.2452365E-04 0.1867318E+00 0.4971716E-01 0.1638593E+01
 0.1611451E-03 0.4666614E-04 0.7504456E+00 0.2439269E-04 0.1867318E+00 0.5179120E-01 0.1613789E+01
 0.1611451E-03 0.4826149E-04 0.7526032E+00 0.2423880E-04 0.1867318E+00 0.5389317E-01 0.1588651E+01
 0.1611451E-03 0.4987281E-04 0.7547907E+00 0.2407463E-04 0.1867318E+00 0.5602217E-01 0.1563190E+01
 0.1611451E-03 0.5149991E-04 0.7587714E+00 0.2395578E-04 0.1867318E+00 0.5817732E-01 0.1537416E+01
 0.1611451E-03 0.5314259E-04 0.7623404E+00 0.2381156E-04 0.1867318E+00 0.6035774E-01 0.1511340E+01
 0.1611451E-03 0.5480063E-04 0.7655179E+00 0.2364295E-04 0.1867318E+00 0.6256255E-01 0.1484972E+01
 0.1611451E-03 0.5647387E-04 0.7683221E+00 0.2345088E-04 0.1867318E+00 0.6479088E-01 0.1458323E+01
 0.1611451E-03 0.5816211E-04 0.7707692E+00 0.2323621E-04 0.1867318E+00 0.6704188E-01 0.1431402E+01
 0.1611451E-03 0.5986518E-04 0.7728740E+00 0.2299976E-04 0.1867318E+00 0.6931470E-01 0.1404221E+01
 0.1611451E-03 0.6158292E-04 0.7746496E+00 0.2274235E-04 0.1867318E+00 0.7160848E-01 0.1376789E+01
 0.1611451E-03 0.6331516E-04 0.7761082E+00 0.2246472E-04 0.1867318E+00 0.7392240E-01 0.1349116E+01
 0.1611451E-03 0.6506173E-04 0.7772607E+00 0.2216764E-04 0.1867318E+00 0.7625563E-01 0.1321213E+01
 0.1611451E-03 0.6682248E-04 0.7781175E+00 0.2185183E-04 0.1867318E+00 0.7860735E-01 0.1293088E+01
 0.1611451E-03 0.6859726E-04 0.7786883E+00 0.2151801E-04 0.1867318E+00 0.8097676E-01 0.1264752E+01
 0.1611451E-03 0.7038592E-04 0.7789827E+00 0.2116690E-04 0.1867318E+00 0.8336306E-01 0.1236213E+01
 0.1611451E-03 0.7218833E-04 0.7790098E+00 0.2079923E-04 0.1867318E+00 0.8576547E-01 0.1207482E+01
 0.1611451E-03 0.7400434E-04 0.7787792E+00 0.2041571E-04 0.1867318E+00 0.8818323E-01 0.1178568E+01
 0.1611451E-03 0.7583381E-04 0.7783006E+00 0.2001709E-04 0.1867318E+00 0.9061556E-01 0.1149479E+01
 0.1611451E-03 0.7767663E-04 0.7775844E+00 0.1960411E-04 0.1867318E+00 0.9306174E-01 0.1120224E+01
 0.1611451E-03 0.7953266E-04 0.7766416E+00 0.1917753E-04 0.1867318E+00 0.9552103E-01 0.1090813E+01
 0.1611451E-03 0.8140178E-04 0.7754843E+00 0.1873814E-04 0.1867318E+00 0.9799271E-01 0.1061253E+01
 0.1611451E-03 0.8328386E-04 0.7741256E+00 0.1828673E-04 0.1867318E+00 0.1004761E+00 0.1031554E+01
 0.1611451E-03 0.8517878E-04 0.7725801E+00 0.1782410E-04 0.1867318E+00 0.1029705E+00 0.1001723E+01
 0.1611451E-03 0.8708644E-04 0.7708637E+00 0.1735109E-04 0.1867318E+00 0.1054752E+00 0.9717688E+00
 0.1611451E-03 0.8900672E-04 0.7689938E+00 0.1686851E-04 0.1867318E+00 0.1079895E+00 0.9416989E+00
 0.1611451E-03 0.9093951E-04 0.7669897E+00 0.1637722E-04 0.1867318E+00 0.1105129E+00 0.9115211E+00
 0.1611451E-03 0.9288471E-04 0.7648723E+00 0.1587803E-04 0.1867318E+00 0.1130447E+00 0.8812429E+00
 0.1611451E-03 0.9484220E-04 0.7626642E+00 0.1537179E-04 0.1867318E+00 0.1155842E+00 0.8508718E+00
 0.1611451E-03 0.9681189E-04 0.7603896E+00 0.1485929E-04 0.1867318E+00 0.1181310E+00 0.8204150E+00
 0.1611451E-03 0.9879367E-04 0.7580746E+00 0.1434133E-04 0.1867318E+00 0.1206843E+00 0.7898794E+00
 0.1611451E-03 0.1007875E-03 0.7557464E+00 0.1381864E-04 0.1867318E+00 0.1232436E+00 0.7592719E+00
 0.1611451E-03 0.1027931E-03 0.7534333E+00 0.1329191E-04 0.1867318E+00 0.1258083E+00 0.7285991E+00
 0.1611451E-03 0.1048106E-03 0.7512210E+00 0.1283860E-04 0.1867318E+00 0.1281310E+00 0.7008224E+00
 0.1611451E-03 0.1068398E-03 0.7490660E+00 0.1238925E-04 0.1867318E+00 0.1304292E+00 0.6733371E+00
 0.1611451E-03 0.1088807E-03 0.7469824E+00 0.1193679E-04 0.1867318E+00 0.1327262E+00 0.6458667E+00
 0.1611451E-03 0.1109331E-03 0.7449902E+00 0.1148150E-04 0.1867318E+00 0.1350216E+00 0.6184156E+00
 0.1611451E-03 0.1129969E-03 0.7431089E+00 0.1102361E-04 0.1867318E+00 0.1373150E+00 0.5909879E+00
 0.1611451E-03 0.1150721E-03 0.7413571E+00 0.1056325E-04 0.1867318E+00 0.1396062E+00 0.5635874E+00
 0.1611451E-03 0.1171586E-03 0.7397526E+00 0.1010053E-04 0.1867318E+00 0.1418947E+00 0.5362180E+00
 0.1611451E-03 0.1192563E-03 0.7383116E+00 0.9635462E-05 0.1867318E+00 0.1441804E+00 0.5088834E+00
 0.1611451E-03 0.1213652E-03 0.7370491E+00 0.9168014E-05 0.1867318E+00 0.1464628E+00 0.4815870E+00
 0.1611451E-03 0.1234851E-03 0.7359782E+00 0.8698074E-05 0.1867318E+00 0.1487418E+00 0.4543322E+00
 0.1611451E-03 0.1256159E-03 0.7351104E+00 0.8225470E-05 0.1867318E+00 0.1510170E+00 0.4271222E+00
 0.1611451E-03 0.1277577E-03 0.7344550E+00 0.7749972E-05 0.1867318E+00 0.1532882E+00 0.3999601E+00
 0.1611451E-03 0.1299103E-03 0.7340194E+00 0.7271294E-05 0.1867318E+00 0.1555552E+00 0.3728488E+00
 0.1611451E-03 0.1320736E-03 0.7338090E+00 0.6789100E-05 0.1867318E+00 0.1578177E+00 0.3457912E+00
 0.1611451E-03 0.1342477E-03 0.7338270E+00 0.6303013E-05 0.1867318E+00 0.1600754E+00 0.3187900E+00
 0.1611451E-03 0.1364323E-03 0.7340748E+00 0.5812616E-05 0.1867318E+00 0.1623283E+00 0.2918477E+00
 0.1611451E-03 0.1386275E-03 0.7345518E+00 0.5317468E-05 0.1867318E+00 0.1645760E+00 0.2649669E+00
 0.1611451E-03 0.1408332E-03 0.7352555E+00 0.4817102E-05 0.1867318E+00 0.1668184E+00 0.2381498E+00
 0.1611451E-03 0.1430492E-03 0.7361821E+00 0.4311040E-05 0.1867318E+00 0.1690552E+00 0.2113987E+00
 0.1611451E-03 0.1452757E-03 0.7373260E+00 0.3798792E-05 0.1867318E+00 0.1712864E+00 0.1847158E+00
 0.1611451E-03 0.1475124E-03 0.7386804E+00 0.3279870E-05 0.1867318E+00 0.1735116E+00 0.1581030E+00
 0.1611451E-03 0.1497593E-03 0.7402373E+00 0.2753791E-05 0.1867318E+00 0.1757309E+00 0.1315623E+00
 0.1611451E-03 0.1520164E-03 0.7419879E+00 0.2220078E-05 0.1867318E+00 0.1779440E+00 0.1050955E+00
 0.1611451E-03 0.1542836E-03 0.7439223E+00 0.1678277E-05 0.1867318E+00 0.1801507E+00 0.7870440E-01
 0.1611451E-03 0.1565608E-03 0.7460302E+00 0.1127937E-05 0.1867318E+00 0.1823510E+00 0.5239037E-01
 0.1611451E-03 0.1588480E-03 0.7483005E+00 0.5686428E-06 0.1867318E+00 0.1845448E+00 0.2615509E-01
 0.1611451E-03 0.1611451E-03 0.7507219E+00 0.0000000E+00 0.1867318E+00 0.1867318E+00 0.0000000E+00
 0.1611451E-03 0.1634521E-03 0.7542699E+00 0.5791167E-06 0.1867318E+00 0.1889120E+00 0.2607355E-01
 0.1611451E-03 0.1657689E-03 0.7579236E+00 0.1169785E-05 0.1867318E+00 0.1910853E+00 0.5206428E-01
 0.1611451E-03 0.1680955E-03 0.7616652E+00 0.1772271E-05 0.1867318E+00 0.1932515E+00 0.7797101E-01
 0.1611451E-03 0.1704318E-03 0.7654777E+00 0.2386790E-05 0.1867318E+00 0.1954106E+00 0.1037926E+00
 0.1611451E-03 0.1727777E-03 0.7693448E+00 0.3013512E-05 0.1867318E+00 0.1975626E+00 0.1295281E+00
 0.1611451E-03 0.1751332E-03 0.7732513E+00 0.3652563E-05 0.1867318E+00 0.1997072E+00 0.1551764E+00
 0.1611451E-03 0.1774982E-03 0.7771829E+00 0.4304025E-05 0.1867318E+00 0.2018445E+00 0.1807367E+00
 0.1611451E-03 0.1798728E-03 0.7811265E+00 0.4967943E-05 0.1867318E+00 0.2039743E+00 0.2062082E+00
 0.1611451E-03 0.1822567E-03 0.7850699E+00 0.5644328E-05 0.1867318E+00 0.2060967E+00 0.2315902E+00
 0.1611451E-03 0.1846501E-03 0.7890019E+00 0.6333157E-05 0.1867318E+00 0.2082115E+00 0.2568818E+00
 0.1611451E-03 0.1870528E-03 0.7929125E+00 0.7034380E-05 0.1867318E+00 0.2103187E+00 0.2820825E+00
 0.1611451E-03 0.1894649E-03 0.7967927E+00 0.7747923E-05 0.1867318E+00 0.2124183E+00 0.3071917E+00
 0.1611451E-03 0.1918861E-03 0.8006343E+00 0.8473689E-05 0.1867318E+00 0.2145102E+00 0.3322089E+00
 0.1611451E-03 0.1943166E-03 0.8044303E+00 0.9211561E-05 0.1867318E+00 0.2165943E+00 0.3571337E+00
 0.1611451E-03 0.1967562E-03 0.8081742E+00 0.9961410E-05 0.1867318E+00 0.2186707E+00 0.3819655E+00
 0.1611451E-03 0.1992049E-03 0.8118606E+00 0.1072309E-04 0.1867318E+00 0.2207393E+00 0.4067042E+00
 0.1611451E-03 0.2016627E-03 0.8154849E+00 0.1149644E-04 0.1867318E+00 0.2228000E+00 0.4313493E+00
 0.1611451E-03 0.2041295E-03 0.8190430E+00 0.1228131E-04 0.1867318E+00 0.2248529E+00 0.4559004E+00
 0.1611451E-03 0.2066053E-03 0.8225317E+00 0.1307752E-04 0.1867318E+00 0.2268980E+00 0.4803576E+00
 0.1611451E-03 0.2090900E-03 0.8259483E+00 0.1388489E-04 0.1867318E+00 0.2289351E+00 0.5047207E+00
 0.1611451E-03 0.2115836E-03 0.8292906E+00 0.1470326E-04 0.1867318E+00 0.2309644E+00 0.5289894E+00
 0.1611451E-03 0.2140860E-03 0.8325570E+00 0.1553243E-04 0.1867318E+00 0.2329858E+00 0.5531637E+00
 0.1611451E-03 0.2165973E-03 0.8357464E+00 0.1637225E-04 0.1867318E+00 0.2349993E+00 0.5772437E+00
 0.1611451E-03 0.2191173E-03 0.8388579E+00 0.1722250E-04 0.1867318E+00 0.2370049E+00 0.6012288E+00
 0.1611451E-03 0.2216461E-03 0.8418913E+00 0.1808305E-04 0.1867318E+00 0.2390026E+00 0.6251198E+00
 0.1611451E-03 0.2241835E-03 0.8448463E+00 0.1895369E-04 0.1867318E+00 0.2409923E+00 0.6489160E+00
 0.1611451E-03 0.2267296E-03 0.8477234E+00 0.1983427E-04 0.1867318E+00 0.2429743E+00 0.6726182E+00
 0.1611451E-03 0.2292843E-03 0.8505229E+00 0.2072461E-04 0.1867318E+00 0.2449483E+00 0.6962257E+00
 0.1611451E-03 0.2318475E-03 0.8532456E+00 0.2162456E-04 0.1867318E+00 0.2469144E+00 0.7197392E+00
 0.1611451E-03 0.2344193E-03 0.8558925E+00 0.2253397E-04 0.1867318E+00 0.2488727E+00 0.7431591E+00
 0.1611451E-03 0.2369996E-03 0.8584645E+00 0.2345267E-04 0.1867318E+00 0.2508231E+00 0.7664848E+00
 0.1611451E-03 0.2395883E-03 0.8609630E+00 0.2438053E-04 0.1867318E+00 0.2527658E+00 0.7897174E+00
 0.1611451E-03 0.2421855E-03 0.8633892E+00 0.2531740E-04 0.1867318E+00 0.2547006E+00 0.8128563E+00
 0.1611451E-03 0.2447910E-03 0.8657446E+00 0.2626316E-04 0.1867318E+00 0.2566276E+00 0.8359025E+00
 0.1611451E-03 0.2474049E-03 0.8680307E+00 0.2721765E-04 0.1867318E+00 0.2585469E+00 0.8588556E+00
 0.1611451E-03 0.2500271E-03 0.8702491E+00 0.2818078E-04 0.1867318E+00 0.2604585E+00 0.8817167E+00
 0.1611451E-03 0.2526575E-03 0.8724014E+00 0.2915240E-04 0.1867318E+00 0.2623623E+00 0.9044852E+00
 0.1611451E-03 0.2552963E-03 0.8744893E+00 0.3013243E-04 0.1867318E+00 0.2642585E+00 0.9271623E+00
 0.1611451E-03 0.2579432E-03 0.8765145E+00 0.3112073E-04 0.1867318E+00 0.2661471E+00 0.9497477E+00
 0.1611451E-03 0.2605983E-03 0.8784786E+00 0.3211723E-04 0.1867318E+00 0.2680280E+00 0.9722423E+00
 0.1611451E-03 0.2632615E-03 0.8803834E+00 0.3312180E-04 0.1867318E+00 0.2699013E+00 0.9946460E+00
 0.1611451E-03 0.2659329E-03 0.8822306E+00 0.3413438E-04 0.1867318E+00 0.2717671E+00 0.1016960E+01
 0.1611451E-03 0.2686122E-03 0.8840219E+00 0.3515485E-04 0.1867318E+00 0.2736254E+00 0.1039183E+01
 0.1611451E-03 0.2712997E-03 0.8857589E+00 0.3618315E-04 0.1867318E+00 0.2754762E+00 0.1061318E+01
 0.1611451E-03 0.2739952E-03 0.8874433E+00 0.3721918E-04 0.1867318E+00 0.2773196E+00 0.1083363E+01
 0.1611451E-03 0.2766986E-03 0.8890767E+00 0.3826290E-04 0.1867318E+00 0.2791556E+00 0.1105320E+01
 0.1611451E-03 0.2794100E-03 0.8906608E+00 0.3931419E-04 0.1867318E+00 0.2809842E+00 0.1127188E+01
 0.1611451E-03 0.2821293E-03 0.8921970E+00 0.4037303E-04 0.1867318E+00 0.2828055E+00 0.1148970E+01
 0.1611451E-03 0.2848565E-03 0.8936870E+00 0.4143931E-04 0.1867318E+00 0.2846194E+00 0.1170664E+01
 0.1611451E-03 0.2875915E-03 0.8951323E+00 0.4251300E-04 0.1867318E+00 0.2864262E+00 0.1192271E+01
 0.1611451E-03 0.2903344E-03 0.8965342E+00 0.4359406E-04 0.1867318E+00 0.2882258E+00 0.1213792E+01
 0.1611451E-03 0.2930851E-03 0.8978943E+00 0.4468239E-04 0.1867318E+00 0.2900181E+00 0.1235228E+01
 0.1611451E-03 0.2958435E-03 0.8992138E+00 0.4577798E-04 0.1867318E+00 0.2918034E+00 0.1256579E+01
 0.1611451E-03 0.2986097E-03 0.9004943E+00 0.4688075E-04 0.1867318E+00 0.2935816E+00 0.1277845E+01
 0.1611451E-03 0.3013836E-03 0.9017368E+00 0.4799069E-04 0.1867318E+00 0.2953528E+00 0.1299027E+01
 0.1611451E-03 0.3041652E-03 0.9029429E+00 0.4910772E-04 0.1867318E+00 0.2971170E+00 0.1320125E+01
 0.1611451E-03 0.3069544E-03 0.9041135E+00 0.5023183E-04 0.1867318E+00 0.2988743E+00 0.1341141E+01
 0.1611451E-03 0.3097512E-03 0.9052500E+00 0.5136295E-04 0.1867318E+00 0.3006246E+00 0.1362073E+01
 0.1611451E-03 0.3125557E-03 0.9063536E+00 0.5250108E-04 0.1867318E+00 0.3023681E+00 0.1382925E+01
 0.1611451E-03 0.3153677E-03 0.9074252E+00 0.5364615E-04 0.1867318E+00 0.3041048E+00 0.1403694E+01
 0.1611451E-03 0.3181872E-03 0.9084660E+00 0.5479816E-04 0.1867318E+00 0.3058347E+00 0.1424383E+01
 0.1611451E-03 0.3210143E-03 0.9094770E+00 0.5595705E-04 0.1867318E+00 0.3075579E+00 0.1444991E+01
 0.1611451E-03 0.3238488E-03 0.9104593E+00 0.5712283E-04 0.1867318E+00 0.3092745E+00 0.1465520E+01
 0.1611451E-03 0.3266908E-03 0.9114137E+00 0.5829543E-04 0.1867318E+00 0.3109844E+00 0.1485969E+01
 0.1611451E-03 0.3295403E-03 0.9123413E+00 0.5947486E-04 0.1867318E+00 0.3126877E+00 0.1506340E+01
 0.1611451E-03 0.3323972E-03 0.9132429E+00 0.6066106E-04 0.1867318E+00 0.3143845E+00 0.1526632E+01
 0.1611451E-03 0.3352614E-03 0.9141194E+00 0.6185405E-04 0.1867318E+00 0.3160749E+00 0.1546847E+01
 0.1611451E-03 0.3381330E-03 0.9149716E+00 0.6305376E-04 0.1867318E+00 0.3177587E+00 0.1566985E+01
 0.1611451E-03 0.3410120E-03 0.9158004E+00 0.6426022E-04 0.1867318E+00 0.3194362E+00 0.1587046E+01
 0.1611451E-03 0.3438982E-03 0.9166065E+00 0.6547336E-04 0.1867318E+00 0.3211073E+00 0.1607031E+01
 0.1611451E-03 0.3467917E-03 0.9173906E+00 0.6669320E-04 0.1867318E+00 0.3227721E+00 0.1626941E+01
 0.1611451E-03 0.3496926E-03 0.9181536E+00 0.6791972E-04 0.1867318E+00 0.3244307E+00 0.1646776E+01
 0.1611451E-03 0.3526006E-03 0.9188961E+00 0.6915287E-04 0.1867318E+00 0.3260830E+00 0.1666537E+01
 0.1611451E-03 0.3555159E-03 0.9196187E+00 0.7039269E-04 0.1867318E+00 0.3277292E+00 0.1686224E+01
 0.1611451E-03 0.3584383E-03 0.9203221E+00 0.7163911E-04 0.1867318E+00 0.3293692E+00 0.1705838E+01
 0.1611451E-03 0.3613679E-03 0.9210070E+00 0.7289216E-04 0.1867318E+00 0.3310032E+00 0.1725379E+01
 0.1611451E-03 0.3643046E-03 0.9216739E+00 0.7415179E-04 0.1867318E+00 0.3326311E+00 0.1744847E+01
 0.1611451E-03 0.3672485E-03 0.9223234E+00 0.7541802E-04 0.1867318E+00 0.3342530E+00 0.1764245E+01
 0.1611451E-03 0.3701995E-03 0.9229561E+00 0.7669080E-04 0.1867318E+00 0.3358690E+00 0.1783571E+01
 0.1611451E-03 0.3731575E-03 0.9235725E+00 0.7797017E-04 0.1867318E+00 0.3374791E+00 0.1802826E+01
 0.1611451E-03 0.3761226E-03 0.9241731E+00 0.7925607E-04 0.1867318E+00 0.3390833E+00 0.1822011E+01
 0.1611451E-03 0.3790947E-03 0.9247584E+00 0.8054853E-04 0.1867318E+00 0.3406818E+00 0.1841127E+01
 0.1611451E-03 0.3820738E-03 0.9253290E+00 0.8184750E-04 0.1867318E+00 0.3422744E+00 0.1860174E+01
 0.1611451E-03 0.3850600E-03 0.9258852E+00 0.8315301E-04 0.1867318E+00 0.3438613E+00 0.1879152E+01
 0.1611451E-03 0.3880530E-03 0.9264275E+00 0.8446502E-04 0.1867318E+00 0.3454425E+00 0.1898062E+01
 0.1611451E-03 0.3910531E-03 0.9269564E+00 0.8578355E-04 0.1867318E+00 0.3470181E+00 0.1916905E+01
 0.1611451E-03 0.3940600E-03 0.9274722E+00 0.8710856E-04 0.1867318E+00 0.3485881E+00 0.1935681E+01
 0.1611451E-03 0.3970738E-03 0.9279753E+00 0.8844008E-04 0.1867318E+00 0.3501525E+00 0.1954390E+01
 0.1611451E-03 0.4000945E-03 0.9284662E+00 0.8977807E-04 0.1867318E+00 0.3517114E+00 0.1973034E+01
 0.1611451E-03 0.4031221E-03 0.9289453E+00 0.9112255E-04 0.1867318E+00 0.3532648E+00 0.1991611E+01
 0.1611451E-03 0.4061565E-03 0.9294127E+00 0.9247348E-04 0.1867318E+00 0.3548128E+00 0.2010124E+01
 0.1611451E-03 0.4091978E-03 0.9298690E+00 0.9383089E-04 0.1867318E+00 0.3563554E+00 0.2028572E+01
 0.1611451E-03 0.4122458E-03 0.9303145E+00 0.9519474E-04 0.1867318E+00 0.3578926E+00 0.2046957E+01
 0.1611451E-03 0.4153005E-03 0.9307494E+00 0.9656505E-04 0.1867318E+00 0.3594245E+00 0.2065277E+01
 0.1611451E-03 0.4183621E-03 0.9311741E+00 0.9794182E-04 0.1867318E+00 0.3609512E+00 0.2083535E+01
 0.1611451E-03 0.4214304E-03 0.9315889E+00 0.9932500E-04 0.1867318E+00 0.3624726E+00 0.2101729E+01
 0.1611451E-03 0.4245054E-03 0.9319940E+00 0.1007146E-03 0.1867318E+00 0.3639888E+00 0.2119862E+01
 0.1611451E-03 0.4275871E-03 0.9323898E+00 0.1021107E-03 0.1867318E+00 0.3654999E+00 0.2137933E+01
 0.1611451E-03 0.4306755E-03 0.9327765E+00 0.1035132E-03 0.1867318E+00 0.3670058E+00 0.2155943E+01
 0.1611451E-03 0.4337705E-03 0.9331544E+00 0.1049221E-03 0.1867318E+00 0.3685066E+00 0.2173892E+01