# T = 246.15
  0.0,246.150,0.00000200,0.00000200,1.00000000,0.000000000000031,0.000000000000000034,0.0000,0.00000400
  1.0,246.150,0.00000300,0.00000300,1.00000000,0.000000000000084,0.000000000000000113,0.0005,0.00000600
  2.0,246.150,0.00000381,0.00000381,1.00000000,0.000000000000163,0.000000000000000232,0.0010,0.00000762
  3.0,246.150,0.00000451,0.00000451,1.00000000,0.000000000000264,0.000000000000000383,0.0015,0.00000901
  4.0,246.150,0.00000512,0.00000512,1.00000000,0.000000000000383,0.000000000000000562,0.0021,0.00001024
  5.0,246.150,0.00000561,0.00000581,1.03522799,0.000000000000518,0.000000000000000765,0.0027,0.00001161
  6.0,246.150,0.00000605,0.00000645,1.06562835,0.000000000000669,0.000000000000000991,0.0024,0.00001290
  7.0,246.150,0.00000646,0.00000706,1.09243514,0.000000000000832,0.000000000000001236,0.0028,0.00001412
  8.0,246.150,0.00000685,0.00000764,1.11645753,0.000000000001009,0.000000000000001501,0.0032,0.00001529
  9.0,246.150,0.00000720,0.00000820,1.13825602,0.000000000001197,0.000000000000001783,0.0037,0.00001640
 10.0,246.150,0.00000754,0.00000874,1.15823515,0.000000000001396,0.000000000000002082,0.0041,0.00001747
 11.0,246.150,0.00000786,0.00000925,1.17669673,0.000000000001606,0.000000000000002398,0.0045,0.00001851
 12.0,246.150,0.00000817,0.00000976,1.19387205,0.000000000001827,0.000000000000002728,0.0050,0.00001951
 13.0,246.150,0.00000846,0.00001024,1.20994243,0.000000000002057,0.000000000000003073,0.0054,0.00002048
 14.0,246.150,0.00000875,0.00001071,1.22505268,0.000000000002296,0.000000000000003433,0.0058,0.00002143
 15.0,246.150,0.00000902,0.00001118,1.23932041,0.000000000002545,0.000000000000003806,0.0063,0.00002235
 16.0,246.150,0.00000928,0.00001163,1.25284244,0.000000000002802,0.000000000000004193,0.0067,0.00002325
 17.0,246.150,0.00000953,0.00001206,1.26569952,0.000000000003069,0.000000000000004592,0.0071,0.00002413
 18.0,246.150,0.00000978,0.00001250,1.27795967,0.000000000003343,0.000000000000005004,0.0076,0.00002499
 19.0,246.150,0.00001002,0.00001292,1.28968080,0.000000000003626,0.000000000000005428,0.0080,0.00002583
 20.0,246.150,0.00001025,0.00001333,1.30091258,0.000000000003916,0.000000000000005864,0.0084,0.00002666
 21.0,246.150,0.00001047,0.00001374,1.31169800,0.000000000004215,0.000000000000006311,0.0089,0.00002747
 22.0,246.150,0.00001069,0.00001414,1.32207450,0.000000000004520,0.000000000000006770,0.0093,0.00002827
 23.0,246.150,0.00001091,0.00001453,1.33207490,0.000000000004834,0.000000000000007240,0.0097,0.00002906
 24.0,246.150,0.00001112,0.00001492,1.34172812,0.000000000005154,0.000000000000007721,0.0102,0.00002983
 25.0,246.150,0.00001132,0.00001530,1.35105982,0.000000000005482,0.000000000000008213,0.0106,0.00003059
 26.0,246.150,0.00001152,0.00001567,1.36009285,0.000000000005816,0.000000000000008715,0.0110,0.00003134
 27.0,246.150,0.00001172,0.00001604,1.36884764,0.000000000006158,0.000000000000009227,0.0115,0.00003208
 28.0,246.150,0.00001191,0.00001641,1.37734256,0.000000000006506,0.000000000000009750,0.0119,0.00003281
 29.0,246.150,0.00001210,0.00001677,1.38559419,0.000000000006861,0.000000000000010282,0.0123,0.00003353
 30.0,246.150,0.00001229,0.00001712,1.39361751,0.000000000007222,0.000000000000010824,0.0128,0.00003424
 31.0,246.150,0.00001247,0.00001747,1.40142614,0.000000000007590,0.000000000000011376,0.0132,0.00003494
 32.0,246.150,0.00001265,0.00001782,1.40903251,0.000000000007964,0.000000000000011938,0.0136,0.00003564
 33.0,246.150,0.00001282,0.00001816,1.41644794,0.000000000008344,0.000000000000012508,0.0140,0.00003632
 34.0,246.150,0.00001300,0.00001850,1.42368284,0.000000000008731,0.000000000000013088,0.0145,0.00003700
 35.0,246.150,0.00001317,0.00001884,1.43074675,0.000000000009123,0.000000000000013677,0.0149,0.00003767
 36.0,246.150,0.00001333,0.00001917,1.43764846,0.000000000009522,0.000000000000014275,0.0153,0.00003834
 37.0,246.150,0.00001350,0.00001950,1.44439610,0.000000000009926,0.000000000000014882,0.0158,0.00003900
 38.0,246.150,0.00001366,0.00001982,1.45099717,0.000000000010337,0.000000000000015498,0.0162,0.00003965
 39.0,246.150,0.00001382,0.00002015,1.45745863,0.000000000010753,0.000000000000016123,0.0166,0.00004029
 40.0,246.150,0.00001398,0.00002046,1.46378696,0.000000000011175,0.000000000000016756,0.0170,0.00004093
 41.0,246.150,0.00001414,0.00002078,1.46998817,0.000000000011602,0.000000000000017397,0.0175,0.00004156
 42.0,246.150,0.00001429,0.00002109,1.47606787,0.000000000012035,0.000000000000018047,0.0179,0.00004219
 43.0,246.150,0.00001444,0.00002141,1.48203130,0.000000000012474,0.000000000000018705,0.0183,0.00004281
 44.0,246.150,0.00001459,0.00002171,1.48788337,0.000000000012918,0.000000000000019372,0.0187,0.00004343
 45.0,246.150,0.00001474,0.00002202,1.49362866,0.000000000013368,0.000000000000020046,0.0192,0.00004404
 46.0,246.150,0.00001489,0.00002232,1.49927147,0.000000000013823,0.000000000000020729,0.0196,0.00004465
 47.0,246.150,0.00001503,0.00002262,1.50481586,0.000000000014283,0.000000000000021419,0.0200,0.00004525
 48.0,246.150,0.00001518,0.00002292,1.51026564,0.000000000014748,0.000000000000022118,0.0204,0.00004584
 49.0,246.150,0.00001532,0.00002322,1.51562438,0.000000000015219,0.000000000000022824,0.0208,0.00004644
 50.0,246.150,0.00001546,0.00002351,1.52089547,0.000000000015695,0.000000000000023538,0.0213,0.00004702
 51.0,246.150,0.00001560,0.00002380,1.52608209,0.000000000016176,0.000000000000024260,0.0217,0.00004761
 52.0,246.150,0.00001574,0.00002409,1.53118728,0.000000000016662,0.000000000000024990,0.0221,0.00004819
 53.0,246.150,0.00001587,0.00002438,1.53621388,0.000000000017153,0.000000000000025727,0.0225,0.00004876
 54.0,246.150,0.00001601,0.00002467,1.54116460,0.000000000017650,0.000000000000026471,0.0229,0.00004934
 55.0,246.150,0.00001614,0.00002495,1.54604201,0.000000000018151,0.000000000000027223,0.0234,0.00004990
 56.0,246.150,0.00001627,0.00002523,1.55084854,0.000000000018657,0.000000000000027983,0.0238,0.00005047
 57.0,246.150,0.00001640,0.00002551,1.55558649,0.000000000019168,0.000000000000028750,0.0242,0.00005103
 58.0,246.150,0.00001653,0.00002579,1.56025809,0.000000000019684,0.000000000000029524,0.0246,0.00005158
 59.0,246.150,0.00001666,0.00002607,1.56486540,0.000000000020205,0.000000000000030305,0.0250,0.00005214
 60.0,246.150,0.00001679,0.00002634,1.56941044,0.000000000020730,0.000000000000031094,0.0254,0.00005269
 61.0,246.150,0.00001691,0.00002662,1.57389511,0.000000000021260,0.000000000000031889,0.0259,0.00005324
 62.0,246.150,0.00001704,0.00002689,1.57832120,0.000000000021795,0.000000000000032692,0.0263,0.00005378
 63.0,246.150,0.00001716,0.00002716,1.58269047,0.000000000022335,0.000000000000033502,0.0267,0.00005432
 64.0,246.150,0.00001728,0.00002743,1.58700456,0.000000000022879,0.000000000000034319,0.0271,0.00005486
 65.0,246.150,0.00001740,0.00002770,1.59126506,0.000000000023428,0.000000000000035142,0.0275,0.00005539
 66.0,246.150,0.00001753,0.00002796,1.59547348,0.000000000023982,0.000000000000035973,0.0279,0.00005592
 67.0,246.150,0.00001765,0.00002823,1.59963127,0.000000000024540,0.000000000000036811,0.0283,0.00005645
 68.0,246.150,0.00001776,0.00002849,1.60373982,0.000000000025103,0.000000000000037655,0.0288,0.00005698
 69.0,246.150,0.00001788,0.00002875,1.60780047,0.000000000025670,0.000000000000038506,0.0292,0.00005750
 70.0,246.150,0.00001800,0.00002901,1.61181448,0.000000000026242,0.000000000000039364,0.0296,0.00005802
 71.0,246.150,0.00001811,0.00002927,1.61578310,0.000000000026818,0.000000000000040229,0.0300,0.00005854
 72.0,246.150,0.00001823,0.00002953,1.61970748,0.000000000027399,0.000000000000041100,0.0304,0.00005905
 73.0,246.150,0.00001834,0.00002978,1.62358878,0.000000000027984,0.000000000000041978,0.0308,0.00005957
 74.0,246.150,0.00001846,0.00003004,1.62742807,0.000000000028573,0.000000000000042863,0.0312,0.00006008
 75.0,246.150,0.00001857,0.00003029,1.63122641,0.000000000029167,0.000000000000043754,0.0316,0.00006058
 76.0,246.150,0.00001868,0.00003054,1.63498480,0.000000000029765,0.000000000000044651,0.0320,0.00006109
 77.0,246.150,0.00001879,0.00003080,1.63870421,0.000000000030368,0.000000000000045556,0.0324,0.00006159
 78.0,246.150,0.00001890,0.00003105,1.64238558,0.000000000030975,0.000000000000046466,0.0329,0.00006209
 79.0,246.150,0.00001901,0.00003129,1.64602981,0.000000000031586,0.000000000000047383,0.0333,0.00006259
 80.0,246.150,0.00001912,0.00003154,1.64963777,0.000000000032201,0.000000000000048307,0.0337,0.00006309
 81.0,246.150,0.00001923,0.00003179,1.65321030,0.000000000032821,0.000000000000049237,0.0341,0.00006358
 82.0,246.150,0.00001934,0.00003204,1.65674821,0.000000000033445,0.000000000000050173,0.0345,0.00006407
 83.0,246.150,0.00001944,0.00003228,1.66025229,0.000000000034073,0.000000000000051115,0.0349,0.00006456
 84.0,246.150,0.00001955,0.00003252,1.66372327,0.000000000034705,0.000000000000052064,0.0353,0.00006505
 85.0,246.150,0.00001965,0.00003277,1.66716191,0.000000000035342,0.000000000000053019,0.0357,0.00006553
 86.0,246.150,0.00001976,0.00003301,1.67056890,0.000000000035982,0.000000000000053980,0.0361,0.00006602
 87.0,246.150,0.00001986,0.00003325,1.67394492,0.000000000036627,0.000000000000054948,0.0365,0.00006650
 88.0,246.150,0.00001997,0.00003349,1.67729065,0.000000000037276,0.000000000000055922,0.0369,0.00006698
 89.0,246.150,0.00002007,0.00003373,1.68060671,0.000000000037929,0.000000000000056901,0.0373,0.00006746
 90.0,246.150,0.00002017,0.00003397,1.68389373,0.000000000038586,0.000000000000057887,0.0377,0.00006793
 91.0,246.150,0.00002027,0.00003420,1.68715230,0.000000000039247,0.000000000000058879,0.0381,0.00006841
 92.0,246.150,0.00002037,0.00003444,1.69038302,0.000000000039912,0.000000000000059878,0.0385,0.00006888
 93.0,246.150,0.00002047,0.00003467,1.69358644,0.000000000040582,0.000000000000060882,0.0389,0.00006935
 94.0,246.150,0.00002057,0.00003491,1.69676310,0.000000000041255,0.000000000000061892,0.0393,0.00006982
 95.0,246.150,0.00002067,0.00003514,1.69991355,0.000000000041932,0.000000000000062908,0.0397,0.00007028
 96.0,246.150,0.00002077,0.00003537,1.70303829,0.000000000042613,0.000000000000063930,0.0401,0.00007075
 97.0,246.150,0.00002087,0.00003561,1.70613783,0.000000000043298,0.000000000000064959,0.0405,0.00007121
 98.0,246.150,0.00002097,0.00003584,1.70921265,0.000000000043988,0.000000000000065993,0.0409,0.00007167
 99.0,246.150,0.00002106,0.00003607,1.71226321,0.000000000044681,0.000000000000067033,0.0413,0.00007213
100.0,246.150,0.00002116,0.00003630,1.71528998,0.000000000045378,0.000000000000068079,0.0417,0.00007259
101.0,246.150,0.00002126,0.00003653,1.71829341,0.000000000046079,0.000000000000069131,0.0421,0.00007305
102.0,246.150,0.00002135,0.00003675,1.72127392,0.000000000046784,0.000000000000070188,0.0425,0.00007351
103.0,246.150,0.00002145,0.00003698,1.72423194,0.000000000047492,0.000000000000071252,0.0429,0.00007396
104.0,246.150,0.00002154,0.00003721,1.72716787,0.000000000048205,0.000000000000072321,0.0433,0.00007441
105.0,246.150,0.00002164,0.00003743,1.73008211,0.000000000048922,0.000000000000073396,0.0437,0.00007486
106.0,246.150,0.00002173,0.00003766,1.73297505,0.000000000049642,0.000000000000074477,0.0441,0.00007531
107.0,246.150,0.00002182,0.00003788,1.73584707,0.000000000050366,0.000000000000075564,0.0445,0.00007576
108.0,246.150,0.00002192,0.00003810,1.73869852,0.000000000051094,0.000000000000076656,0.0449,0.00007621
109.0,246.150,0.00002201,0.00003833,1.74152978,0.000000000051826,0.000000000000077755,0.0453,0.00007665
110.0,246.150,0.00002210,0.00003855,1.74434119,0.000000000052562,0.000000000000078859,0.0457,0.00007710
111.0,246.150,0.00002219,0.00003877,1.74713308,0.000000000053301,0.000000000000079968,0.0461,0.00007754
112.0,246.150,0.00002228,0.00003899,1.74990579,0.000000000054044,0.000000000000081083,0.0464,0.00007798
113.0,246.150,0.00002237,0.00003921,1.75265964,0.000000000054791,0.000000000000082204,0.0468,0.00007842
114.0,246.150,0.00002246,0.00003943,1.75539494,0.000000000055542,0.000000000000083331,0.0472,0.00007886
115.0,246.150,0.00002255,0.00003965,1.75811200,0.000000000056297,0.000000000000084463,0.0476,0.00007930
116.0,246.150,0.00002264,0.00003987,1.76081112,0.000000000057055,0.000000000000085601,0.0480,0.00007973
117.0,246.150,0.00002273,0.00004008,1.76349259,0.000000000057817,0.000000000000086744,0.0484,0.00008017
118.0,246.150,0.00002282,0.00004030,1.76615670,0.000000000058583,0.000000000000087893,0.0488,0.00008060
119.0,246.150,0.00002291,0.00004052,1.76880371,0.000000000059352,0.000000000000089048,0.0492,0.00008103
120.0,246.150,0.00002299,0.00004073,1.77143391,0.000000000060125,0.000000000000090208,0.0496,0.00008146
121.0,246.150,0.00002308,0.00004095,1.77404755,0.000000000060902,0.000000000000091374,0.0500,0.00008189
122.0,246.150,0.00002317,0.00004116,1.77664490,0.000000000061683,0.000000000000092545,0.0504,0.00008232
123.0,246.150,0.00002325,0.00004137,1.77922621,0.000000000062467,0.000000000000093721,0.0507,0.00008275
124.0,246.150,0.00002334,0.00004159,1.78179173,0.000000000063255,0.000000000000094904,0.0511,0.00008318
125.0,246.150,0.00002343,0.00004180,1.78434169,0.000000000064046,0.000000000000096091,0.0515,0.00008360
126.0,246.150,0.00002351,0.00004201,1.78687633,0.000000000064841,0.000000000000097284,0.0519,0.00008403
127.0,246.150,0.00002360,0.00004222,1.78939588,0.000000000065640,0.000000000000098483,0.0523,0.00008445
128.0,246.150,0.00002368,0.00004244,1.79190057,0.000000000066442,0.000000000000099687,0.0527,0.00008487
129.0,246.150,0.00002377,0.00004265,1.79439061,0.000000000067248,0.000000000000100896,0.0531,0.00008529
130.0,246.150,0.00002385,0.00004286,1.79686623,0.000000000068058,0.000000000000102111,0.0534,0.00008571
131.0,246.150,0.00002393,0.00004306,1.79932763,0.000000000068871,0.000000000000103332,0.0538,0.00008613
132.0,246.150,0.00002402,0.00004327,1.80177502,0.000000000069688,0.000000000000104557,0.0542,0.00008655
133.0,246.150,0.00002410,0.00004348,1.80420860,0.000000000070508,0.000000000000105788,0.0546,0.00008696
134.0,246.150,0.00002418,0.00004369,1.80662857,0.000000000071332,0.000000000000107025,0.0550,0.00008738
135.0,246.150,0.00002427,0.00004390,1.80903512,0.000000000072160,0.000000000000108267,0.0554,0.00008779
136.0,246.150,0.00002435,0.00004410,1.81142844,0.000000000072991,0.000000000000109514,0.0557,0.00008821
137.0,246.150,0.00002443,0.00004431,1.81380872,0.000000000073826,0.000000000000110766,0.0561,0.00008862
138.0,246.150,0.00002451,0.00004452,1.81617613,0.000000000074664,0.000000000000112024,0.0565,0.00008903
139.0,246.150,0.00002459,0.00004472,1.81853086,0.000000000075506,0.000000000000113287,0.0569,0.00008944
140.0,246.150,0.00002467,0.00004493,1.82087308,0.000000000076351,0.000000000000114555,0.0573,0.00008985
141.0,246.150,0.00002475,0.00004513,1.82320295,0.000000000077200,0.000000000000115829,0.0576,0.00009026
142.0,246.150,0.00002483,0.00004533,1.82552066,0.000000000078052,0.000000000000117108,0.0580,0.00009067
143.0,246.150,0.00002491,0.00004554,1.82782635,0.000000000078908,0.000000000000118392,0.0584,0.00009107
144.0,246.150,0.00002499,0.00004574,1.83012019,0.000000000079767,0.000000000000119682,0.0588,0.00009148
145.0,246.150,0.00002507,0.00004594,1.83240234,0.000000000080630,0.000000000000120976,0.0592,0.00009189
146.0,246.150,0.00002515,0.00004614,1.83467296,0.000000000081496,0.000000000000122276,0.0595,0.00009229
147.0,246.150,0.00002523,0.00004635,1.83693219,0.000000000082366,0.000000000000123581,0.0599,0.00009269
148.0,246.150,0.00002531,0.00004655,1.83918018,0.000000000083239,0.000000000000124892,0.0603,0.00009310
149.0,246.150,0.00002539,0.00004675,1.84141707,0.000000000084116,0.000000000000126208,0.0607,0.00009350
150.0,246.150,0.00002547,0.00004695,1.84364302,0.000000000084996,0.000000000000127528,0.0611,0.00009390
151.0,246.150,0.00002554,0.00004715,1.84585816,0.000000000085880,0.000000000000128854,0.0614,0.00009430
152.0,246.150,0.00002562,0.00004735,1.84806262,0.000000000086767,0.000000000000130186,0.0618,0.00009470
153.0,246.150,0.00002570,0.00004755,1.85025655,0.000000000087658,0.000000000000131522,0.0622,0.00009509
154.0,246.150,0.00002577,0.00004775,1.85244008,0.000000000088552,0.000000000000132863,0.0626,0.00009549
155.0,246.150,0.00002585,0.00004794,1.85461333,0.000000000089449,0.000000000000134210,0.0629,0.00009589
156.0,246.150,0.00002593,0.00004814,1.85677643,0.000000000090350,0.000000000000135562,0.0633,0.00009628
157.0,246.150,0.00002600,0.00004834,1.85892950,0.000000000091255,0.000000000000136919,0.0637,0.00009668
158.0,246.150,0.00002608,0.00004854,1.86107268,0.000000000092162,0.000000000000138281,0.0641,0.00009707
159.0,246.150,0.00002616,0.00004873,1.86320608,0.000000000093074,0.000000000000139648,0.0644,0.00009747
160.0,246.150,0.00002623,0.00004893,1.86532983,0.000000000093988,0.000000000000141021,0.0648,0.00009786
161.0,246.150,0.00002631,0.00004913,1.86744402,0.000000000094906,0.000000000000142398,0.0652,0.00009825
162.0,246.150,0.00002638,0.00004932,1.86954879,0.000000000095827,0.000000000000143781,0.0655,0.00009864
163.0,246.150,0.00002646,0.00004952,1.87164424,0.000000000096752,0.000000000000145168,0.0659,0.00009903
164.0,246.150,0.00002653,0.00004971,1.87373049,0.000000000097680,0.000000000000146561,0.0663,0.00009942
165.0,246.150,0.00002660,0.00004990,1.87580764,0.000000000098612,0.000000000000147959,0.0667,0.00009981
166.0,246.150,0.00002668,0.00005010,1.87787579,0.000000000099547,0.000000000000149362,0.0670,0.00010020
167.0,246.150,0.00002675,0.00005029,1.87993506,0.000000000100485,0.000000000000150770,0.0674,0.00010059
168.0,246.150,0.00002683,0.00005049,1.88198555,0.000000000101427,0.000000000000152183,0.0678,0.00010097
169.0,246.150,0.00002690,0.00005068,1.88402736,0.000000000102372,0.000000000000153601,0.0681,0.00010136
170.0,246.150,0.00002697,0.00005087,1.88606058,0.000000000103320,0.000000000000155024,0.0685,0.00010174
171.0,246.150,0.00002705,0.00005106,1.88808532,0.000000000104272,0.000000000000156452,0.0689,0.00010213
172.0,246.150,0.00002712,0.00005126,1.89010168,0.000000000105227,0.000000000000157885,0.0693,0.00010251
173.0,246.150,0.00002719,0.00005145,1.89210974,0.000000000106185,0.000000000000159323,0.0696,0.00010289
174.0,246.150,0.00002726,0.00005164,1.89410960,0.000000000107147,0.000000000000160766,0.0700,0.00010328
175.0,246.150,0.00002733,0.00005183,1.89610135,0.000000000108112,0.000000000000162215,0.0704,0.00010366
176.0,246.150,0.00002741,0.00005202,1.89808508,0.000000000109081,0.000000000000163668,0.0707,0.00010404
177.0,246.150,0.00002748,0.00005221,1.90006089,0.000000000110053,0.000000000000165126,0.0711,0.00010442
178.0,246.150,0.00002755,0.00005240,1.90202885,0.000000000111028,0.000000000000166589,0.0715,0.00010480
179.0,246.150,0.00002762,0.00005259,1.90398906,0.000000000112006,0.000000000000168057,0.0718,0.00010518
180.0,246.150,0.00002769,0.00005278,1.90594160,0.000000000112988,0.000000000000169531,0.0722,0.00010556
181.0,246.150,0.00002776,0.00005297,1.90788655,0.000000000113973,0.000000000000171009,0.0726,0.00010594
182.0,246.150,0.00002783,0.00005316,1.90982399,0.000000000114961,0.000000000000172492,0.0729,0.00010631
183.0,246.150,0.00002790,0.00005334,1.91175400,0.000000000115953,0.000000000000173980,0.0733,0.00010669
184.0,246.150,0.00002797,0.00005353,1.91367667,0.000000000116948,0.000000000000175473,0.0736,0.00010707
185.0,246.150,0.00002804,0.00005372,1.91559207,0.000000000117946,0.000000000000176971,0.0740,0.00010744
186.0,246.150,0.00002811,0.00005391,1.91750028,0.000000000118948,0.000000000000178474,0.0744,0.00010782
187.0,246.150,0.00002818,0.00005409,1.91940138,0.000000000119952,0.000000000000179981,0.0747,0.00010819
188.0,246.150,0.00002825,0.00005428,1.92129543,0.000000000120961,0.000000000000181494,0.0751,0.00010856
189.0,246.150,0.00002832,0.00005447,1.92318252,0.000000000121972,0.000000000000183012,0.0755,0.00010894
190.0,246.150,0.00002839,0.00005465,1.92506271,0.000000000122987,0.000000000000184534,0.0758,0.00010931
191.0,246.150,0.00002846,0.00005484,1.92693608,0.000000000124005,0.000000000000186062,0.0762,0.00010968
192.0,246.150,0.00002853,0.00005503,1.92880269,0.000000000125026,0.000000000000187594,0.0765,0.00011005
193.0,246.150,0.00002860,0.00005521,1.93066262,0.000000000126050,0.000000000000189132,0.0769,0.00011042
194.0,246.150,0.00002867,0.00005540,1.93251593,0.000000000127078,0.000000000000190674,0.0773,0.00011079
195.0,246.150,0.00002873,0.00005558,1.93436270,0.000000000128109,0.000000000000192221,0.0776,0.00011116
196.0,246.150,0.00002880,0.00005577,1.93620298,0.000000000129143,0.000000000000193773,0.0780,0.00011153
197.0,246.150,0.00002887,0.00005595,1.93803684,0.000000000130181,0.000000000000195330,0.0783,0.00011190
198.0,246.150,0.00002894,0.00005613,1.93986435,0.000000000131222,0.000000000000196892,0.0787,0.00011227
199.0,246.150,0.00002900,0.00005632,1.94168557,0.000000000132266,0.000000000000198458,0.0791,0.00011264
200.0,246.150,0.00002907,0.00005650,1.94350056,0.000000000133313,0.000000000000200030,0.0794,0.00011300
201.0,246.150,0.00002914,0.00005668,1.94530939,0.000000000134364,0.000000000000201606,0.0798,0.00011337
202.0,246.150,0.00002921,0.00005687,1.94711211,0.000000000135418,0.000000000000203187,0.0801,0.00011373
203.0,246.150,0.00002927,0.00005705,1.94890879,0.000000000136475,0.000000000000204774,0.0805,0.00011410
204.0,246.150,0.00002934,0.00005723,1.95069947,0.000000000137535,0.000000000000206365,0.0809,0.00011446
205.0,246.150,0.00002941,0.00005741,1.95248423,0.000000000138598,0.000000000000207960,0.0812,0.00011483
206.0,246.150,0.00002947,0.00005760,1.95426312,0.000000000139665,0.000000000000209561,0.0816,0.00011519
207.0,246.150,0.00002954,0.00005778,1.95603620,0.000000000140735,0.000000000000211167,0.0819,0.00011556
208.0,246.150,0.00002960,0.00005796,1.95780351,0.000000000141808,0.000000000000212777,0.0823,0.00011592
209.0,246.150,0.00002967,0.00005814,1.95956512,0.000000000142885,0.000000000000214392,0.0826,0.00011628
210.0,246.150,0.00002974,0.00005832,1.96132109,0.000000000143964,0.000000000000216012,0.0830,0.00011664
211.0,246.150,0.00002980,0.00005850,1.96307145,0.000000000145047,0.000000000000217637,0.0833,0.00011700
212.0,246.150,0.00002987,0.00005868,1.96481627,0.000000000146133,0.000000000000219267,0.0837,0.00011737
213.0,246.150,0.00002993,0.00005886,1.96655561,0.000000000147222,0.000000000000220901,0.0841,0.00011773
214.0,246.150,0.00003000,0.00005904,1.96828950,0.000000000148315,0.000000000000222540,0.0844,0.00011809
215.0,246.150,0.00003006,0.00005922,1.97001800,0.000000000149411,0.000000000000224185,0.0848,0.00011844
216.0,246.150,0.00003013,0.00005940,1.97174116,0.000000000150509,0.000000000000225833,0.0851,0.00011880
217.0,246.150,0.00003019,0.00005958,1.97345904,0.000000000151612,0.000000000000227487,0.0855,0.00011916
218.0,246.150,0.00003026,0.00005976,1.97517167,0.000000000152717,0.000000000000229146,0.0858,0.00011952
219.0,246.150,0.00003032,0.00005994,1.97687911,0.000000000153825,0.000000000000230809,0.0862,0.00011988
220.0,246.150,0.00003038,0.00006012,1.97858140,0.000000000154937,0.000000000000232477,0.0865,0.00012023
221.0,246.150,0.00003045,0.00006030,1.98027860,0.000000000156052,0.000000000000234150,0.0869,0.00012059
222.0,246.150,0.00003051,0.00006047,1.98197074,0.000000000157170,0.000000000000235828,0.0872,0.00012095
223.0,246.150,0.00003058,0.00006065,1.98365788,0.000000000158291,0.000000000000237510,0.0876,0.00012130
224.0,246.150,0.00003064,0.00006083,1.98534005,0.000000000159416,0.000000000000239198,0.0879,0.00012166
225.0,246.150,0.00003070,0.00006101,1.98701731,0.000000000160543,0.000000000000240890,0.0883,0.00012201
226.0,246.150,0.00003077,0.00006118,1.98868969,0.000000000161674,0.000000000000242587,0.0886,0.00012237
227.0,246.150,0.00003083,0.00006136,1.99035725,0.000000000162808,0.000000000000244288,0.0890,0.00012272
228.0,246.150,0.00003089,0.00006154,1.99202002,0.000000000163945,0.000000000000245994,0.0893,0.00012308
229.0,246.150,0.00003095,0.00006171,1.99367804,0.000000000165086,0.000000000000247706,0.0897,0.00012343
230.0,246.150,0.00003102,0.00006189,1.99533136,0.000000000166229,0.000000000000249422,0.0900,0.00012378
231.0,246.150,0.00003108,0.00006207,1.99698001,0.000000000167376,0.000000000000251142,0.0904,0.00012413
232.0,246.150,0.00003114,0.00006224,1.99862405,0.000000000168526,0.000000000000252868,0.0907,0.00012449
233.0,246.150,0.00003121,0.00006242,2.00026351,0.000000000169679,0.000000000000254598,0.0911,0.00012484
234.0,246.150,0.00003127,0.00006259,2.00189842,0.000000000170835,0.000000000000256333,0.0914,0.00012519
235.0,246.150,0.00003133,0.00006277,2.00352883,0.000000000171994,0.000000000000258073,0.0918,0.00012554
236.0,246.150,0.00003139,0.00006294,2.00515478,0.000000000173157,0.000000000000259817,0.0921,0.00012589
237.0,246.150,0.00003145,0.00006312,2.00677630,0.000000000174323,0.000000000000261566,0.0925,0.00012624
238.0,246.150,0.00003151,0.00006329,2.00839344,0.000000000175491,0.000000000000263320,0.0928,0.00012659
239.0,246.150,0.00003158,0.00006347,2.01000623,0.000000000176663,0.000000000000265079,0.0931,0.00012694
240.0,246.150,0.00003164,0.00006364,2.01161470,0.000000000177839,0.000000000000266842,0.0935,0.00012729
241.0,246.150,0.00003170,0.00006382,2.01321890,0.000000000179017,0.000000000000268610,0.0938,0.00012763
242.0,246.150,0.00003176,0.00006399,2.01481886,0.000000000180198,0.000000000000270383,0.0942,0.00012798
243.0,246.150,0.00003182,0.00006417,2.01641461,0.000000000181383,0.000000000000272161,0.0945,0.00012833
244.0,246.150,0.00003188,0.00006434,2.01800619,0.000000000182571,0.000000000000273943,0.0949,0.00012868
245.0,246.150,0.00003194,0.00006451,2.01959364,0.000000000183762,0.000000000000275730,0.0952,0.00012902
246.0,246.150,0.00003200,0.00006469,2.02117699,0.000000000184956,0.000000000000277522,0.0956,0.00012937
247.0,246.150,0.00003206,0.00006486,2.02275627,0.000000000186153,0.000000000000279319,0.0959,0.00012972
248.0,246.150,0.00003212,0.00006503,2.02433152,0.000000000187354,0.000000000000281120,0.0962,0.00013006
249.0,246.150,0.00003219,0.00006520,2.02590277,0.000000000188557,0.000000000000282926,0.0966,0.00013041
250.0,246.150,0.00003225,0.00006538,2.02747005,0.000000000189764,0.000000000000284737,0.0969,0.00013075
251.0,246.150,0.00003231,0.00006555,2.02903340,0.000000000190974,0.000000000000286552,0.0973,0.00013110
252.0,246.150,0.00003237,0.00006572,2.03059285,0.000000000192187,0.000000000000288372,0.0976,0.00013144
253.0,246.150,0.00003243,0.00006589,2.03214843,0.000000000193403,0.000000000000290197,0.0979,0.00013179
254.0,246.150,0.00003248,0.00006606,2.03370016,0.000000000194622,0.000000000000292026,0.0983,0.00013213
255.0,246.150,0.00003254,0.00006624,2.03524809,0.000000000195844,0.000000000000293861,0.0986,0.00013247
256.0,246.150,0.00003260,0.00006641,2.03679225,0.000000000197070,0.000000000000295700,0.0990,0.00013282
257.0,246.150,0.00003266,0.00006658,2.03833265,0.000000000198299,0.000000000000297543,0.0993,0.00013316
258.0,246.150,0.00003272,0.00006675,2.03986934,0.000000000199530,0.000000000000299392,0.0996,0.00013350
259.0,246.150,0.00003278,0.00006692,2.04140234,0.000000000200765,0.000000000000301245,0.1000,0.00013384
260.0,246.150,0.00003284,0.00006709,2.04293168,0.000000000202003,0.000000000000303102,0.1003,0.00013418
261.0,246.150,0.00003290,0.00006726,2.04445740,0.000000000203245,0.000000000000304965,0.1007,0.00013452
262.0,246.150,0.00003296,0.00006743,2.04597951,0.000000000204489,0.000000000000306832,0.1010,0.00013487
263.0,246.150,0.00003302,0.00006760,2.04749805,0.000000000205736,0.000000000000308704,0.1013,0.00013521
264.0,246.150,0.00003308,0.00006777,2.04901305,0.000000000206987,0.000000000000310580,0.1017,0.00013555
265.0,246.150,0.00003313,0.00006794,2.05052453,0.000000000208241,0.000000000000312462,0.1020,0.00013589
266.0,246.150,0.00003319,0.00006811,2.05203252,0.000000000209497,0.000000000000314348,0.1024,0.00013623
267.0,246.150,0.00003325,0.00006828,2.05353705,0.000000000210757,0.000000000000316238,0.1027,0.00013657
268.0,246.150,0.00003331,0.00006845,2.05503814,0.000000000212020,0.000000000000318133,0.1030,0.00013690
269.0,246.150,0.00003337,0.00006862,2.05653583,0.000000000213287,0.000000000000320033,0.1034,0.00013724
270.0,246.150,0.00003343,0.00006879,2.05803013,0.000000000214556,0.000000000000321938,0.1037,0.00013758
271.0,246.150,0.00003348,0.00006896,2.05952108,0.000000000215828,0.000000000000323847,0.1040,0.00013792
272.0,246.150,0.00003354,0.00006913,2.06100870,0.000000000217104,0.000000000000325762,0.1044,0.00013826
273.0,246.150,0.00003360,0.00006930,2.06249301,0.000000000218383,0.000000000000327680,0.1047,0.00013859
274.0,246.150,0.00003366,0.00006947,2.06397404,0.000000000219664,0.000000000000329604,0.1050,0.00013893
275.0,246.150,0.00003371,0.00006963,2.06545182,0.000000000220949,0.000000000000331532,0.1054,0.00013927
276.0,246.150,0.00003377,0.00006980,2.06692637,0.000000000222237,0.000000000000333464,0.1057,0.00013960
277.0,246.150,0.00003383,0.00006997,2.06839771,0.000000000223529,0.000000000000335402,0.1060,0.00013994
278.0,246.150,0.00003389,0.00007014,2.06986587,0.000000000224823,0.000000000000337344,0.1064,0.00014028
279.0,246.150,0.00003394,0.00007031,2.07133088,0.000000000226120,0.000000000000339291,0.1067,0.00014061
280.0,246.150,0.00003400,0.00007047,2.07279275,0.000000000227421,0.000000000000341242,0.1070,0.00014095
281.0,246.150,0.00003406,0.00007064,2.07425151,0.000000000228724,0.000000000000343198,0.1074,0.00014128
282.0,246.150,0.00003411,0.00007081,2.07570718,0.000000000230031,0.000000000000345159,0.1077,0.00014162
283.0,246.150,0.00003417,0.00007098,2.07715978,0.000000000231341,0.000000000000347125,0.1080,0.00014195
284.0,246.150,0.00003423,0.00007114,2.07860935,0.000000000232654,0.000000000000349095,0.1084,0.00014229
285.0,246.150,0.00003428,0.00007131,2.08005590,0.000000000233970,0.000000000000351070,0.1087,0.00014262
286.0,246.150,0.00003434,0.00007148,2.08149945,0.000000000235289,0.000000000000353049,0.1090,0.00014295
287.0,246.150,0.00003440,0.00007164,2.08294002,0.000000000236611,0.000000000000355033,0.1094,0.00014329
288.0,246.150,0.00003445,0.00007181,2.08437764,0.000000000237937,0.000000000000357022,0.1097,0.00014362
289.0,246.150,0.00003451,0.00007198,2.08581233,0.000000000239265,0.000000000000359016,0.1100,0.00014395
290.0,246.150,0.00003456,0.00007214,2.08724411,0.000000000240597,0.000000000000361014,0.1104,0.00014429
291.0,246.150,0.00003462,0.00007231,2.08867300,0.000000000241932,0.000000000000363016,0.1107,0.00014462
292.0,246.150,0.00003468,0.00007248,2.09009903,0.000000000243269,0.000000000000365024,0.1110,0.00014495
293.0,246.150,0.00003473,0.00007264,2.09152220,0.000000000244610,0.000000000000367036,0.1114,0.00014528
294.0,246.150,0.00003479,0.00007281,2.09294255,0.000000000245954,0.000000000000369053,0.1117,0.00014561
295.0,246.150,0.00003484,0.00007297,2.09436009,0.000000000247302,0.000000000000371074,0.1120,0.00014594
296.0,246.150,0.00003490,0.00007314,2.09577485,0.000000000248652,0.000000000000373100,0.1123,0.00014628
297.0,246.150,0.00003495,0.00007330,2.09718684,0.000000000250005,0.000000000000375131,0.1127,0.00014661
298.0,246.150,0.00003501,0.00007347,2.09859608,0.000000000251362,0.000000000000377167,0.1130,0.00014694
299.0,246.150,0.00003506,0.00007363,2.10000260,0.000000000252721,0.000000000000379207,0.1133,0.00014727
300.0,246.150,0.00003512,0.00007380,2.10140641,0.000000000254084,0.000000000000381252,0.1137,0.00014760
301.0,246.150,0.00003517,0.00007396,2.10280753,0.000000000255450,0.000000000000383301,0.1140,0.00014793
302.0,246.150,0.00003523,0.00007413,2.10420598,0.000000000256819,0.000000000000385355,0.1143,0.00014826
303.0,246.150,0.00003528,0.00007429,2.10560178,0.000000000258191,0.000000000000387414,0.1146,0.00014859
304.0,246.150,0.00003534,0.00007446,2.10699495,0.000000000259566,0.000000000000389477,0.1150,0.00014891
305.0,246.150,0.00003539,0.00007462,2.10838551,0.000000000260944,0.000000000000391545,0.1153,0.00014924
306.0,246.150,0.00003545,0.00007479,2.10977347,0.000000000262325,0.000000000000393618,0.1156,0.00014957
307.0,246.150,0.00003550,0.00007495,2.11115885,0.000000000263710,0.000000000000395695,0.1159,0.00014990
308.0,246.150,0.00003556,0.00007511,2.11254168,0.000000000265097,0.000000000000397777,0.1163,0.00015023
309.0,246.150,0.00003561,0.00007528,2.11392196,0.000000000266488,0.000000000000399864,0.1166,0.00015056
310.0,246.150,0.00003566,0.00007544,2.11529972,0.000000000267881,0.000000000000401955,0.1169,0.00015088
311.0,246.150,0.00003572,0.00007561,2.11667498,0.000000000269278,0.000000000000404051,0.1172,0.00015121
312.0,246.150,0.00003577,0.00007577,2.11804774,0.000000000270678,0.000000000000406152,0.1176,0.00015154
313.0,246.150,0.00003583,0.00007593,2.11941804,0.000000000272081,0.000000000000408257,0.1179,0.00015186
314.0,246.150,0.00003588,0.00007610,2.12078588,0.000000000273487,0.000000000000410367,0.1182,0.00015219
315.0,246.150,0.00003593,0.00007626,2.12215128,0.000000000274897,0.000000000000412482,0.1185,0.00015252
316.0,246.150,0.00003599,0.00007642,2.12351426,0.000000000276309,0.000000000000414601,0.1189,0.00015284
317.0,246.150,0.00003604,0.00007658,2.12487483,0.000000000277724,0.000000000000416725,0.1192,0.00015317
318.0,246.150,0.00003610,0.00007675,2.12623302,0.000000000279143,0.000000000000418854,0.1195,0.00015350
319.0,246.150,0.00003615,0.00007691,2.12758884,0.000000000280564,0.000000000000420987,0.1198,0.00015382
320.0,246.150,0.00003620,0.00007707,2.12894230,0.000000000281989,0.000000000000423125,0.1201,0.00015415
321.0,246.150,0.00003626,0.00007724,2.13029342,0.000000000283417,0.000000000000425267,0.1205,0.00015447
322.0,246.150,0.00003631,0.00007740,2.13164221,0.000000000284848,0.000000000000427415,0.1208,0.00015480
323.0,246.150,0.00003636,0.00007756,2.13298870,0.000000000286282,0.000000000000429566,0.1211,0.00015512
324.0,246.150,0.00003642,0.00007772,2.13433289,0.000000000287719,0.000000000000431723,0.1214,0.00015545
325.0,246.150,0.00003647,0.00007788,2.13567481,0.000000000289159,0.000000000000433884,0.1218,0.00015577
326.0,246.150,0.00003652,0.00007805,2.13701446,0.000000000290603,0.000000000000436050,0.1221,0.00015609
327.0,246.150,0.00003657,0.00007821,2.13835187,0.000000000292049,0.000000000000438220,0.1224,0.00015642
328.0,246.150,0.00003663,0.00007837,2.13968704,0.000000000293499,0.000000000000440395,0.1227,0.00015674
329.0,246.150,0.00003668,0.00007853,2.14102000,0.000000000294951,0.000000000000442575,0.1230,0.00015706
330.0,246.150,0.00003673,0.00007869,2.14235075,0.000000000296407,0.000000000000444760,0.1234,0.00015739
331.0,246.150,0.00003678,0.00007886,2.14367931,0.000000000297866,0.000000000000446949,0.1237,0.00015771
332.0,246.150,0.00003684,0.00007902,2.14500570,0.000000000299328,0.000000000000449142,0.1240,0.00015803
333.0,246.150,0.00003689,0.00007918,2.14632994,0.000000000300793,0.000000000000451341,0.1243,0.00015836
334.0,246.150,0.00003694,0.00007934,2.14765202,0.000000000302261,0.000000000000453544,0.1246,0.00015868
335.0,246.150,0.00003699,0.00007950,2.14897198,0.000000000303733,0.000000000000455752,0.1249,0.00015900
336.0,246.150,0.00003705,0.00007966,2.15028982,0.000000000305207,0.000000000000457964,0.1253,0.00015932
337.0,246.150,0.00003710,0.00007982,2.15160555,0.000000000306684,0.000000000000460181,0.1256,0.00015964
338.0,246.150,0.00003715,0.00007998,2.15291920,0.000000000308165,0.000000000000462403,0.1259,0.00015997
339.0,246.150,0.00003720,0.00008014,2.15423076,0.000000000309649,0.000000000000464629,0.1262,0.00016029
340.0,246.150,0.00003725,0.00008030,2.15554027,0.000000000311135,0.000000000000466860,0.1265,0.00016061
341.0,246.150,0.00003731,0.00008046,2.15684773,0.000000000312625,0.000000000000469096,0.1269,0.00016093
342.0,246.150,0.00003736,0.00008062,2.15815315,0.000000000314118,0.000000000000471336,0.1272,0.00016125
343.0,246.150,0.00003741,0.00008079,2.15945655,0.000000000315614,0.000000000000473581,0.1275,0.00016157
344.0,246.150,0.00003746,0.00008095,2.16075793,0.000000000317114,0.000000000000475831,0.1278,0.00016189
345.0,246.150,0.00003751,0.00008111,2.16205733,0.000000000318616,0.000000000000478085,0.1281,0.00016221
346.0,246.150,0.00003756,0.00008127,2.16335473,0.000000000320121,0.000000000000480344,0.1284,0.00016253
347.0,246.150,0.00003762,0.00008143,2.16465017,0.000000000321630,0.000000000000482608,0.1287,0.00016285
348.0,246.150,0.00003767,0.00008159,2.16594365,0.000000000323142,0.000000000000484876,0.1291,0.00016317
349.0,246.150,0.00003772,0.00008175,2.16723518,0.000000000324656,0.000000000000487149,0.1294,0.00016349
350.0,246.150,0.00003777,0.00008190,2.16852478,0.000000000326174,0.000000000000489426,0.1297,0.00016381
351.0,246.150,0.00003782,0.00008206,2.16981245,0.000000000327695,0.000000000000491709,0.1300,0.00016413
352.0,246.150,0.00003787,0.00008222,2.17109822,0.000000000329219,0.000000000000493996,0.1303,0.00016445
353.0,246.150,0.00003792,0.00008238,2.17238209,0.000000000330746,0.000000000000496287,0.1306,0.00016477
354.0,246.150,0.00003797,0.00008254,2.17366407,0.000000000332277,0.000000000000498584,0.1309,0.00016509
355.0,246.150,0.00003802,0.00008270,2.17494418,0.000000000333810,0.000000000000500884,0.1313,0.00016540
356.0,246.150,0.00003808,0.00008286,2.17622243,0.000000000335347,0.000000000000503190,0.1316,0.00016572
357.0,246.150,0.00003813,0.00008302,2.17749883,0.000000000336886,0.000000000000505500,0.1319,0.00016604
358.0,246.150,0.00003818,0.00008318,2.17877339,0.000000000338429,0.000000000000507815,0.1322,0.00016636
359.0,246.150,0.00003823,0.00008334,2.18004613,0.000000000339975,0.000000000000510135,0.1325,0.00016668
360.0,246.150,0.00003828,0.00008350,2.18131705,0.000000000341524,0.000000000000512459,0.1328,0.00016699
361.0,246.150,0.00003833,0.00008366,2.18258616,0.000000000343076,0.000000000000514788,0.1331,0.00016731
362.0,246.150,0.00003838,0.00008381,2.18385349,0.000000000344631,0.000000000000517122,0.1334,0.00016763
363.0,246.150,0.00003843,0.00008397,2.18511903,0.000000000346189,0.000000000000519460,0.1338,0.00016795
364.0,246.150,0.00003848,0.00008413,2.18638280,0.000000000347751,0.000000000000521803,0.1341,0.00016826
365.0,246.150,0.00003853,0.00008429,2.18764481,0.000000000349315,0.000000000000524151,0.1344,0.00016858
366.0,246.150,0.00003858,0.00008445,2.18890507,0.000000000350883,0.000000000000526503,0.1347,0.00016890
367.0,246.150,0.00003863,0.00008461,2.19016360,0.000000000352454,0.000000000000528860,0.1350,0.00016921
368.0,246.150,0.00003868,0.00008476,2.19142040,0.000000000354027,0.000000000000531221,0.1353,0.00016953
369.0,246.150,0.00003873,0.00008492,2.19267548,0.000000000355604,0.000000000000533588,0.1356,0.00016984
370.0,246.150,0.00003878,0.00008508,2.19392886,0.000000000357185,0.000000000000535959,0.1359,0.00017016
371.0,246.150,0.00003883,0.00008524,2.19518054,0.000000000358768,0.000000000000538335,0.1362,0.00017048
372.0,246.150,0.00003888,0.00008540,2.19643053,0.000000000360354,0.000000000000540715,0.1365,0.00017079
373.0,246.150,0.00003893,0.00008555,2.19767885,0.000000000361944,0.000000000000543100,0.1369,0.00017111
374.0,246.150,0.00003898,0.00008571,2.19892551,0.000000000363536,0.000000000000545490,0.1372,0.00017142
375.0,246.150,0.00003903,0.00008587,2.20017051,0.000000000365132,0.000000000000547884,0.1375,0.00017174
376.0,246.150,0.00003908,0.00008603,2.20141387,0.000000000366731,0.000000000000550283,0.1378,0.00017205
377.0,246.150,0.00003913,0.00008618,2.20265559,0.000000000368333,0.000000000000552687,0.1381,0.00017237
378.0,246.150,0.00003918,0.00008634,2.20389569,0.000000000369938,0.000000000000555095,0.1384,0.00017268
379.0,246.150,0.00003923,0.00008650,2.20513417,0.000000000371546,0.000000000000557508,0.1387,0.00017300
380.0,246.150,0.00003928,0.00008666,2.20637105,0.000000000373157,0.000000000000559926,0.1390,0.00017331
381.0,246.150,0.00003932,0.00008681,2.20760634,0.000000000374771,0.000000000000562349,0.1393,0.00017363
382.0,246.150,0.00003937,0.00008697,2.20884004,0.000000000376389,0.000000000000564776,0.1396,0.00017394
383.0,246.150,0.00003942,0.00008713,2.21007216,0.000000000378010,0.000000000000567208,0.1399,0.00017426
384.0,246.150,0.00003947,0.00008728,2.21130272,0.000000000379633,0.000000000000569644,0.1402,0.00017457
385.0,246.150,0.00003952,0.00008744,2.21253172,0.000000000381260,0.000000000000572086,0.1405,0.00017488
386.0,246.150,0.00003957,0.00008760,2.21375917,0.000000000382890,0.000000000000574532,0.1408,0.00017520
387.0,246.150,0.00003962,0.00008775,2.21498509,0.000000000384524,0.000000000000576982,0.1412,0.00017551
388.0,246.150,0.00003967,0.00008791,2.21620947,0.000000000386160,0.000000000000579438,0.1415,0.00017582
389.0,246.150,0.00003972,0.00008807,2.21743234,0.000000000387799,0.000000000000581898,0.1418,0.00017614
390.0,246.150,0.00003977,0.00008822,2.21865369,0.000000000389442,0.000000000000584362,0.1421,0.00017645
391.0,246.150,0.00003981,0.00008838,2.21987354,0.000000000391088,0.000000000000586832,0.1424,0.00017676
392.0,246.150,0.00003986,0.00008854,2.22109190,0.000000000392736,0.000000000000589306,0.1427,0.00017708
393.0,246.150,0.00003991,0.00008869,2.22230877,0.000000000394388,0.000000000000591785,0.1430,0.00017739
394.0,246.150,0.00003996,0.00008885,2.22352417,0.000000000396044,0.000000000000594268,0.1433,0.00017770
395.0,246.150,0.00004001,0.00008901,2.22473810,0.000000000397702,0.000000000000596757,0.1436,0.00017801
396.0,246.150,0.00004006,0.00008916,2.22595058,0.000000000399363,0.000000000000599250,0.1439,0.00017833
397.0,246.150,0.00004010,0.00008932,2.22716160,0.000000000401028,0.000000000000601747,0.1442,0.00017864
398.0,246.150,0.00004015,0.00008947,2.22837119,0.000000000402695,0.000000000000604250,0.1445,0.00017895
399.0,246.150,0.00004020,0.00008963,2.22957934,0.000000000404366,0.000000000000606757,0.1448,0.00017926
400.0,246.150,0.00004025,0.00008979,2.23078606,0.000000000406040,0.000000000000609268,0.1451,0.00017957
401.0,246.150,0.00004030,0.00008994,2.23199138,0.000000000407717,0.000000000000611785,0.1454,0.00017989
402.0,246.150,0.00004035,0.00009010,2.23319528,0.000000000409397,0.000000000000614306,0.1457,0.00018020
403.0,246.150,0.00004039,0.00009025,2.23439778,0.000000000411080,0.000000000000616832,0.1460,0.00018051
404.0,246.150,0.00004044,0.00009041,2.23559890,0.000000000412767,0.000000000000619363,0.1463,0.00018082
405.0,246.150,0.00004049,0.00009057,2.23697141,0.000000000414457,0.000000000000621898,0.1466,0.00018114
406.0,246.150,0.00004053,0.00009073,2.23834245,0.000000000416149,0.000000000000624438,0.1469,0.00018146
407.0,246.150,0.00004058,0.00009089,2.23971202,0.000000000417845,0.000000000000626983,0.1472,0.00018178
408.0,246.150,0.00004063,0.00009105,2.24108013,0.000000000419544,0.000000000000629532,0.1475,0.00018210
409.0,246.150,0.00004067,0.00009121,2.24244678,0.000000000421247,0.000000000000632087,0.1478,0.00018242
410.0,246.150,0.00004072,0.00009137,2.24381199,0.000000000422952,0.000000000000634646,0.1481,0.00018274
411.0,246.150,0.00004077,0.00009153,2.24517576,0.000000000424660,0.000000000000637209,0.1484,0.00018306
412.0,246.150,0.00004081,0.00009169,2.24653809,0.000000000426372,0.000000000000639778,0.1487,0.00018338
413.0,246.150,0.00004086,0.00009185,2.24789899,0.000000000428087,0.000000000000642351,0.1490,0.00018370
414.0,246.150,0.00004091,0.00009201,2.24925847,0.000000000429805,0.000000000000644929,0.1493,0.00018402
415.0,246.150,0.00004095,0.00009217,2.25061654,0.000000000431526,0.000000000000647512,0.1496,0.00018434
416.0,246.150,0.00004100,0.00009233,2.25197319,0.000000000433251,0.000000000000650099,0.1499,0.00018466
417.0,246.150,0.00004105,0.00009249,2.25332845,0.000000000434978,0.000000000000652691,0.1502,0.00018498
418.0,246.150,0.00004109,0.00009265,2.25468230,0.000000000436709,0.000000000000655288,0.1505,0.00018530
419.0,246.150,0.00004114,0.00009281,2.25603477,0.000000000438442,0.000000000000657890,0.1508,0.00018562
420.0,246.150,0.00004118,0.00009297,2.25738585,0.000000000440179,0.000000000000660496,0.1511,0.00018593
421.0,246.150,0.00004123,0.00009313,2.25873555,0.000000000441919,0.000000000000663107,0.1514,0.00018625
422.0,246.150,0.00004128,0.00009329,2.26008388,0.000000000443663,0.000000000000665723,0.1517,0.00018657
423.0,246.150,0.00004132,0.00009345,2.26143084,0.000000000445409,0.000000000000668344,0.1520,0.00018689
424.0,246.150,0.00004137,0.00009360,2.26277644,0.000000000447159,0.000000000000670969,0.1522,0.00018721
425.0,246.150,0.00004141,0.00009376,2.26412069,0.000000000448911,0.000000000000673599,0.1525,0.00018753
426.0,246.150,0.00004146,0.00009392,2.26546358,0.000000000450667,0.000000000000676234,0.1528,0.00018785
427.0,246.150,0.00004150,0.00009408,2.26680513,0.000000000452426,0.000000000000678873,0.1531,0.00018817
428.0,246.150,0.00004155,0.00009424,2.26814535,0.000000000454188,0.000000000000681517,0.1534,0.00018848
429.0,246.150,0.00004160,0.00009440,2.26948423,0.000000000455954,0.000000000000684166,0.1537,0.00018880
430.0,246.150,0.00004164,0.00009456,2.27082179,0.000000000457722,0.000000000000686820,0.1540,0.00018912
431.0,246.150,0.00004169,0.00009472,2.27215803,0.000000000459494,0.000000000000689478,0.1543,0.00018944
432.0,246.150,0.00004173,0.00009488,2.27349295,0.000000000461268,0.000000000000692141,0.1546,0.00018976
433.0,246.150,0.00004178,0.00009504,2.27482656,0.000000000463046,0.000000000000694809,0.1549,0.00019007
434.0,246.150,0.00004182,0.00009520,2.27615887,0.000000000464827,0.000000000000697482,0.1552,0.00019039
435.0,246.150,0.00004187,0.00009535,2.27748989,0.000000000466612,0.000000000000700159,0.1555,0.00019071
436.0,246.150,0.00004191,0.00009551,2.27881961,0.000000000468399,0.000000000000702841,0.1558,0.00019103
437.0,246.150,0.00004196,0.00009567,2.28014804,0.000000000470189,0.000000000000705528,0.1561,0.00019134
438.0,246.150,0.00004200,0.00009583,2.28147519,0.000000000471983,0.000000000000708219,0.1563,0.00019166
439.0,246.150,0.00004205,0.00009599,2.28280106,0.000000000473780,0.000000000000710915,0.1566,0.00019198
440.0,246.150,0.00004209,0.00009615,2.28412566,0.000000000475580,0.000000000000713616,0.1569,0.00019230
441.0,246.150,0.00004214,0.00009631,2.28544900,0.000000000477383,0.000000000000716322,0.1572,0.00019261
442.0,246.150,0.00004218,0.00009646,2.28677108,0.000000000479189,0.000000000000719032,0.1575,0.00019293
443.0,246.150,0.00004223,0.00009662,2.28809190,0.000000000480999,0.000000000000721747,0.1578,0.00019325
444.0,246.150,0.00004227,0.00009678,2.28941147,0.000000000482811,0.000000000000724467,0.1581,0.00019356
445.0,246.150,0.00004232,0.00009694,2.29072980,0.000000000484627,0.000000000000727192,0.1584,0.00019388
446.0,246.150,0.00004236,0.00009710,2.29204689,0.000000000486446,0.000000000000729921,0.1587,0.00019420
447.0,246.150,0.00004241,0.00009726,2.29336274,0.000000000488268,0.000000000000732655,0.1590,0.00019451
448.0,246.150,0.00004245,0.00009741,2.29467737,0.000000000490093,0.000000000000735394,0.1592,0.00019483
449.0,246.150,0.00004250,0.00009757,2.29599076,0.000000000491921,0.000000000000738137,0.1595,0.00019515
450.0,246.150,0.00004254,0.00009773,2.29730295,0.000000000493753,0.000000000000740885,0.1598,0.00019546
451.0,246.150,0.00004259,0.00009789,2.29861391,0.000000000495587,0.000000000000743638,0.1601,0.00019578
452.0,246.150,0.00004263,0.00009805,2.29992367,0.000000000497425,0.000000000000746396,0.1604,0.00019609
453.0,246.150,0.00004268,0.00009821,2.30123222,0.000000000499266,0.000000000000749158,0.1607,0.00019641
454.0,246.150,0.00004272,0.00009836,2.30253958,0.000000000501110,0.000000000000751925,0.1610,0.00019673
455.0,246.150,0.00004276,0.00009852,2.30384573,0.000000000502957,0.000000000000754697,0.1613,0.00019704
456.0,246.150,0.00004281,0.00009868,2.30515070,0.000000000504807,0.000000000000757474,0.1616,0.00019736
457.0,246.150,0.00004285,0.00009884,2.30645449,0.000000000506661,0.000000000000760255,0.1618,0.00019767
458.0,246.150,0.00004290,0.00009899,2.30775709,0.000000000508518,0.000000000000763041,0.1621,0.00019799
459.0,246.150,0.00004294,0.00009915,2.30905852,0.000000000510377,0.000000000000765832,0.1624,0.00019831
460.0,246.150,0.00004298,0.00009931,2.31035878,0.000000000512240,0.000000000000768627,0.1627,0.00019862
461.0,246.150,0.00004303,0.00009947,2.31165787,0.000000000514106,0.000000000000771427,0.1630,0.00019894
462.0,246.150,0.00004307,0.00009963,2.31295580,0.000000000515976,0.000000000000774232,0.1633,0.00019925
463.0,246.150,0.00004312,0.00009978,2.31425258,0.000000000517848,0.000000000000777041,0.1636,0.00019957
464.0,246.150,0.00004316,0.00009994,2.31554820,0.000000000519723,0.000000000000779856,0.1638,0.00019988
465.0,246.150,0.00004320,0.00010010,2.31684268,0.000000000521602,0.000000000000782675,0.1641,0.00020020
466.0,246.150,0.00004325,0.00010026,2.31813601,0.000000000523484,0.000000000000785498,0.1644,0.00020051
467.0,246.150,0.00004329,0.00010041,2.31942821,0.000000000525369,0.000000000000788327,0.1647,0.00020083
468.0,246.150,0.00004334,0.00010057,2.32071927,0.000000000527257,0.000000000000791160,0.1650,0.00020114
469.0,246.150,0.00004338,0.00010073,2.32200920,0.000000000529148,0.000000000000793998,0.1653,0.00020146
470.0,246.150,0.00004342,0.00010089,2.32329801,0.000000000531043,0.000000000000796841,0.1656,0.00020177
471.0,246.150,0.00004347,0.00010104,2.32458569,0.000000000532940,0.000000000000799688,0.1658,0.00020209
472.0,246.150,0.00004351,0.00010120,2.32587227,0.000000000534841,0.000000000000802540,0.1661,0.00020240
473.0,246.150,0.00004355,0.00010136,2.32715772,0.000000000536745,0.000000000000805397,0.1664,0.00020272
474.0,246.150,0.00004360,0.00010152,2.32844208,0.000000000538652,0.000000000000808258,0.1667,0.00020303
475.0,246.150,0.00004364,0.00010167,2.32972533,0.000000000540562,0.000000000000811124,0.1670,0.00020334
476.0,246.150,0.00004368,0.00010183,2.33100748,0.000000000542475,0.000000000000813995,0.1673,0.00020366
477.0,246.150,0.00004373,0.00010199,2.33228853,0.000000000544391,0.000000000000816871,0.1675,0.00020397
478.0,246.150,0.00004377,0.00010214,2.33356850,0.000000000546311,0.000000000000819751,0.1678,0.00020429
479.0,246.150,0.00004381,0.00010230,2.33484738,0.000000000548234,0.000000000000822636,0.1681,0.00020460
480.0,246.150,0.00004386,0.00010246,2.33612518,0.000000000550159,0.000000000000825526,0.1684,0.00020492
481.0,246.150,0.00004390,0.00010261,2.33740190,0.000000000552088,0.000000000000828421,0.1687,0.00020523
482.0,246.150,0.00004394,0.00010277,2.33867755,0.000000000554021,0.000000000000831320,0.1690,0.00020554
483.0,246.150,0.00004399,0.00010293,2.33995213,0.000000000555956,0.000000000000834224,0.1692,0.00020586
484.0,246.150,0.00004403,0.00010309,2.34122565,0.000000000557894,0.000000000000837133,0.1695,0.00020617
485.0,246.150,0.00004407,0.00010324,2.34249810,0.000000000559836,0.000000000000840046,0.1698,0.00020648
486.0,246.150,0.00004412,0.00010340,2.34376950,0.000000000561780,0.000000000000842964,0.1701,0.00020680
487.0,246.150,0.00004416,0.00010356,2.34503984,0.000000000563728,0.000000000000845887,0.1704,0.00020711
488.0,246.150,0.00004420,0.00010371,2.34630914,0.000000000565679,0.000000000000848815,0.1706,0.00020743
489.0,246.150,0.00004425,0.00010387,2.34757739,0.000000000567633,0.000000000000851747,0.1709,0.00020774
490.0,246.150,0.00004429,0.00010403,2.34884460,0.000000000569591,0.000000000000854684,0.1712,0.00020805
491.0,246.150,0.00004433,0.00010418,2.35011077,0.000000000571551,0.000000000000857626,0.1715,0.00020837
492.0,246.150,0.00004437,0.00010434,2.35137591,0.000000000573515,0.000000000000860572,0.1718,0.00020868
493.0,246.150,0.00004442,0.00010450,2.35264002,0.000000000575481,0.000000000000863523,0.1720,0.00020899
494.0,246.150,0.00004446,0.00010465,2.35390311,0.000000000577451,0.000000000000866479,0.1723,0.00020930
495.0,246.150,0.00004450,0.00010481,2.35516517,0.000000000579424,0.000000000000869440,0.1726,0.00020962
496.0,246.150,0.00004454,0.00010497,2.35642622,0.000000000581401,0.000000000000872405,0.1729,0.00020993
497.0,246.150,0.00004459,0.00010512,2.35768625,0.000000000583380,0.000000000000875375,0.1732,0.00021024
498.0,246.150,0.00004463,0.00010528,2.35894528,0.000000000585362,0.000000000000878350,0.1734,0.00021056
499.0,246.150,0.00004467,0.00010543,2.36020329,0.000000000587348,0.000000000000881329,0.1737,0.00021087
500.0,246.150,0.00004471,0.00010559,2.36146031,0.000000000589337,0.000000000000884313,0.1740,0.00021118
501.0,246.150,0.00004476,0.00010575,2.36271633,0.000000000591328,0.000000000000887302,0.1743,0.00021149
502.0,246.150,0.00004480,0.00010590,2.36397135,0.000000000593323,0.000000000000890296,0.1745,0.00021181
503.0,246.150,0.00004484,0.00010606,2.36522538,0.000000000595322,0.000000000000893294,0.1748,0.00021212
504.0,246.150,0.00004488,0.00010622,2.36647842,0.000000000597323,0.000000000000896297,0.1751,0.00021243
505.0,246.150,0.00004493,0.00010637,2.36773048,0.000000000599327,0.000000000000899305,0.1754,0.00021274
506.0,246.150,0.00004497,0.00010653,2.36898156,0.000000000601335,0.000000000000902318,0.1757,0.00021306
507.0,246.150,0.00004501,0.00010668,2.37023166,0.000000000603346,0.000000000000905335,0.1759,0.00021337
508.0,246.150,0.00004505,0.00010684,2.37148079,0.000000000605360,0.000000000000908357,0.1762,0.00021368
509.0,246.150,0.00004509,0.00010700,2.37272895,0.000000000607377,0.000000000000911383,0.1765,0.00021399
510.0,246.150,0.00004514,0.00010715,2.37397615,0.000000000609397,0.000000000000914415,0.1768,0.00021431
511.0,246.150,0.00004518,0.00010731,2.37522238,0.000000000611420,0.000000000000917451,0.1770,0.00021462
512.0,246.150,0.00004522,0.00010746,2.37646765,0.000000000613447,0.000000000000920492,0.1773,0.00021493
513.0,246.150,0.00004526,0.00010762,2.37771197,0.000000000615476,0.000000000000923537,0.1776,0.00021524
514.0,246.150,0.00004530,0.00010778,2.37895533,0.000000000617509,0.000000000000926587,0.1779,0.00021555
515.0,246.150,0.00004535,0.00010793,2.38019775,0.000000000619545,0.000000000000929642,0.1781,0.00021586
516.0,246.150,0.00004539,0.00010809,2.38143922,0.000000000621584,0.000000000000932702,0.1784,0.00021618
517.0,246.150,0.00004543,0.00010824,2.38267976,0.000000000623626,0.000000000000935766,0.1787,0.00021649
518.0,246.150,0.00004547,0.00010840,2.38391935,0.000000000625671,0.000000000000938835,0.1790,0.00021680
519.0,246.150,0.00004551,0.00010856,2.38515801,0.000000000627720,0.000000000000941909,0.1792,0.00021711
520.0,246.150,0.00004555,0.00010871,2.38639573,0.000000000629771,0.000000000000944988,0.1795,0.00021742
521.0,246.150,0.00004560,0.00010887,2.38763253,0.000000000631826,0.000000000000948071,0.1798,0.00021773
522.0,246.150,0.00004564,0.00010902,2.38886841,0.000000000633884,0.000000000000951159,0.1801,0.00021805
523.0,246.150,0.00004568,0.00010918,2.39010336,0.000000000635945,0.000000000000954252,0.1803,0.00021836
524.0,246.150,0.00004572,0.00010933,2.39133739,0.000000000638009,0.000000000000957349,0.1806,0.00021867
525.0,246.150,0.00004576,0.00010949,2.39257051,0.000000000640077,0.000000000000960451,0.1809,0.00021898
526.0,246.150,0.00004580,0.00010964,2.39380272,0.000000000642147,0.000000000000963558,0.1811,0.00021929
527.0,246.150,0.00004585,0.00010980,2.39503402,0.000000000644221,0.000000000000966670,0.1814,0.00021960
528.0,246.150,0.00004589,0.00010996,2.39626441,0.000000000646298,0.000000000000969786,0.1817,0.00021991
529.0,246.150,0.00004593,0.00011011,2.39749391,0.000000000648377,0.000000000000972907,0.1820,0.00022022
530.0,246.150,0.00004597,0.00011027,2.39872250,0.000000000650461,0.000000000000976033,0.1822,0.00022053
531.0,246.150,0.00004601,0.00011042,2.39995020,0.000000000652547,0.000000000000979163,0.1825,0.00022084
532.0,246.150,0.00004605,0.00011058,2.40117700,0.000000000654636,0.000000000000982298,0.1828,0.00022116
533.0,246.150,0.00004609,0.00011073,2.40240292,0.000000000656729,0.000000000000985438,0.1830,0.00022147
534.0,246.150,0.00004613,0.00011089,2.40362795,0.000000000658824,0.000000000000988583,0.1833,0.00022178
535.0,246.150,0.00004617,0.00011104,2.40485210,0.000000000660923,0.000000000000991732,0.1836,0.00022209
536.0,246.150,0.00004622,0.00011120,2.40607537,0.000000000663025,0.000000000000994886,0.1839,0.00022240
537.0,246.150,0.00004626,0.00011135,2.40729776,0.000000000665130,0.000000000000998045,0.1841,0.00022271
538.0,246.150,0.00004630,0.00011151,2.40851927,0.000000000667238,0.000000000001001208,0.1844,0.00022302
539.0,246.150,0.00004634,0.00011166,2.40973992,0.000000000669350,0.000000000001004376,0.1847,0.00022333
540.0,246.150,0.00004638,0.00011182,2.41095970,0.000000000671464,0.000000000001007549,0.1849,0.00022364
541.0,246.150,0.00004642,0.00011198,2.41217861,0.000000000673582,0.000000000001010727,0.1852,0.00022395
542.0,246.150,0.00004646,0.00011213,2.41339667,0.000000000675702,0.000000000001013909,0.1855,0.00022426
543.0,246.150,0.00004650,0.00011229,2.41461386,0.000000000677826,0.000000000001017096,0.1858,0.00022457
544.0,246.150,0.00004654,0.00011244,2.41583020,0.000000000679954,0.000000000001020288,0.1860,0.00022488
545.0,246.150,0.00004658,0.00011260,2.41704568,0.000000000682084,0.000000000001023485,0.1863,0.00022519
546.0,246.150,0.00004662,0.00011275,2.41826032,0.000000000684217,0.000000000001026686,0.1866,0.00022550
547.0,246.150,0.00004667,0.00011291,2.41947411,0.000000000686354,0.000000000001029892,0.1868,0.00022581
548.0,246.150,0.00004671,0.00011306,2.42068705,0.000000000688493,0.000000000001033102,0.1871,0.00022612
549.0,246.150,0.00004675,0.00011322,2.42189915,0.000000000690636,0.000000000001036318,0.1874,0.00022643
550.0,246.150,0.00004679,0.00011337,2.42311042,0.000000000692782,0.000000000001039538,0.1876,0.00022674
551.0,246.150,0.00004683,0.00011353,2.42432085,0.000000000694931,0.000000000001042763,0.1879,0.00022705
552.0,246.150,0.00004687,0.00011368,2.42553045,0.000000000697083,0.000000000001045992,0.1882,0.00022736
553.0,246.150,0.00004691,0.00011383,2.42673921,0.000000000699239,0.000000000001049227,0.1884,0.00022767
554.0,246.150,0.00004695,0.00011399,2.42794715,0.000000000701397,0.000000000001052466,0.1887,0.00022798
555.0,246.150,0.00004699,0.00011414,2.42915427,0.000000000703559,0.000000000001055709,0.1890,0.00022829
556.0,246.150,0.00004703,0.00011430,2.43036057,0.000000000705724,0.000000000001058958,0.1892,0.00022860
557.0,246.150,0.00004707,0.00011445,2.43156604,0.000000000707892,0.000000000001062211,0.1895,0.00022891
558.0,246.150,0.00004711,0.00011461,2.43277070,0.000000000710063,0.000000000001065469,0.1898,0.00022922
559.0,246.150,0.00004715,0.00011476,2.43397455,0.000000000712237,0.000000000001068731,0.1900,0.00022953
560.0,246.150,0.00004719,0.00011492,2.43517759,0.000000000714415,0.000000000001071998,0.1903,0.00022984
561.0,246.150,0.00004723,0.00011507,2.43637982,0.000000000716595,0.000000000001075271,0.1906,0.00023015
562.0,246.150,0.00004727,0.00011523,2.43758125,0.000000000718779,0.000000000001078547,0.1908,0.00023046
563.0,246.150,0.00004731,0.00011538,2.43878187,0.000000000720966,0.000000000001081829,0.1911,0.00023076
564.0,246.150,0.00004735,0.00011554,2.43998169,0.000000000723156,0.000000000001085115,0.1914,0.00023107
565.0,246.150,0.00004739,0.00011569,2.44118072,0.000000000725349,0.000000000001088406,0.1916,0.00023138
566.0,246.150,0.00004743,0.00011585,2.44237895,0.000000000727545,0.000000000001091701,0.1919,0.00023169
567.0,246.150,0.00004747,0.00011600,2.44357640,0.000000000729744,0.000000000001095002,0.1922,0.00023200
568.0,246.150,0.00004751,0.00011615,2.44477305,0.000000000731947,0.000000000001098307,0.1924,0.00023231
569.0,246.150,0.00004755,0.00011631,2.44596892,0.000000000734153,0.000000000001101617,0.1927,0.00023262
570.0,246.150,0.00004759,0.00011646,2.44716400,0.000000000736362,0.000000000001104931,0.1929,0.00023293
571.0,246.150,0.00004763,0.00011662,2.44835830,0.000000000738574,0.000000000001108250,0.1932,0.00023324
572.0,246.150,0.00004767,0.00011677,2.44955183,0.000000000740789,0.000000000001111574,0.1935,0.00023355
573.0,246.150,0.00004771,0.00011693,2.45074457,0.000000000743007,0.000000000001114903,0.1937,0.00023385
574.0,246.150,0.00004775,0.00011708,2.45193655,0.000000000745229,0.000000000001118236,0.1940,0.00023416
575.0,246.150,0.00004779,0.00011724,2.45312775,0.000000000747453,0.000000000001121574,0.1943,0.00023447
576.0,246.150,0.00004783,0.00011739,2.45431819,0.000000000749681,0.000000000001124917,0.1945,0.00023478
577.0,246.150,0.00004787,0.00011754,2.45550786,0.000000000751912,0.000000000001128265,0.1948,0.00023509
578.0,246.150,0.00004791,0.00011770,2.45669677,0.000000000754146,0.000000000001131617,0.1951,0.00023540
579.0,246.150,0.00004795,0.00011785,2.45788491,0.000000000756383,0.000000000001134974,0.1953,0.00023571
580.0,246.150,0.00004799,0.00011801,2.45907230,0.000000000758623,0.000000000001138336,0.1956,0.00023601
581.0,246.150,0.00004803,0.00011816,2.46025893,0.000000000760867,0.000000000001141702,0.1958,0.00023632
582.0,246.150,0.00004807,0.00011832,2.46144481,0.000000000763113,0.000000000001145073,0.1961,0.00023663
583.0,246.150,0.00004811,0.00011847,2.46262994,0.000000000765363,0.000000000001148449,0.1964,0.00023694
584.0,246.150,0.00004815,0.00011862,2.46381432,0.000000000767616,0.000000000001151830,0.1966,0.00023725
585.0,246.150,0.00004819,0.00011878,2.46499796,0.000000000769872,0.000000000001155215,0.1969,0.00023756
586.0,246.150,0.00004823,0.00011893,2.46618085,0.000000000772131,0.000000000001158605,0.1971,0.00023786
587.0,246.150,0.00004826,0.00011909,2.46736300,0.000000000774394,0.000000000001162000,0.1974,0.00023817
588.0,246.150,0.00004830,0.00011924,2.46854441,0.000000000776659,0.000000000001165400,0.1977,0.00023848
589.0,246.150,0.00004834,0.00011939,2.46972508,0.000000000778928,0.000000000001168804,0.1979,0.00023879
590.0,246.150,0.00004838,0.00011955,2.47090502,0.000000000781200,0.000000000001172213,0.1982,0.00023910
591.0,246.150,0.00004842,0.00011970,2.47208423,0.000000000783475,0.000000000001175627,0.1985,0.00023940
592.0,246.150,0.00004846,0.00011986,2.47326271,0.000000000785753,0.000000000001179045,0.1987,0.00023971
593.0,246.150,0.00004850,0.00012001,2.47444046,0.000000000788034,0.000000000001182468,0.1990,0.00024002
594.0,246.150,0.00004854,0.00012016,2.47561749,0.000000000790319,0.000000000001185896,0.1992,0.00024033
595.0,246.150,0.00004858,0.00012032,2.47679380,0.000000000792606,0.000000000001189329,0.1995,0.00024064
596.0,246.150,0.00004862,0.00012047,2.47796938,0.000000000794897,0.000000000001192766,0.1997,0.00024094
597.0,246.150,0.00004866,0.00012063,2.47914425,0.000000000797191,0.000000000001196208,0.2000,0.00024125
598.0,246.150,0.00004870,0.00012078,2.48031840,0.000000000799488,0.000000000001199655,0.2003,0.00024156
599.0,246.150,0.00004873,0.00012093,2.48149184,0.000000000801788,0.000000000001203106,0.2005,0.00024187
600.0,246.150,0.00004877,0.00012109,2.48266457,0.000000000804091,0.000000000001206562,0.2008,0.00024217
