# T = 248.15
  0.0,248.150,0.00000200,0.00000200,1.00000000,0.000000000000031,0.000000000000000034,0.0000,0.00000400
  1.0,248.150,0.00000321,0.00000321,1.00000000,0.000000000000090,0.000000000000000138,0.0005,0.00000641
  2.0,248.150,0.00000418,0.00000418,1.00000000,0.000000000000184,0.000000000000000305,0.0010,0.00000836
  3.0,248.150,0.00000500,0.00000500,1.00000000,0.000000000000307,0.000000000000000524,0.0016,0.00001000
  4.0,248.150,0.00000559,0.00000600,1.07295410,0.000000000000454,0.000000000000000785,0.0022,0.00001199
  5.0,248.150,0.00000611,0.00000693,1.13495318,0.000000000000622,0.000000000000001084,0.0020,0.00001387
  6.0,248.150,0.00000658,0.00000782,1.18917208,0.000000000000810,0.000000000000001417,0.0025,0.00001564
  7.0,248.150,0.00000701,0.00000867,1.23755567,0.000000000001016,0.000000000000001782,0.0030,0.00001734
  8.0,248.150,0.00000740,0.00000949,1.28138566,0.000000000001238,0.000000000000002177,0.0034,0.00001897
  9.0,248.150,0.00000777,0.00001027,1.32155331,0.000000000001476,0.000000000000002599,0.0039,0.00002054
 10.0,248.150,0.00000812,0.00001103,1.35870478,0.000000000001729,0.000000000000003048,0.0044,0.00002207
 11.0,248.150,0.00000845,0.00001177,1.39332428,0.000000000001996,0.000000000000003522,0.0048,0.00002355
 12.0,248.150,0.00000876,0.00001250,1.42578460,0.000000000002276,0.000000000000004021,0.0053,0.00002499
 13.0,248.150,0.00000906,0.00001320,1.45637932,0.000000000002570,0.000000000000004542,0.0058,0.00002640
 14.0,248.150,0.00000935,0.00001389,1.48534399,0.000000000002876,0.000000000000005086,0.0062,0.00002778
 15.0,248.150,0.00000963,0.00001456,1.51287073,0.000000000003195,0.000000000000005652,0.0067,0.00002913
 16.0,248.150,0.00000989,0.00001522,1.53911841,0.000000000003525,0.000000000000006239,0.0072,0.00003045
 17.0,248.150,0.00001015,0.00001587,1.56422004,0.000000000003867,0.000000000000006847,0.0076,0.00003175
 18.0,248.150,0.00001040,0.00001651,1.58828817,0.000000000004221,0.000000000000007474,0.0081,0.00003302
 19.0,248.150,0.00001064,0.00001714,1.61141895,0.000000000004585,0.000000000000008121,0.0085,0.00003428
 20.0,248.150,0.00001087,0.00001776,1.63369522,0.000000000004960,0.000000000000008787,0.0090,0.00003551
 21.0,248.150,0.00001110,0.00001837,1.65518888,0.000000000005346,0.000000000000009472,0.0095,0.00003673
 22.0,248.150,0.00001132,0.00001897,1.67596282,0.000000000005741,0.000000000000010174,0.0099,0.00003793
 23.0,248.150,0.00001153,0.00001956,1.69607232,0.000000000006147,0.000000000000010895,0.0104,0.00003912
 24.0,248.150,0.00001174,0.00002014,1.71556632,0.000000000006563,0.000000000000011634,0.0108,0.00004029
 25.0,248.150,0.00001195,0.00002072,1.73448833,0.000000000006989,0.000000000000012389,0.0113,0.00004144
 26.0,248.150,0.00001215,0.00002129,1.75287722,0.000000000007424,0.000000000000013162,0.0117,0.00004259
 27.0,248.150,0.00001234,0.00002186,1.77076789,0.000000000007868,0.000000000000013951,0.0122,0.00004372
 28.0,248.150,0.00001254,0.00002242,1.78819179,0.000000000008322,0.000000000000014757,0.0126,0.00004483
 29.0,248.150,0.00001272,0.00002297,1.80517736,0.000000000008785,0.000000000000015579,0.0131,0.00004594
 30.0,248.150,0.00001291,0.00002352,1.82175045,0.000000000009257,0.000000000000016417,0.0136,0.00004704
 31.0,248.150,0.00001309,0.00002406,1.83793456,0.000000000009738,0.000000000000017271,0.0140,0.00004812
 32.0,248.150,0.00001327,0.00002460,1.85375119,0.000000000010227,0.000000000000018140,0.0145,0.00004919
 33.0,248.150,0.00001344,0.00002513,1.86922004,0.000000000010726,0.000000000000019025,0.0149,0.00005026
 34.0,248.150,0.00001362,0.00002566,1.88435919,0.000000000011232,0.000000000000019925,0.0153,0.00005131
 35.0,248.150,0.00001379,0.00002618,1.89918531,0.000000000011747,0.000000000000020840,0.0158,0.00005236
 36.0,248.150,0.00001395,0.00002670,1.91371378,0.000000000012271,0.000000000000021769,0.0162,0.00005340
 37.0,248.150,0.00001412,0.00002721,1.92795884,0.000000000012803,0.000000000000022714,0.0167,0.00005443
 38.0,248.150,0.00001428,0.00002773,1.94193370,0.000000000013343,0.000000000000023672,0.0171,0.00005545
 39.0,248.150,0.00001444,0.00002823,1.95565061,0.000000000013891,0.000000000000024646,0.0176,0.00005646
 40.0,248.150,0.00001459,0.00002874,1.96912099,0.000000000014447,0.000000000000025633,0.0180,0.00005747
 41.0,248.150,0.00001475,0.00002924,1.98235551,0.000000000015010,0.000000000000026634,0.0185,0.00005847
 42.0,248.150,0.00001490,0.00002973,1.99536410,0.000000000015582,0.000000000000027649,0.0189,0.00005946
 43.0,248.150,0.00001505,0.00003022,2.00815608,0.000000000016162,0.000000000000028679,0.0193,0.00006045
 44.0,248.150,0.00001520,0.00003071,2.02074019,0.000000000016749,0.000000000000029721,0.0198,0.00006143
 45.0,248.150,0.00001535,0.00003120,2.03312461,0.000000000017344,0.000000000000030778,0.0202,0.00006240
 46.0,248.150,0.00001549,0.00003168,2.04531704,0.000000000017946,0.000000000000031847,0.0206,0.00006337
 47.0,248.150,0.00001563,0.00003216,2.05732473,0.000000000018556,0.000000000000032930,0.0211,0.00006433
 48.0,248.150,0.00001578,0.00003264,2.06915452,0.000000000019173,0.000000000000034027,0.0215,0.00006528
 49.0,248.150,0.00001592,0.00003312,2.08081286,0.000000000019798,0.000000000000035136,0.0220,0.00006623
 50.0,248.150,0.00001605,0.00003359,2.09230583,0.000000000020430,0.000000000000036258,0.0224,0.00006718
 51.0,248.150,0.00001619,0.00003406,2.10363921,0.000000000021069,0.000000000000037394,0.0228,0.00006812
 52.0,248.150,0.00001633,0.00003452,2.11481844,0.000000000021716,0.000000000000038542,0.0233,0.00006905
 53.0,248.150,0.00001646,0.00003499,2.12584870,0.000000000022370,0.000000000000039703,0.0237,0.00006998
 54.0,248.150,0.00001659,0.00003545,2.13673491,0.000000000023030,0.000000000000040876,0.0241,0.00007090
 55.0,248.150,0.00001672,0.00003591,2.14748171,0.000000000023698,0.000000000000042062,0.0245,0.00007182
 56.0,248.150,0.00001685,0.00003637,2.15809356,0.000000000024373,0.000000000000043261,0.0250,0.00007274
 57.0,248.150,0.00001698,0.00003682,2.16857467,0.000000000025055,0.000000000000044472,0.0254,0.00007365
 58.0,248.150,0.00001711,0.00003728,2.17892905,0.000000000025744,0.000000000000045695,0.0258,0.00007455
 59.0,248.150,0.00001723,0.00003773,2.18916054,0.000000000026440,0.000000000000046930,0.0263,0.00007545
 60.0,248.150,0.00001736,0.00003817,2.19927279,0.000000000027142,0.000000000000048178,0.0267,0.00007635
 61.0,248.150,0.00001748,0.00003862,2.20926930,0.000000000027852,0.000000000000049438,0.0271,0.00007724
 62.0,248.150,0.00001760,0.00003907,2.21915339,0.000000000028568,0.000000000000050710,0.0275,0.00007813
 63.0,248.150,0.00001773,0.00003951,2.22892826,0.000000000029291,0.000000000000051993,0.0280,0.00007902
 64.0,248.150,0.00001785,0.00003995,2.23859696,0.000000000030020,0.000000000000053289,0.0284,0.00007990
 65.0,248.150,0.00001796,0.00004039,2.24816241,0.000000000030757,0.000000000000054597,0.0288,0.00008077
 66.0,248.150,0.00001808,0.00004082,2.25762741,0.000000000031500,0.000000000000055916,0.0292,0.00008165
 67.0,248.150,0.00001820,0.00004126,2.26699465,0.000000000032249,0.000000000000057247,0.0296,0.00008252
 68.0,248.150,0.00001832,0.00004169,2.27626670,0.000000000033005,0.000000000000058589,0.0301,0.00008339
 69.0,248.150,0.00001843,0.00004212,2.28544604,0.000000000033768,0.000000000000059944,0.0305,0.00008425
 70.0,248.150,0.00001855,0.00004255,2.29453504,0.000000000034537,0.000000000000061309,0.0309,0.00008511
 71.0,248.150,0.00001866,0.00004298,2.30353599,0.000000000035312,0.000000000000062686,0.0313,0.00008596
 72.0,248.150,0.00001877,0.00004341,2.31245108,0.000000000036094,0.000000000000064075,0.0317,0.00008682
 73.0,248.150,0.00001888,0.00004383,2.32128244,0.000000000036883,0.000000000000065475,0.0321,0.00008767
 74.0,248.150,0.00001899,0.00004426,2.33003208,0.000000000037677,0.000000000000066886,0.0326,0.00008852
 75.0,248.150,0.00001910,0.00004468,2.33870198,0.000000000038479,0.000000000000068309,0.0330,0.00008936
 76.0,248.150,0.00001921,0.00004510,2.34729402,0.000000000039286,0.000000000000069743,0.0334,0.00009020
 77.0,248.150,0.00001932,0.00004552,2.35581003,0.000000000040100,0.000000000000071188,0.0338,0.00009104
 78.0,248.150,0.00001943,0.00004594,2.36425176,0.000000000040920,0.000000000000072644,0.0342,0.00009187
 79.0,248.150,0.00001954,0.00004635,2.37262091,0.000000000041746,0.000000000000074111,0.0346,0.00009271
 80.0,248.150,0.00001964,0.00004677,2.38091911,0.000000000042578,0.000000000000075589,0.0350,0.00009354
 81.0,248.150,0.00001975,0.00004718,2.38914796,0.000000000043417,0.000000000000077079,0.0355,0.00009436
 82.0,248.150,0.00001985,0.00004759,2.39730897,0.000000000044262,0.000000000000078579,0.0359,0.00009519
 83.0,248.150,0.00001996,0.00004801,2.40540362,0.000000000045113,0.000000000000080090,0.0363,0.00009601
 84.0,248.150,0.00002006,0.00004841,2.41343335,0.000000000045970,0.000000000000081612,0.0367,0.00009683
 85.0,248.150,0.00002016,0.00004882,2.42139955,0.000000000046833,0.000000000000083145,0.0371,0.00009765
 86.0,248.150,0.00002027,0.00004923,2.42930354,0.000000000047702,0.000000000000084688,0.0375,0.00009846
 87.0,248.150,0.00002037,0.00004964,2.43714662,0.000000000048577,0.000000000000086242,0.0379,0.00009927
 88.0,248.150,0.00002047,0.00005004,2.44493006,0.000000000049459,0.000000000000087808,0.0383,0.00010008
 89.0,248.150,0.00002057,0.00005044,2.45265506,0.000000000050346,0.000000000000089383,0.0387,0.00010089
 90.0,248.150,0.00002067,0.00005085,2.46032281,0.000000000051239,0.000000000000090970,0.0391,0.00010169
 91.0,248.150,0.00002077,0.00005125,2.46793446,0.000000000052139,0.000000000000092567,0.0395,0.00010250
 92.0,248.150,0.00002086,0.00005165,2.47549111,0.000000000053044,0.000000000000094174,0.0399,0.00010330
 93.0,248.150,0.00002096,0.00005205,2.48299384,0.000000000053955,0.000000000000095792,0.0403,0.00010409
 94.0,248.150,0.00002106,0.00005245,2.49044370,0.000000000054872,0.000000000000097421,0.0407,0.00010489
 95.0,248.150,0.00002116,0.00005284,2.49784170,0.000000000055795,0.000000000000099060,0.0411,0.00010568
 96.0,248.150,0.00002125,0.00005324,2.50518883,0.000000000056724,0.000000000000100710,0.0415,0.00010648
 97.0,248.150,0.00002135,0.00005363,2.51248604,0.000000000057659,0.000000000000102370,0.0419,0.00010727
 98.0,248.150,0.00002144,0.00005403,2.51973427,0.000000000058600,0.000000000000104040,0.0423,0.00010805
 99.0,248.150,0.00002154,0.00005442,2.52693442,0.000000000059546,0.000000000000105721,0.0427,0.00010884
100.0,248.150,0.00002163,0.00005481,2.53408738,0.000000000060498,0.000000000000107412,0.0431,0.00010962
101.0,248.150,0.00002172,0.00005520,2.54119400,0.000000000061456,0.000000000000109113,0.0435,0.00011040
102.0,248.150,0.00002182,0.00005559,2.54825511,0.000000000062420,0.000000000000110825,0.0439,0.00011118
103.0,248.150,0.00002191,0.00005598,2.55527152,0.000000000063390,0.000000000000112546,0.0443,0.00011196
104.0,248.150,0.00002200,0.00005637,2.56224403,0.000000000064365,0.000000000000114278,0.0447,0.00011274
105.0,248.150,0.00002209,0.00005676,2.56917340,0.000000000065346,0.000000000000116021,0.0451,0.00011351
106.0,248.150,0.00002218,0.00005714,2.57606038,0.000000000066333,0.000000000000117773,0.0455,0.00011428
107.0,248.150,0.00002227,0.00005753,2.58290570,0.000000000067326,0.000000000000119536,0.0459,0.00011505
108.0,248.150,0.00002236,0.00005791,2.58971008,0.000000000068324,0.000000000000121308,0.0463,0.00011582
109.0,248.150,0.00002245,0.00005830,2.59647420,0.000000000069328,0.000000000000123091,0.0467,0.00011659
110.0,248.150,0.00002254,0.00005868,2.60319874,0.000000000070337,0.000000000000124884,0.0470,0.00011736
111.0,248.150,0.00002263,0.00005906,2.60988436,0.000000000071353,0.000000000000126687,0.0474,0.00011812
112.0,248.150,0.00002272,0.00005944,2.61653171,0.000000000072374,0.000000000000128500,0.0478,0.00011888
113.0,248.150,0.00002281,0.00005982,2.62314140,0.000000000073400,0.000000000000130322,0.0482,0.00011964
114.0,248.150,0.00002289,0.00006020,2.62971406,0.000000000074432,0.000000000000132155,0.0486,0.00012040
115.0,248.150,0.00002298,0.00006058,2.63625027,0.000000000075470,0.000000000000133998,0.0490,0.00012116
116.0,248.150,0.00002307,0.00006096,2.64275062,0.000000000076513,0.000000000000135851,0.0494,0.00012192
117.0,248.150,0.00002315,0.00006133,2.64921569,0.000000000077562,0.000000000000137713,0.0498,0.00012267
118.0,248.150,0.00002324,0.00006171,2.65564602,0.000000000078617,0.000000000000139586,0.0501,0.00012342
119.0,248.150,0.00002332,0.00006209,2.66204217,0.000000000079677,0.000000000000141468,0.0505,0.00012417
120.0,248.150,0.00002341,0.00006246,2.66840465,0.000000000080742,0.000000000000143360,0.0509,0.00012492
121.0,248.150,0.00002349,0.00006284,2.67473399,0.000000000081813,0.000000000000145263,0.0513,0.00012567
122.0,248.150,0.00002358,0.00006321,2.68103070,0.000000000082890,0.000000000000147174,0.0517,0.00012642
123.0,248.150,0.00002366,0.00006358,2.68729527,0.000000000083972,0.000000000000149096,0.0521,0.00012716
124.0,248.150,0.00002374,0.00006395,2.69352819,0.000000000085060,0.000000000000151027,0.0524,0.00012791
125.0,248.150,0.00002383,0.00006433,2.69972992,0.000000000086153,0.000000000000152969,0.0528,0.00012865
126.0,248.150,0.00002391,0.00006470,2.70590094,0.000000000087251,0.000000000000154920,0.0532,0.00012939
127.0,248.150,0.00002399,0.00006507,2.71204170,0.000000000088356,0.000000000000156880,0.0536,0.00013013
128.0,248.150,0.00002407,0.00006544,2.71815263,0.000000000089465,0.000000000000158851,0.0540,0.00013087
129.0,248.150,0.00002416,0.00006580,2.72423418,0.000000000090580,0.000000000000160831,0.0543,0.00013161
130.0,248.150,0.00002424,0.00006617,2.73028677,0.000000000091701,0.000000000000162820,0.0547,0.00013235
131.0,248.150,0.00002432,0.00006654,2.73631081,0.000000000092826,0.000000000000164820,0.0551,0.00013308
132.0,248.150,0.00002440,0.00006691,2.74230672,0.000000000093958,0.000000000000166829,0.0555,0.00013381
133.0,248.150,0.00002448,0.00006727,2.74827489,0.000000000095094,0.000000000000168847,0.0559,0.00013455
134.0,248.150,0.00002456,0.00006764,2.75421571,0.000000000096237,0.000000000000170875,0.0562,0.00013528
135.0,248.150,0.00002464,0.00006800,2.76012956,0.000000000097384,0.000000000000172913,0.0566,0.00013601
136.0,248.150,0.00002472,0.00006837,2.76601683,0.000000000098537,0.000000000000174961,0.0570,0.00013674
137.0,248.150,0.00002480,0.00006873,2.77187787,0.000000000099695,0.000000000000177017,0.0574,0.00013746
138.0,248.150,0.00002487,0.00006910,2.77771305,0.000000000100859,0.000000000000179084,0.0577,0.00013819
139.0,248.150,0.00002495,0.00006946,2.78352271,0.000000000102028,0.000000000000181160,0.0581,0.00013892
140.0,248.150,0.00002503,0.00006982,2.78930722,0.000000000103203,0.000000000000183245,0.0585,0.00013964
141.0,248.150,0.00002511,0.00007018,2.79506689,0.000000000104382,0.000000000000185340,0.0589,0.00014036
142.0,248.150,0.00002519,0.00007054,2.80080208,0.000000000105567,0.000000000000187445,0.0592,0.00014108
143.0,248.150,0.00002526,0.00007090,2.80651310,0.000000000106758,0.000000000000189559,0.0596,0.00014181
144.0,248.150,0.00002534,0.00007126,2.81220027,0.000000000107954,0.000000000000191682,0.0600,0.00014253
145.0,248.150,0.00002542,0.00007162,2.81786390,0.000000000109155,0.000000000000193815,0.0603,0.00014324
146.0,248.150,0.00002549,0.00007198,2.82350432,0.000000000110361,0.000000000000195958,0.0607,0.00014396
147.0,248.150,0.00002557,0.00007234,2.82912181,0.000000000111573,0.000000000000198109,0.0611,0.00014468
148.0,248.150,0.00002565,0.00007270,2.83471667,0.000000000112790,0.000000000000200271,0.0614,0.00014539
149.0,248.150,0.00002572,0.00007305,2.84028920,0.000000000114012,0.000000000000202441,0.0618,0.00014611
150.0,248.150,0.00002580,0.00007341,2.84583968,0.000000000115240,0.000000000000204621,0.0622,0.00014682
151.0,248.150,0.00002587,0.00007377,2.85136839,0.000000000116473,0.000000000000206811,0.0625,0.00014753
152.0,248.150,0.00002595,0.00007412,2.85687560,0.000000000117711,0.000000000000209009,0.0629,0.00014825
153.0,248.150,0.00002602,0.00007448,2.86236159,0.000000000118954,0.000000000000211217,0.0633,0.00014896
154.0,248.150,0.00002609,0.00007483,2.86782662,0.000000000120203,0.000000000000213435,0.0636,0.00014967
155.0,248.150,0.00002617,0.00007519,2.87327096,0.000000000121457,0.000000000000215662,0.0640,0.00015038
156.0,248.150,0.00002624,0.00007554,2.87869485,0.000000000122716,0.000000000000217898,0.0644,0.00015108
157.0,248.150,0.00002631,0.00007589,2.88409855,0.000000000123981,0.000000000000220143,0.0647,0.00015179
158.0,248.150,0.00002639,0.00007625,2.88948231,0.000000000125250,0.000000000000222398,0.0651,0.00015250
159.0,248.150,0.00002646,0.00007660,2.89484637,0.000000000126525,0.000000000000224662,0.0655,0.00015320
160.0,248.150,0.00002653,0.00007695,2.90019097,0.000000000127805,0.000000000000226935,0.0658,0.00015390
161.0,248.150,0.00002661,0.00007730,2.90551634,0.000000000129091,0.000000000000229218,0.0662,0.00015461
162.0,248.150,0.00002668,0.00007766,2.91082272,0.000000000130381,0.000000000000231510,0.0665,0.00015531
163.0,248.150,0.00002675,0.00007801,2.91611033,0.000000000131677,0.000000000000233811,0.0669,0.00015601
164.0,248.150,0.00002682,0.00007836,2.92137939,0.000000000132978,0.000000000000236121,0.0673,0.00015671
165.0,248.150,0.00002689,0.00007871,2.92663012,0.000000000134285,0.000000000000238441,0.0676,0.00015741
166.0,248.150,0.00002696,0.00007906,2.93186275,0.000000000135596,0.000000000000240770,0.0680,0.00015811
167.0,248.150,0.00002704,0.00007940,2.93707747,0.000000000136913,0.000000000000243108,0.0683,0.00015881
168.0,248.150,0.00002711,0.00007975,2.94227451,0.000000000138234,0.000000000000245455,0.0687,0.00015951
169.0,248.150,0.00002718,0.00008010,2.94745405,0.000000000139561,0.000000000000247811,0.0690,0.00016020
170.0,248.150,0.00002725,0.00008045,2.95261632,0.000000000140894,0.000000000000250177,0.0694,0.00016090
171.0,248.150,0.00002732,0.00008080,2.95776150,0.000000000142231,0.000000000000252552,0.0698,0.00016159
172.0,248.150,0.00002739,0.00008114,2.96288978,0.000000000143573,0.000000000000254936,0.0701,0.00016229
173.0,248.150,0.00002746,0.00008149,2.96800137,0.000000000144921,0.000000000000257329,0.0705,0.00016298
174.0,248.150,0.00002753,0.00008184,2.97309646,0.000000000146274,0.000000000000259732,0.0708,0.00016367
175.0,248.150,0.00002760,0.00008218,2.97817521,0.000000000147632,0.000000000000262143,0.0712,0.00016437
176.0,248.150,0.00002766,0.00008253,2.98323783,0.000000000148995,0.000000000000264564,0.0715,0.00016506
177.0,248.150,0.00002773,0.00008287,2.98828449,0.000000000150364,0.000000000000266994,0.0719,0.00016575
178.0,248.150,0.00002780,0.00008322,2.99331537,0.000000000151737,0.000000000000269433,0.0722,0.00016644
179.0,248.150,0.00002787,0.00008356,2.99833064,0.000000000153116,0.000000000000271881,0.0726,0.00016713
180.0,248.150,0.00002794,0.00008391,3.00333048,0.000000000154499,0.000000000000274338,0.0729,0.00016782
181.0,248.150,0.00002801,0.00008425,3.00831505,0.000000000155888,0.000000000000276805,0.0733,0.00016850
182.0,248.150,0.00002807,0.00008459,3.01328452,0.000000000157282,0.000000000000279280,0.0736,0.00016919
183.0,248.150,0.00002814,0.00008494,3.01823906,0.000000000158682,0.000000000000281765,0.0740,0.00016988
184.0,248.150,0.00002821,0.00008528,3.02317883,0.000000000160086,0.000000000000284258,0.0743,0.00017056
185.0,248.150,0.00002828,0.00008562,3.02810398,0.000000000161495,0.000000000000286761,0.0747,0.00017125
186.0,248.150,0.00002834,0.00008597,3.03301468,0.000000000162910,0.000000000000289273,0.0750,0.00017193
187.0,248.150,0.00002841,0.00008631,3.03791108,0.000000000164329,0.000000000000291794,0.0754,0.00017261
188.0,248.150,0.00002848,0.00008665,3.04279333,0.000000000165754,0.000000000000294324,0.0757,0.00017330
189.0,248.150,0.00002854,0.00008699,3.04766158,0.000000000167184,0.000000000000296863,0.0761,0.00017398
190.0,248.150,0.00002861,0.00008733,3.05251599,0.000000000168619,0.000000000000299412,0.0764,0.00017466
191.0,248.150,0.00002868,0.00008767,3.05735668,0.000000000170059,0.000000000000301969,0.0768,0.00017534
192.0,248.150,0.00002874,0.00008801,3.06218382,0.000000000171504,0.000000000000304535,0.0771,0.00017602
193.0,248.150,0.00002881,0.00008835,3.06699755,0.000000000172954,0.000000000000307111,0.0774,0.00017670
194.0,248.150,0.00002887,0.00008869,3.07179799,0.000000000174410,0.000000000000309695,0.0778,0.00017738
195.0,248.150,0.00002894,0.00008903,3.07658529,0.000000000175870,0.000000000000312289,0.0781,0.00017806
196.0,248.150,0.00002900,0.00008937,3.08135959,0.000000000177336,0.000000000000314891,0.0785,0.00017874
197.0,248.150,0.00002907,0.00008971,3.08612105,0.000000000178807,0.000000000000317503,0.0788,0.00017941
198.0,248.150,0.00002913,0.00009005,3.09086983,0.000000000180282,0.000000000000320123,0.0792,0.00018009
199.0,248.150,0.00002920,0.00009038,3.09560607,0.000000000181763,0.000000000000322753,0.0795,0.00018077
200.0,248.150,0.00002926,0.00009072,3.10032989,0.000000000183249,0.000000000000325392,0.0799,0.00018144
201.0,248.150,0.00002933,0.00009106,3.10504143,0.000000000184740,0.000000000000328039,0.0802,0.00018212
202.0,248.150,0.00002939,0.00009140,3.10974079,0.000000000186236,0.000000000000330696,0.0806,0.00018279
203.0,248.150,0.00002945,0.00009173,3.11442812,0.000000000187737,0.000000000000333362,0.0809,0.00018347
204.0,248.150,0.00002952,0.00009207,3.11910353,0.000000000189244,0.000000000000336037,0.0813,0.00018414
205.0,248.150,0.00002958,0.00009241,3.12376714,0.000000000190755,0.000000000000338721,0.0816,0.00018481
206.0,248.150,0.00002965,0.00009274,3.12841907,0.000000000192271,0.000000000000341414,0.0820,0.00018549
207.0,248.150,0.00002971,0.00009308,3.13305943,0.000000000193793,0.000000000000344115,0.0823,0.00018616
208.0,248.150,0.00002977,0.00009341,3.13768835,0.000000000195319,0.000000000000346826,0.0827,0.00018683
209.0,248.150,0.00002983,0.00009375,3.14230593,0.000000000196851,0.000000000000349546,0.0830,0.00018750
210.0,248.150,0.00002990,0.00009409,3.14691229,0.000000000198388,0.000000000000352275,0.0834,0.00018817
211.0,248.150,0.00002996,0.00009442,3.15150754,0.000000000199930,0.000000000000355013,0.0837,0.00018884
212.0,248.150,0.00003002,0.00009475,3.15609179,0.000000000201476,0.000000000000357760,0.0840,0.00018951
213.0,248.150,0.00003009,0.00009509,3.16066515,0.000000000203028,0.000000000000360516,0.0844,0.00019018
214.0,248.150,0.00003015,0.00009542,3.16522772,0.000000000204585,0.000000000000363281,0.0847,0.00019085
215.0,248.150,0.00003021,0.00009576,3.16977961,0.000000000206147,0.000000000000366055,0.0851,0.00019151
216.0,248.150,0.00003027,0.00009609,3.17432092,0.000000000207715,0.000000000000368837,0.0854,0.00019218
217.0,248.150,0.00003033,0.00009642,3.17885175,0.000000000209287,0.000000000000371629,0.0858,0.00019285
218.0,248.150,0.00003039,0.00009676,3.18337222,0.000000000210864,0.000000000000374430,0.0861,0.00019352
219.0,248.150,0.00003046,0.00009709,3.18788240,0.000000000212446,0.000000000000377240,0.0864,0.00019418
220.0,248.150,0.00003052,0.00009742,3.19238242,0.000000000214034,0.000000000000380059,0.0868,0.00019485
221.0,248.150,0.00003058,0.00009776,3.19687236,0.000000000215626,0.000000000000382887,0.0871,0.00019551
222.0,248.150,0.00003064,0.00009809,3.20135231,0.000000000217223,0.000000000000385723,0.0875,0.00019618
223.0,248.150,0.00003070,0.00009842,3.20582239,0.000000000218826,0.000000000000388569,0.0878,0.00019684
224.0,248.150,0.00003076,0.00009875,3.21028266,0.000000000220434,0.000000000000391424,0.0882,0.00019751
225.0,248.150,0.00003082,0.00009908,3.21473325,0.000000000222046,0.000000000000394287,0.0885,0.00019817
226.0,248.150,0.00003088,0.00009942,3.21917422,0.000000000223664,0.000000000000397160,0.0888,0.00019883
227.0,248.150,0.00003094,0.00009975,3.22360568,0.000000000225287,0.000000000000400042,0.0892,0.00019949
228.0,248.150,0.00003100,0.00010008,3.22802770,0.000000000226914,0.000000000000402932,0.0895,0.00020016
229.0,248.150,0.00003106,0.00010041,3.23244040,0.000000000228547,0.000000000000405832,0.0898,0.00020082
230.0,248.150,0.00003112,0.00010074,3.23684383,0.000000000230185,0.000000000000408740,0.0902,0.00020148
231.0,248.150,0.00003118,0.00010107,3.24123811,0.000000000231828,0.000000000000411658,0.0905,0.00020214
232.0,248.150,0.00003124,0.00010140,3.24562330,0.000000000233476,0.000000000000414584,0.0909,0.00020280
233.0,248.150,0.00003130,0.00010173,3.24999950,0.000000000235129,0.000000000000417520,0.0912,0.00020346
234.0,248.150,0.00003136,0.00010206,3.25436679,0.000000000236787,0.000000000000420464,0.0915,0.00020412
235.0,248.150,0.00003142,0.00010239,3.25872524,0.000000000238450,0.000000000000423417,0.0919,0.00020478
236.0,248.150,0.00003148,0.00010272,3.26307495,0.000000000240118,0.000000000000426380,0.0922,0.00020544
237.0,248.150,0.00003154,0.00010305,3.26741598,0.000000000241791,0.000000000000429351,0.0925,0.00020610
238.0,248.150,0.00003160,0.00010338,3.27174843,0.000000000243470,0.000000000000432331,0.0929,0.00020676
239.0,248.150,0.00003166,0.00010371,3.27607237,0.000000000245153,0.000000000000435320,0.0932,0.00020741
240.0,248.150,0.00003171,0.00010404,3.28038787,0.000000000246841,0.000000000000438319,0.0935,0.00020807
241.0,248.150,0.00003177,0.00010436,3.28469502,0.000000000248535,0.000000000000441326,0.0939,0.00020873
242.0,248.150,0.00003183,0.00010469,3.28899389,0.000000000250233,0.000000000000444342,0.0942,0.00020939
243.0,248.150,0.00003189,0.00010502,3.29328455,0.000000000251937,0.000000000000447367,0.0945,0.00021004
244.0,248.150,0.00003195,0.00010535,3.29756707,0.000000000253645,0.000000000000450401,0.0949,0.00021070
245.0,248.150,0.00003201,0.00010568,3.30184154,0.000000000255359,0.000000000000453443,0.0952,0.00021135
246.0,248.150,0.00003206,0.00010601,3.30610803,0.000000000257077,0.000000000000456495,0.0955,0.00021201
247.0,248.150,0.00003212,0.00010633,3.31036660,0.000000000258801,0.000000000000459556,0.0959,0.00021267
248.0,248.150,0.00003218,0.00010666,3.31461732,0.000000000260529,0.000000000000462626,0.0962,0.00021332
249.0,248.150,0.00003224,0.00010699,3.31886028,0.000000000262263,0.000000000000465705,0.0965,0.00021398
250.0,248.150,0.00003229,0.00010731,3.32309552,0.000000000264002,0.000000000000468792,0.0968,0.00021463
251.0,248.150,0.00003235,0.00010764,3.32732314,0.000000000265746,0.000000000000471889,0.0972,0.00021528
252.0,248.150,0.00003241,0.00010797,3.33154318,0.000000000267495,0.000000000000474995,0.0975,0.00021594
253.0,248.150,0.00003246,0.00010830,3.33575572,0.000000000269248,0.000000000000478109,0.0978,0.00021659
254.0,248.150,0.00003252,0.00010862,3.33996083,0.000000000271007,0.000000000000481233,0.0982,0.00021724
255.0,248.150,0.00003258,0.00010895,3.34415857,0.000000000272771,0.000000000000484365,0.0985,0.00021790
256.0,248.150,0.00003264,0.00010927,3.34834900,0.000000000274540,0.000000000000487506,0.0988,0.00021855
257.0,248.150,0.00003269,0.00010960,3.35253220,0.000000000276314,0.000000000000490657,0.0991,0.00021920
258.0,248.150,0.00003275,0.00010993,3.35670822,0.000000000278094,0.000000000000493816,0.0995,0.00021985
259.0,248.150,0.00003280,0.00011025,3.36087712,0.000000000279878,0.000000000000496984,0.0998,0.00022050
260.0,248.150,0.00003286,0.00011058,3.36503897,0.000000000281667,0.000000000000500162,0.1001,0.00022116
261.0,248.150,0.00003292,0.00011090,3.36919383,0.000000000283461,0.000000000000503348,0.1004,0.00022181
262.0,248.150,0.00003297,0.00011123,3.37334176,0.000000000285260,0.000000000000506543,0.1008,0.00022246
263.0,248.150,0.00003303,0.00011155,3.37748282,0.000000000287065,0.000000000000509747,0.1011,0.00022311
264.0,248.150,0.00003308,0.00011188,3.38161708,0.000000000288874,0.000000000000512960,0.1014,0.00022376
265.0,248.150,0.00003314,0.00011220,3.38574458,0.000000000290689,0.000000000000516182,0.1017,0.00022441
266.0,248.150,0.00003320,0.00011253,3.38986539,0.000000000292508,0.000000000000519413,0.1021,0.00022506
267.0,248.150,0.00003325,0.00011285,3.39397956,0.000000000294333,0.000000000000522653,0.1024,0.00022571
268.0,248.150,0.00003331,0.00011318,3.39808715,0.000000000296162,0.000000000000525902,0.1027,0.00022636
269.0,248.150,0.00003336,0.00011350,3.40218823,0.000000000297997,0.000000000000529160,0.1030,0.00022700
270.0,248.150,0.00003342,0.00011383,3.40628284,0.000000000299836,0.000000000000532427,0.1034,0.00022765
271.0,248.150,0.00003347,0.00011415,3.41037103,0.000000000301681,0.000000000000535703,0.1037,0.00022830
272.0,248.150,0.00003353,0.00011448,3.41445288,0.000000000303531,0.000000000000538988,0.1040,0.00022895
273.0,248.150,0.00003358,0.00011480,3.41852842,0.000000000305386,0.000000000000542281,0.1043,0.00022960
274.0,248.150,0.00003364,0.00011512,3.42259771,0.000000000307246,0.000000000000545584,0.1046,0.00023025
275.0,248.150,0.00003369,0.00011545,3.42666081,0.000000000309111,0.000000000000548896,0.1050,0.00023089
276.0,248.150,0.00003375,0.00011577,3.43071777,0.000000000310981,0.000000000000552217,0.1053,0.00023154
277.0,248.150,0.00003380,0.00011609,3.43476864,0.000000000312856,0.000000000000555546,0.1056,0.00023219
278.0,248.150,0.00003385,0.00011642,3.43881347,0.000000000314736,0.000000000000558885,0.1059,0.00023283
279.0,248.150,0.00003391,0.00011674,3.44285232,0.000000000316621,0.000000000000562233,0.1062,0.00023348
280.0,248.150,0.00003396,0.00011706,3.44688523,0.000000000318511,0.000000000000565589,0.1066,0.00023413
281.0,248.150,0.00003402,0.00011739,3.45091225,0.000000000320406,0.000000000000568955,0.1069,0.00023477
282.0,248.150,0.00003407,0.00011771,3.45493344,0.000000000322307,0.000000000000572330,0.1072,0.00023542
283.0,248.150,0.00003412,0.00011803,3.45894883,0.000000000324212,0.000000000000575713,0.1075,0.00023607
284.0,248.150,0.00003418,0.00011836,3.46295849,0.000000000326123,0.000000000000579106,0.1078,0.00023671
285.0,248.150,0.00003423,0.00011868,3.46696246,0.000000000328038,0.000000000000582508,0.1082,0.00023736
286.0,248.150,0.00003428,0.00011900,3.47096079,0.000000000329959,0.000000000000585918,0.1085,0.00023800
287.0,248.150,0.00003434,0.00011932,3.47495352,0.000000000331884,0.000000000000589338,0.1088,0.00023865
288.0,248.150,0.00003439,0.00011965,3.47894070,0.000000000333815,0.000000000000592766,0.1091,0.00023929
289.0,248.150,0.00003444,0.00011997,3.48292238,0.000000000335751,0.000000000000596204,0.1094,0.00023994
290.0,248.150,0.00003450,0.00012029,3.48689860,0.000000000337692,0.000000000000599651,0.1097,0.00024058
291.0,248.150,0.00003455,0.00012061,3.49086941,0.000000000339638,0.000000000000603106,0.1100,0.00024122
292.0,248.150,0.00003460,0.00012093,3.49483485,0.000000000341589,0.000000000000606571,0.1104,0.00024187
293.0,248.150,0.00003466,0.00012126,3.49879497,0.000000000343545,0.000000000000610044,0.1107,0.00024251
294.0,248.150,0.00003471,0.00012158,3.50274982,0.000000000345506,0.000000000000613527,0.1110,0.00024316
295.0,248.150,0.00003476,0.00012190,3.50669943,0.000000000347472,0.000000000000617019,0.1113,0.00024380
296.0,248.150,0.00003481,0.00012222,3.51064385,0.000000000349444,0.000000000000620519,0.1116,0.00024444
297.0,248.150,0.00003487,0.00012254,3.51458312,0.000000000351420,0.000000000000624029,0.1119,0.00024509
298.0,248.150,0.00003492,0.00012286,3.51851728,0.000000000353402,0.000000000000627548,0.1122,0.00024573
299.0,248.150,0.00003497,0.00012319,3.52244639,0.000000000355388,0.000000000000631076,0.1126,0.00024637
300.0,248.150,0.00003502,0.00012351,3.52637047,0.000000000357380,0.000000000000634612,0.1129,0.00024701
301.0,248.150,0.00003508,0.00012383,3.53028957,0.000000000359377,0.000000000000638158,0.1132,0.00024766
302.0,248.150,0.00003513,0.00012415,3.53420374,0.000000000361378,0.000000000000641713,0.1135,0.00024830
303.0,248.150,0.00003518,0.00012447,3.53811300,0.000000000363385,0.000000000000645277,0.1138,0.00024894
304.0,248.150,0.00003523,0.00012479,3.54201741,0.000000000365397,0.000000000000648850,0.1141,0.00024958
305.0,248.150,0.00003528,0.00012511,3.54591700,0.000000000367414,0.000000000000652432,0.1144,0.00025023
306.0,248.150,0.00003534,0.00012543,3.54981181,0.000000000369437,0.000000000000656023,0.1147,0.00025087
307.0,248.150,0.00003539,0.00012575,3.55370188,0.000000000371464,0.000000000000659623,0.1150,0.00025151
308.0,248.150,0.00003544,0.00012608,3.55758725,0.000000000373496,0.000000000000663232,0.1153,0.00025215
309.0,248.150,0.00003549,0.00012640,3.56146796,0.000000000375534,0.000000000000666850,0.1157,0.00025279
310.0,248.150,0.00003554,0.00012672,3.56534405,0.000000000377576,0.000000000000670477,0.1160,0.00025343
311.0,248.150,0.00003559,0.00012704,3.56921555,0.000000000379624,0.000000000000674114,0.1163,0.00025407
312.0,248.150,0.00003564,0.00012736,3.57308250,0.000000000381677,0.000000000000677759,0.1166,0.00025471
313.0,248.150,0.00003569,0.00012768,3.57694494,0.000000000383735,0.000000000000681413,0.1169,0.00025536
314.0,248.150,0.00003575,0.00012800,3.58080290,0.000000000385798,0.000000000000685077,0.1172,0.00025600
315.0,248.150,0.00003580,0.00012832,3.58465643,0.000000000387866,0.000000000000688749,0.1175,0.00025664
316.0,248.150,0.00003585,0.00012864,3.58850556,0.000000000389939,0.000000000000692431,0.1178,0.00025728
317.0,248.150,0.00003590,0.00012896,3.59235031,0.000000000392017,0.000000000000696122,0.1181,0.00025792
318.0,248.150,0.00003595,0.00012928,3.59619074,0.000000000394101,0.000000000000699821,0.1184,0.00025856
319.0,248.150,0.00003600,0.00012960,3.60002687,0.000000000396189,0.000000000000703530,0.1187,0.00025920
320.0,248.150,0.00003605,0.00012992,3.60385874,0.000000000398283,0.000000000000707248,0.1190,0.00025984
321.0,248.150,0.00003610,0.00013024,3.60768639,0.000000000400382,0.000000000000710975,0.1193,0.00026048
322.0,248.150,0.00003615,0.00013056,3.61150984,0.000000000402486,0.000000000000714711,0.1196,0.00026112
323.0,248.150,0.00003620,0.00013088,3.61532914,0.000000000404595,0.000000000000718457,0.1199,0.00026176
324.0,248.150,0.00003625,0.00013120,3.61914431,0.000000000406709,0.000000000000722211,0.1202,0.00026240
325.0,248.150,0.00003630,0.00013152,3.62295540,0.000000000408828,0.000000000000725974,0.1205,0.00026304
326.0,248.150,0.00003635,0.00013184,3.62676242,0.000000000410953,0.000000000000729747,0.1209,0.00026368
327.0,248.150,0.00003640,0.00013216,3.63056542,0.000000000413082,0.000000000000733529,0.1212,0.00026432
328.0,248.150,0.00003645,0.00013248,3.63436443,0.000000000415217,0.000000000000737320,0.1215,0.00026495
329.0,248.150,0.00003650,0.00013280,3.63815948,0.000000000417357,0.000000000000741119,0.1218,0.00026559
330.0,248.150,0.00003655,0.00013312,3.64195061,0.000000000419502,0.000000000000744928,0.1221,0.00026623
331.0,248.150,0.00003660,0.00013344,3.64573784,0.000000000421652,0.000000000000748747,0.1224,0.00026687
332.0,248.150,0.00003665,0.00013376,3.64952120,0.000000000423807,0.000000000000752574,0.1227,0.00026751
333.0,248.150,0.00003670,0.00013407,3.65330073,0.000000000425968,0.000000000000756410,0.1230,0.00026815
334.0,248.150,0.00003675,0.00013439,3.65707646,0.000000000428133,0.000000000000760256,0.1233,0.00026879
335.0,248.150,0.00003680,0.00013471,3.66084842,0.000000000430304,0.000000000000764111,0.1236,0.00026943
336.0,248.150,0.00003685,0.00013503,3.66461664,0.000000000432480,0.000000000000767975,0.1239,0.00027007
337.0,248.150,0.00003690,0.00013535,3.66838115,0.000000000434661,0.000000000000771848,0.1242,0.00027070
338.0,248.150,0.00003695,0.00013567,3.67214198,0.000000000436847,0.000000000000775730,0.1245,0.00027134
339.0,248.150,0.00003700,0.00013599,3.67589916,0.000000000439038,0.000000000000779621,0.1248,0.00027198
340.0,248.150,0.00003704,0.00013631,3.67965272,0.000000000441235,0.000000000000783522,0.1251,0.00027262
341.0,248.150,0.00003709,0.00013663,3.68340268,0.000000000443436,0.000000000000787431,0.1254,0.00027326
342.0,248.150,0.00003714,0.00013695,3.68714909,0.000000000445643,0.000000000000791350,0.1257,0.00027389
343.0,248.150,0.00003719,0.00013727,3.69089196,0.000000000447855,0.000000000000795278,0.1260,0.00027453
344.0,248.150,0.00003724,0.00013759,3.69463133,0.000000000450072,0.000000000000799215,0.1263,0.00027517
345.0,248.150,0.00003729,0.00013790,3.69836722,0.000000000452295,0.000000000000803162,0.1266,0.00027581
346.0,248.150,0.00003734,0.00013822,3.70209966,0.000000000454522,0.000000000000807117,0.1269,0.00027645
347.0,248.150,0.00003738,0.00013854,3.70582868,0.000000000456755,0.000000000000811082,0.1271,0.00027708
348.0,248.150,0.00003743,0.00013886,3.70955431,0.000000000458993,0.000000000000815056,0.1274,0.00027772
349.0,248.150,0.00003748,0.00013918,3.71327657,0.000000000461236,0.000000000000819039,0.1277,0.00027836
350.0,248.150,0.00003753,0.00013950,3.71699550,0.000000000463484,0.000000000000823032,0.1280,0.00027900
351.0,248.150,0.00003758,0.00013982,3.72071111,0.000000000465737,0.000000000000827033,0.1283,0.00027964
352.0,248.150,0.00003763,0.00014014,3.72442345,0.000000000467996,0.000000000000831044,0.1286,0.00028027
353.0,248.150,0.00003767,0.00014046,3.72813252,0.000000000470260,0.000000000000835064,0.1289,0.00028091
354.0,248.150,0.00003772,0.00014077,3.73183836,0.000000000472529,0.000000000000839093,0.1292,0.00028155
355.0,248.150,0.00003777,0.00014109,3.73554100,0.000000000474803,0.000000000000843132,0.1295,0.00028219
356.0,248.150,0.00003782,0.00014141,3.73924046,0.000000000477082,0.000000000000847179,0.1298,0.00028282
357.0,248.150,0.00003787,0.00014173,3.74293676,0.000000000479367,0.000000000000851236,0.1301,0.00028346
358.0,248.150,0.00003791,0.00014205,3.74662994,0.000000000481657,0.000000000000855302,0.1304,0.00028410
359.0,248.150,0.00003796,0.00014237,3.75032002,0.000000000483952,0.000000000000859378,0.1307,0.00028473
360.0,248.150,0.00003801,0.00014269,3.75400702,0.000000000486252,0.000000000000863463,0.1310,0.00028537
361.0,248.150,0.00003806,0.00014300,3.75769097,0.000000000488557,0.000000000000867556,0.1313,0.00028601
362.0,248.150,0.00003810,0.00014332,3.76137189,0.000000000490868,0.000000000000871660,0.1316,0.00028665
363.0,248.150,0.00003815,0.00014364,3.76504981,0.000000000493184,0.000000000000875772,0.1319,0.00028728
364.0,248.150,0.00003820,0.00014396,3.76872475,0.000000000495505,0.000000000000879894,0.1321,0.00028792
365.0,248.150,0.00003824,0.00014429,3.77297390,0.000000000497831,0.000000000000884025,0.1324,0.00028859
366.0,248.150,0.00003829,0.00014463,3.77722030,0.000000000500162,0.000000000000888165,0.1327,0.00028925
367.0,248.150,0.00003833,0.00014496,3.78146397,0.000000000502499,0.000000000000892315,0.1330,0.00028992
368.0,248.150,0.00003838,0.00014529,3.78570491,0.000000000504841,0.000000000000896474,0.1333,0.00029059
369.0,248.150,0.00003842,0.00014563,3.78994316,0.000000000507189,0.000000000000900643,0.1336,0.00029125
370.0,248.150,0.00003847,0.00014596,3.79417872,0.000000000509542,0.000000000000904821,0.1339,0.00029192
371.0,248.150,0.00003851,0.00014629,3.79841161,0.000000000511900,0.000000000000909008,0.1341,0.00029259
372.0,248.150,0.00003856,0.00014663,3.80264186,0.000000000514263,0.000000000000913205,0.1344,0.00029326
373.0,248.150,0.00003860,0.00014696,3.80686946,0.000000000516632,0.000000000000917411,0.1347,0.00029392
374.0,248.150,0.00003865,0.00014730,3.81109445,0.000000000519006,0.000000000000921627,0.1350,0.00029459
375.0,248.150,0.00003869,0.00014763,3.81531684,0.000000000521385,0.000000000000925852,0.1353,0.00029526
376.0,248.150,0.00003874,0.00014796,3.81953664,0.000000000523769,0.000000000000930086,0.1356,0.00029593
377.0,248.150,0.00003878,0.00014830,3.82375387,0.000000000526159,0.000000000000934330,0.1358,0.00029659
378.0,248.150,0.00003883,0.00014863,3.82796855,0.000000000528554,0.000000000000938583,0.1361,0.00029726
379.0,248.150,0.00003887,0.00014896,3.83218069,0.000000000530955,0.000000000000942846,0.1364,0.00029793
380.0,248.150,0.00003892,0.00014930,3.83639031,0.000000000533361,0.000000000000947118,0.1367,0.00029860
381.0,248.150,0.00003896,0.00014963,3.84059742,0.000000000535772,0.000000000000951400,0.1370,0.00029926
382.0,248.150,0.00003900,0.00014997,3.84480204,0.000000000538188,0.000000000000955691,0.1373,0.00029993
383.0,248.150,0.00003905,0.00015030,3.84900418,0.000000000540610,0.000000000000959991,0.1375,0.00030060
384.0,248.150,0.00003909,0.00015063,3.85320386,0.000000000543037,0.000000000000964301,0.1378,0.00030127
385.0,248.150,0.00003914,0.00015097,3.85740110,0.000000000545469,0.000000000000968620,0.1381,0.00030194
386.0,248.150,0.00003918,0.00015130,3.86159590,0.000000000547907,0.000000000000972949,0.1384,0.00030260
387.0,248.150,0.00003923,0.00015164,3.86578829,0.000000000550349,0.000000000000977287,0.1387,0.00030327
388.0,248.150,0.00003927,0.00015197,3.86997828,0.000000000552798,0.000000000000981635,0.1389,0.00030394
389.0,248.150,0.00003931,0.00015230,3.87416588,0.000000000555251,0.000000000000985992,0.1392,0.00030461
390.0,248.150,0.00003936,0.00015264,3.87835111,0.000000000557710,0.000000000000990358,0.1395,0.00030528
391.0,248.150,0.00003940,0.00015297,3.88253398,0.000000000560174,0.000000000000994734,0.1398,0.00030595
392.0,248.150,0.00003944,0.00015331,3.88671451,0.000000000562644,0.000000000000999119,0.1400,0.00030662
393.0,248.150,0.00003949,0.00015364,3.89089271,0.000000000565119,0.000000000001003514,0.1403,0.00030728
394.0,248.150,0.00003953,0.00015398,3.89506860,0.000000000567599,0.000000000001007918,0.1406,0.00030795
395.0,248.150,0.00003957,0.00015431,3.89924219,0.000000000570084,0.000000000001012332,0.1409,0.00030862
396.0,248.150,0.00003962,0.00015465,3.90341349,0.000000000572575,0.000000000001016755,0.1412,0.00030929
397.0,248.150,0.00003966,0.00015498,3.90758252,0.000000000575071,0.000000000001021188,0.1414,0.00030996
398.0,248.150,0.00003970,0.00015532,3.91174929,0.000000000577573,0.000000000001025630,0.1417,0.00031063
399.0,248.150,0.00003975,0.00015565,3.91591381,0.000000000580080,0.000000000001030082,0.1420,0.00031130
400.0,248.150,0.00003979,0.00015599,3.92007610,0.000000000582592,0.000000000001034543,0.1423,0.00031197
401.0,248.150,0.00003983,0.00015632,3.92423618,0.000000000585109,0.000000000001039013,0.1425,0.00031264
402.0,248.150,0.00003988,0.00015665,3.92839405,0.000000000587632,0.000000000001043493,0.1428,0.00031331
403.0,248.150,0.00003992,0.00015699,3.93254973,0.000000000590160,0.000000000001047982,0.1431,0.00031398
404.0,248.150,0.00003996,0.00015732,3.93670323,0.000000000592693,0.000000000001052481,0.1434,0.00031465
405.0,248.150,0.00004001,0.00015766,3.94085457,0.000000000595232,0.000000000001056990,0.1436,0.00031532
406.0,248.150,0.00004005,0.00015799,3.94500376,0.000000000597776,0.000000000001061507,0.1439,0.00031599
407.0,248.150,0.00004009,0.00015833,3.94915081,0.000000000600326,0.000000000001066035,0.1442,0.00031666
408.0,248.150,0.00004013,0.00015867,3.95329573,0.000000000602881,0.000000000001070572,0.1445,0.00031733
409.0,248.150,0.00004018,0.00015900,3.95743854,0.000000000605441,0.000000000001075118,0.1447,0.00031800
410.0,248.150,0.00004022,0.00015934,3.96157926,0.000000000608006,0.000000000001079674,0.1450,0.00031867
411.0,248.150,0.00004026,0.00015967,3.96571788,0.000000000610577,0.000000000001084239,0.1453,0.00031934
412.0,248.150,0.00004031,0.00016001,3.96985443,0.000000000613153,0.000000000001088814,0.1455,0.00032001
413.0,248.150,0.00004035,0.00016034,3.97398892,0.000000000615735,0.000000000001093398,0.1458,0.00032068
414.0,248.150,0.00004039,0.00016068,3.97812135,0.000000000618322,0.000000000001097992,0.1461,0.00032136
415.0,248.150,0.00004043,0.00016101,3.98225175,0.000000000620914,0.000000000001102595,0.1464,0.00032203
416.0,248.150,0.00004048,0.00016135,3.98638013,0.000000000623511,0.000000000001107208,0.1466,0.00032270
417.0,248.150,0.00004052,0.00016168,3.99050649,0.000000000626114,0.000000000001111830,0.1469,0.00032337
418.0,248.150,0.00004056,0.00016202,3.99463085,0.000000000628722,0.000000000001116462,0.1472,0.00032404
419.0,248.150,0.00004060,0.00016236,3.99875322,0.000000000631336,0.000000000001121103,0.1474,0.00032471
420.0,248.150,0.00004064,0.00016269,4.00287362,0.000000000633955,0.000000000001125754,0.1477,0.00032538
421.0,248.150,0.00004069,0.00016303,4.00699205,0.000000000636579,0.000000000001130414,0.1480,0.00032606
422.0,248.150,0.00004073,0.00016336,4.01110853,0.000000000639209,0.000000000001135084,0.1483,0.00032673
423.0,248.150,0.00004077,0.00016370,4.01522306,0.000000000641844,0.000000000001139763,0.1485,0.00032740
424.0,248.150,0.00004081,0.00016404,4.01933567,0.000000000644485,0.000000000001144452,0.1488,0.00032807
425.0,248.150,0.00004085,0.00016437,4.02344635,0.000000000647130,0.000000000001149150,0.1491,0.00032874
426.0,248.150,0.00004090,0.00016471,4.02755513,0.000000000649781,0.000000000001153858,0.1493,0.00032942
427.0,248.150,0.00004094,0.00016504,4.03166202,0.000000000652438,0.000000000001158575,0.1496,0.00033009
428.0,248.150,0.00004098,0.00016538,4.03576702,0.000000000655100,0.000000000001163302,0.1499,0.00033076
429.0,248.150,0.00004102,0.00016572,4.03987015,0.000000000657767,0.000000000001168039,0.1501,0.00033143
430.0,248.150,0.00004106,0.00016605,4.04397141,0.000000000660440,0.000000000001172785,0.1504,0.00033211
431.0,248.150,0.00004110,0.00016639,4.04807083,0.000000000663118,0.000000000001177540,0.1507,0.00033278
432.0,248.150,0.00004115,0.00016673,4.05216840,0.000000000665801,0.000000000001182305,0.1509,0.00033345
433.0,248.150,0.00004119,0.00016706,4.05626415,0.000000000668490,0.000000000001187080,0.1512,0.00033413
434.0,248.150,0.00004123,0.00016740,4.06035808,0.000000000671184,0.000000000001191864,0.1515,0.00033480
435.0,248.150,0.00004127,0.00016774,4.06445020,0.000000000673883,0.000000000001196658,0.1517,0.00033547
436.0,248.150,0.00004131,0.00016807,4.06854053,0.000000000676588,0.000000000001201461,0.1520,0.00033615
437.0,248.150,0.00004135,0.00016841,4.07262907,0.000000000679298,0.000000000001206274,0.1523,0.00033682
438.0,248.150,0.00004139,0.00016875,4.07671584,0.000000000682014,0.000000000001211096,0.1525,0.00033749
439.0,248.150,0.00004143,0.00016908,4.08080084,0.000000000684735,0.000000000001215928,0.1528,0.00033817
440.0,248.150,0.00004148,0.00016942,4.08488409,0.000000000687461,0.000000000001220769,0.1531,0.00033884
441.0,248.150,0.00004152,0.00016976,4.08896559,0.000000000690193,0.000000000001225620,0.1533,0.00033952
442.0,248.150,0.00004156,0.00017010,4.09304537,0.000000000692930,0.000000000001230481,0.1536,0.00034019
443.0,248.150,0.00004160,0.00017043,4.09712342,0.000000000695672,0.000000000001235351,0.1538,0.00034087
444.0,248.150,0.00004164,0.00017077,4.10119976,0.000000000698420,0.000000000001240231,0.1541,0.00034154
445.0,248.150,0.00004168,0.00017111,4.10527439,0.000000000701174,0.000000000001245120,0.1544,0.00034221
446.0,248.150,0.00004172,0.00017144,4.10934734,0.000000000703932,0.000000000001250019,0.1546,0.00034289
447.0,248.150,0.00004176,0.00017178,4.11341860,0.000000000706696,0.000000000001254927,0.1549,0.00034356
448.0,248.150,0.00004180,0.00017212,4.11748819,0.000000000709466,0.000000000001259845,0.1552,0.00034424
449.0,248.150,0.00004184,0.00017246,4.12155612,0.000000000712241,0.000000000001264773,0.1554,0.00034492
450.0,248.150,0.00004188,0.00017280,4.12562240,0.000000000715021,0.000000000001269710,0.1557,0.00034559
451.0,248.150,0.00004192,0.00017313,4.12968704,0.000000000717807,0.000000000001274657,0.1559,0.00034627
452.0,248.150,0.00004196,0.00017347,4.13375004,0.000000000720598,0.000000000001279613,0.1562,0.00034694
453.0,248.150,0.00004200,0.00017381,4.13781142,0.000000000723394,0.000000000001284579,0.1565,0.00034762
454.0,248.150,0.00004205,0.00017415,4.14187119,0.000000000726196,0.000000000001289554,0.1567,0.00034829
455.0,248.150,0.00004209,0.00017448,4.14592935,0.000000000729003,0.000000000001294540,0.1570,0.00034897
456.0,248.150,0.00004213,0.00017482,4.14998592,0.000000000731816,0.000000000001299534,0.1572,0.00034965
457.0,248.150,0.00004217,0.00017516,4.15404091,0.000000000734634,0.000000000001304539,0.1575,0.00035032
458.0,248.150,0.00004221,0.00017550,4.15809432,0.000000000737457,0.000000000001309552,0.1578,0.00035100
459.0,248.150,0.00004225,0.00017584,4.16214617,0.000000000740286,0.000000000001314576,0.1580,0.00035167
460.0,248.150,0.00004229,0.00017618,4.16619646,0.000000000743121,0.000000000001319609,0.1583,0.00035235
461.0,248.150,0.00004233,0.00017651,4.17024520,0.000000000745960,0.000000000001324652,0.1585,0.00035303
462.0,248.150,0.00004237,0.00017685,4.17429241,0.000000000748805,0.000000000001329704,0.1588,0.00035370
463.0,248.150,0.00004241,0.00017719,4.17833808,0.000000000751656,0.000000000001334766,0.1591,0.00035438
464.0,248.150,0.00004245,0.00017753,4.18238224,0.000000000754512,0.000000000001339838,0.1593,0.00035506
465.0,248.150,0.00004249,0.00017787,4.18642489,0.000000000757373,0.000000000001344919,0.1596,0.00035574
466.0,248.150,0.00004253,0.00017821,4.19046604,0.000000000760240,0.000000000001350010,0.1598,0.00035641
467.0,248.150,0.00004257,0.00017855,4.19450569,0.000000000763112,0.000000000001355110,0.1601,0.00035709
468.0,248.150,0.00004261,0.00017888,4.19854386,0.000000000765990,0.000000000001360220,0.1604,0.00035777
469.0,248.150,0.00004265,0.00017922,4.20258055,0.000000000768873,0.000000000001365340,0.1606,0.00035845
470.0,248.150,0.00004269,0.00017956,4.20661578,0.000000000771761,0.000000000001370469,0.1609,0.00035912
471.0,248.150,0.00004273,0.00017990,4.21064956,0.000000000774655,0.000000000001375608,0.1611,0.00035980
472.0,248.150,0.00004276,0.00018024,4.21468188,0.000000000777554,0.000000000001380757,0.1614,0.00036048
473.0,248.150,0.00004280,0.00018058,4.21871276,0.000000000780459,0.000000000001385915,0.1616,0.00036116
474.0,248.150,0.00004284,0.00018092,4.22274221,0.000000000783369,0.000000000001391083,0.1619,0.00036184
475.0,248.150,0.00004288,0.00018126,4.22677024,0.000000000786285,0.000000000001396260,0.1621,0.00036252
476.0,248.150,0.00004292,0.00018160,4.23079686,0.000000000789206,0.000000000001401448,0.1624,0.00036320
477.0,248.150,0.00004296,0.00018194,4.23482207,0.000000000792133,0.000000000001406644,0.1627,0.00036387
478.0,248.150,0.00004300,0.00018228,4.23884588,0.000000000795064,0.000000000001411851,0.1629,0.00036455
479.0,248.150,0.00004304,0.00018262,4.24286830,0.000000000798002,0.000000000001417067,0.1632,0.00036523
480.0,248.150,0.00004308,0.00018296,4.24688935,0.000000000800945,0.000000000001422293,0.1634,0.00036591
481.0,248.150,0.00004312,0.00018330,4.25090902,0.000000000803893,0.000000000001427528,0.1637,0.00036659
482.0,248.150,0.00004316,0.00018364,4.25492732,0.000000000806847,0.000000000001432774,0.1639,0.00036727
483.0,248.150,0.00004320,0.00018398,4.25894427,0.000000000809806,0.000000000001438028,0.1642,0.00036795
484.0,248.150,0.00004324,0.00018432,4.26295987,0.000000000812770,0.000000000001443293,0.1644,0.00036863
485.0,248.150,0.00004328,0.00018466,4.26697413,0.000000000815740,0.000000000001448567,0.1647,0.00036931
486.0,248.150,0.00004331,0.00018500,4.27098706,0.000000000818716,0.000000000001453851,0.1649,0.00036999
487.0,248.150,0.00004335,0.00018534,4.27499867,0.000000000821697,0.000000000001459144,0.1652,0.00037067
488.0,248.150,0.00004339,0.00018568,4.27900896,0.000000000824683,0.000000000001464447,0.1654,0.00037135
489.0,248.150,0.00004343,0.00018602,4.28301794,0.000000000827675,0.000000000001469760,0.1657,0.00037203
490.0,248.150,0.00004347,0.00018636,4.28702562,0.000000000830672,0.000000000001475083,0.1659,0.00037271
491.0,248.150,0.00004351,0.00018670,4.29103201,0.000000000833675,0.000000000001480415,0.1662,0.00037340
492.0,248.150,0.00004355,0.00018704,4.29503711,0.000000000836683,0.000000000001485757,0.1664,0.00037408
493.0,248.150,0.00004359,0.00018738,4.29904094,0.000000000839697,0.000000000001491109,0.1667,0.00037476
494.0,248.150,0.00004362,0.00018772,4.30304350,0.000000000842716,0.000000000001496470,0.1669,0.00037544
495.0,248.150,0.00004366,0.00018806,4.30704479,0.000000000845740,0.000000000001501841,0.1672,0.00037612
496.0,248.150,0.00004370,0.00018840,4.31104483,0.000000000848770,0.000000000001507222,0.1674,0.00037680
497.0,248.150,0.00004374,0.00018874,4.31504363,0.000000000851806,0.000000000001512612,0.1677,0.00037749
498.0,248.150,0.00004378,0.00018908,4.31904119,0.000000000854847,0.000000000001518012,0.1679,0.00037817
499.0,248.150,0.00004382,0.00018942,4.32303751,0.000000000857893,0.000000000001523422,0.1682,0.00037885
500.0,248.150,0.00004386,0.00018977,4.32703261,0.000000000860945,0.000000000001528842,0.1684,0.00037953
501.0,248.150,0.00004389,0.00019011,4.33102649,0.000000000864003,0.000000000001534271,0.1687,0.00038021
502.0,248.150,0.00004393,0.00019045,4.33501917,0.000000000867066,0.000000000001539710,0.1689,0.00038090
503.0,248.150,0.00004397,0.00019079,4.33901064,0.000000000870134,0.000000000001545159,0.1692,0.00038158
504.0,248.150,0.00004401,0.00019113,4.34300092,0.000000000873208,0.000000000001550617,0.1694,0.00038226
505.0,248.150,0.00004405,0.00019147,4.34699001,0.000000000876287,0.000000000001556085,0.1697,0.00038295
506.0,248.150,0.00004409,0.00019181,4.35097792,0.000000000879372,0.000000000001561563,0.1699,0.00038363
507.0,248.150,0.00004412,0.00019216,4.35496465,0.000000000882462,0.000000000001567051,0.1702,0.00038431
508.0,248.150,0.00004416,0.00019250,4.35895022,0.000000000885558,0.000000000001572548,0.1704,0.00038500
509.0,248.150,0.00004420,0.00019284,4.36293463,0.000000000888659,0.000000000001578055,0.1707,0.00038568
510.0,248.150,0.00004424,0.00019318,4.36691789,0.000000000891766,0.000000000001583572,0.1709,0.00038636
511.0,248.150,0.00004428,0.00019352,4.37090001,0.000000000894878,0.000000000001589099,0.1712,0.00038705
512.0,248.150,0.00004431,0.00019387,4.37488098,0.000000000897995,0.000000000001594635,0.1714,0.00038773
513.0,248.150,0.00004435,0.00019421,4.37886083,0.000000000901119,0.000000000001600181,0.1717,0.00038842
514.0,248.150,0.00004439,0.00019455,4.38283955,0.000000000904247,0.000000000001605737,0.1719,0.00038910
515.0,248.150,0.00004443,0.00019489,4.38681715,0.000000000907381,0.000000000001611303,0.1722,0.00038979
516.0,248.150,0.00004446,0.00019524,4.39079364,0.000000000910521,0.000000000001616878,0.1724,0.00039047
517.0,248.150,0.00004450,0.00019558,4.39476903,0.000000000913666,0.000000000001622463,0.1726,0.00039116
518.0,248.150,0.00004454,0.00019592,4.39874332,0.000000000916817,0.000000000001628058,0.1729,0.00039184
519.0,248.150,0.00004458,0.00019626,4.40271652,0.000000000919973,0.000000000001633663,0.1731,0.00039253
520.0,248.150,0.00004462,0.00019661,4.40668864,0.000000000923135,0.000000000001639277,0.1734,0.00039321
521.0,248.150,0.00004465,0.00019695,4.41065968,0.000000000926302,0.000000000001644902,0.1736,0.00039390
522.0,248.150,0.00004469,0.00019729,4.41462965,0.000000000929474,0.000000000001650536,0.1739,0.00039458
523.0,248.150,0.00004473,0.00019763,4.41859856,0.000000000932653,0.000000000001656179,0.1741,0.00039527
524.0,248.150,0.00004477,0.00019798,4.42256641,0.000000000935836,0.000000000001661833,0.1744,0.00039595
525.0,248.150,0.00004480,0.00019832,4.42653321,0.000000000939025,0.000000000001667496,0.1746,0.00039664
526.0,248.150,0.00004484,0.00019866,4.43049896,0.000000000942220,0.000000000001673169,0.1748,0.00039733
527.0,248.150,0.00004488,0.00019901,4.43446368,0.000000000945420,0.000000000001678852,0.1751,0.00039801
528.0,248.150,0.00004491,0.00019935,4.43842736,0.000000000948626,0.000000000001684545,0.1753,0.00039870
529.0,248.150,0.00004495,0.00019969,4.44239002,0.000000000951837,0.000000000001690247,0.1756,0.00039939
530.0,248.150,0.00004499,0.00020004,4.44635166,0.000000000955054,0.000000000001695960,0.1758,0.00040008
531.0,248.150,0.00004503,0.00020038,4.45031229,0.000000000958276,0.000000000001701682,0.1760,0.00040076
532.0,248.150,0.00004506,0.00020072,4.45427192,0.000000000961504,0.000000000001707414,0.1763,0.00040145
533.0,248.150,0.00004510,0.00020107,4.45823054,0.000000000964737,0.000000000001713155,0.1765,0.00040214
534.0,248.150,0.00004514,0.00020141,4.46218817,0.000000000967976,0.000000000001718907,0.1768,0.00040283
535.0,248.150,0.00004517,0.00020176,4.46614481,0.000000000971221,0.000000000001724668,0.1770,0.00040351
536.0,248.150,0.00004521,0.00020210,4.47010047,0.000000000974470,0.000000000001730439,0.1773,0.00040420
537.0,248.150,0.00004525,0.00020244,4.47405516,0.000000000977726,0.000000000001736220,0.1775,0.00040489
538.0,248.150,0.00004529,0.00020279,4.47800887,0.000000000980987,0.000000000001742011,0.1777,0.00040558
539.0,248.150,0.00004532,0.00020313,4.48196163,0.000000000984253,0.000000000001747812,0.1780,0.00040627
540.0,248.150,0.00004536,0.00020348,4.48591342,0.000000000987525,0.000000000001753622,0.1782,0.00040695
541.0,248.150,0.00004540,0.00020382,4.48986427,0.000000000990803,0.000000000001759442,0.1784,0.00040764
542.0,248.150,0.00004543,0.00020417,4.49381417,0.000000000994086,0.000000000001765272,0.1787,0.00040833
543.0,248.150,0.00004547,0.00020451,4.49776313,0.000000000997374,0.000000000001771112,0.1789,0.00040902
544.0,248.150,0.00004551,0.00020486,4.50171116,0.000000001000669,0.000000000001776962,0.1792,0.00040971
545.0,248.150,0.00004554,0.00020520,4.50565826,0.000000001003968,0.000000000001782822,0.1794,0.00041040
546.0,248.150,0.00004558,0.00020555,4.50960444,0.000000001007274,0.000000000001788691,0.1796,0.00041109
547.0,248.150,0.00004562,0.00020589,4.51354970,0.000000001010584,0.000000000001794570,0.1799,0.00041178
548.0,248.150,0.00004565,0.00020624,4.51749405,0.000000001013901,0.000000000001800459,0.1801,0.00041247
549.0,248.150,0.00004569,0.00020658,4.52143750,0.000000001017223,0.000000000001806358,0.1804,0.00041316
550.0,248.150,0.00004573,0.00020693,4.52538006,0.000000001020550,0.000000000001812267,0.1806,0.00041385
551.0,248.150,0.00004576,0.00020727,4.52932171,0.000000001023883,0.000000000001818186,0.1808,0.00041454
552.0,248.150,0.00004580,0.00020762,4.53326249,0.000000001027222,0.000000000001824115,0.1811,0.00041523
553.0,248.150,0.00004583,0.00020796,4.53720238,0.000000001030566,0.000000000001830053,0.1813,0.00041592
554.0,248.150,0.00004587,0.00020831,4.54114139,0.000000001033915,0.000000000001836001,0.1815,0.00041661
555.0,248.150,0.00004591,0.00020865,4.54507954,0.000000001037271,0.000000000001841960,0.1818,0.00041731
556.0,248.150,0.00004594,0.00020900,4.54901682,0.000000001040631,0.000000000001847928,0.1820,0.00041800
557.0,248.150,0.00004598,0.00020934,4.55295324,0.000000001043998,0.000000000001853906,0.1822,0.00041869
558.0,248.150,0.00004602,0.00020969,4.55688881,0.000000001047370,0.000000000001859893,0.1825,0.00041938
559.0,248.150,0.00004605,0.00021004,4.56082353,0.000000001050747,0.000000000001865891,0.1827,0.00042007
560.0,248.150,0.00004609,0.00021038,4.56475740,0.000000001054130,0.000000000001871899,0.1830,0.00042077
561.0,248.150,0.00004612,0.00021073,4.56869045,0.000000001057519,0.000000000001877916,0.1832,0.00042146
562.0,248.150,0.00004616,0.00021107,4.57262265,0.000000001060913,0.000000000001883943,0.1834,0.00042215
563.0,248.150,0.00004620,0.00021142,4.57655404,0.000000001064313,0.000000000001889981,0.1837,0.00042284
564.0,248.150,0.00004623,0.00021177,4.58048460,0.000000001067718,0.000000000001896028,0.1839,0.00042354
565.0,248.150,0.00004627,0.00021211,4.58441435,0.000000001071129,0.000000000001902085,0.1841,0.00042423
566.0,248.150,0.00004630,0.00021246,4.58834328,0.000000001074545,0.000000000001908152,0.1844,0.00042492
567.0,248.150,0.00004634,0.00021281,4.59227141,0.000000001077967,0.000000000001914229,0.1846,0.00042561
568.0,248.150,0.00004638,0.00021315,4.59619875,0.000000001081395,0.000000000001920316,0.1848,0.00042631
569.0,248.150,0.00004641,0.00021350,4.60012528,0.000000001084828,0.000000000001926412,0.1851,0.00042700
570.0,248.150,0.00004645,0.00021385,4.60405103,0.000000001088267,0.000000000001932519,0.1853,0.00042770
571.0,248.150,0.00004648,0.00021419,4.60797600,0.000000001091711,0.000000000001938635,0.1855,0.00042839
572.0,248.150,0.00004652,0.00021454,4.61190018,0.000000001095161,0.000000000001944762,0.1858,0.00042908
573.0,248.150,0.00004655,0.00021489,4.61582359,0.000000001098617,0.000000000001950898,0.1860,0.00042978
574.0,248.150,0.00004659,0.00021524,4.61974624,0.000000001102078,0.000000000001957044,0.1862,0.00043047
575.0,248.150,0.00004663,0.00021558,4.62366812,0.000000001105545,0.000000000001963201,0.1865,0.00043117
576.0,248.150,0.00004666,0.00021593,4.62758924,0.000000001109017,0.000000000001969367,0.1867,0.00043186
577.0,248.150,0.00004670,0.00021628,4.63150961,0.000000001112495,0.000000000001975543,0.1869,0.00043256
578.0,248.150,0.00004673,0.00021663,4.63542923,0.000000001115979,0.000000000001981729,0.1871,0.00043325
579.0,248.150,0.00004677,0.00021697,4.63934810,0.000000001119468,0.000000000001987925,0.1874,0.00043395
580.0,248.150,0.00004680,0.00021732,4.64326624,0.000000001122963,0.000000000001994131,0.1876,0.00043464
581.0,248.150,0.00004684,0.00021767,4.64718364,0.000000001126463,0.000000000002000347,0.1878,0.00043534
582.0,248.150,0.00004687,0.00021802,4.65110032,0.000000001129969,0.000000000002006573,0.1881,0.00043604
583.0,248.150,0.00004691,0.00021837,4.65501627,0.000000001133480,0.000000000002012808,0.1883,0.00043673
584.0,248.150,0.00004695,0.00021871,4.65893151,0.000000001136997,0.000000000002019054,0.1885,0.00043743
585.0,248.150,0.00004698,0.00021906,4.66284603,0.000000001140520,0.000000000002025310,0.1888,0.00043813
586.0,248.150,0.00004702,0.00021941,4.66675984,0.000000001144049,0.000000000002031575,0.1890,0.00043882
587.0,248.150,0.00004705,0.00021976,4.67067294,0.000000001147583,0.000000000002037851,0.1892,0.00043952
588.0,248.150,0.00004709,0.00022011,4.67458535,0.000000001151122,0.000000000002044137,0.1894,0.00044022
589.0,248.150,0.00004712,0.00022046,4.67849706,0.000000001154667,0.000000000002050432,0.1897,0.00044091
590.0,248.150,0.00004716,0.00022081,4.68240809,0.000000001158218,0.000000000002056738,0.1899,0.00044161
591.0,248.150,0.00004719,0.00022115,4.68631842,0.000000001161775,0.000000000002063053,0.1901,0.00044231
592.0,248.150,0.00004723,0.00022150,4.69022808,0.000000001165337,0.000000000002069379,0.1904,0.00044301
593.0,248.150,0.00004726,0.00022185,4.69413706,0.000000001168904,0.000000000002075714,0.1906,0.00044370
594.0,248.150,0.00004730,0.00022220,4.69804537,0.000000001172478,0.000000000002082060,0.1908,0.00044440
595.0,248.150,0.00004733,0.00022255,4.70195301,0.000000001176057,0.000000000002088415,0.1910,0.00044510
596.0,248.150,0.00004737,0.00022290,4.70586000,0.000000001179641,0.000000000002094781,0.1913,0.00044580
597.0,248.150,0.00004740,0.00022325,4.70976632,0.000000001183232,0.000000000002101156,0.1915,0.00044650
598.0,248.150,0.00004744,0.00022360,4.71367199,0.000000001186827,0.000000000002107542,0.1917,0.00044720
599.0,248.150,0.00004747,0.00022395,4.71757702,0.000000001190429,0.000000000002113937,0.1919,0.00044790
600.0,248.150,0.00004751,0.00022430,4.72148140,0.000000001194036,0.000000000002120343,0.1922,0.00044860
