600.0,273.150,0.00000200,0.00000200,1.00000000,0.000000000000031,0.000000000000000034,0.0005
600.0,272.900,0.00001290,0.00001290,1.00000000,0.000000000008266,0.000000000000008995,0.0192
600.0,272.650,0.00001806,0.00001806,1.00000000,0.000000000022668,0.000000000000024666,0.0373
600.0,272.400,0.00002198,0.00002198,1.00000000,0.000000000040900,0.000000000000044504,0.0546
600.0,272.150,0.00002526,0.00002526,1.00000000,0.000000000062067,0.000000000000067537,0.0712
600.0,271.900,0.00002812,0.00002812,1.00000000,0.000000000085635,0.000000000000093183,0.0871
600.0,271.650,0.00003069,0.00003069,1.00000000,0.000000000111229,0.000000000000121033,0.1024
600.0,271.400,0.00003302,0.00003302,1.00000000,0.000000000138563,0.000000000000150775,0.1171
600.0,271.150,0.00003517,0.00003517,1.00000000,0.000000000167403,0.000000000000182158,0.1312
600.0,270.900,0.00003716,0.00003716,1.00000000,0.000000000197554,0.000000000000214966,0.1448
600.0,270.650,0.00003903,0.00003903,1.00000000,0.000000000228843,0.000000000000249013,0.1579
600.0,270.400,0.00004078,0.00004078,1.00000000,0.000000000261116,0.000000000000284130,0.1706
600.0,270.150,0.00004244,0.00004244,1.00000000,0.000000000294232,0.000000000000320165,0.1827
600.0,269.900,0.00004401,0.00004401,1.00000000,0.000000000328062,0.000000000000356977,0.1945
600.0,269.650,0.00004549,0.00004549,1.00000000,0.000000000362479,0.000000000000394428,0.2058
600.0,269.400,0.00004691,0.00004691,1.00000000,0.000000000397358,0.000000000000432381,0.2168
600.0,269.150,0.00004826,0.00004826,1.00000000,0.000000000432572,0.000000000000470699,0.2273
600.0,268.900,0.00004954,0.00004954,1.00000000,0.000000000468002,0.000000000000509251,0.2374
600.0,268.650,0.00005076,0.00005076,1.00000000,0.000000000503535,0.000000000000547916,0.2472
600.0,268.400,0.00005193,0.00005193,1.00000000,0.000000000539065,0.000000000000586578,0.2566
600.0,268.150,0.00005304,0.00005304,1.00000000,0.000000000574490,0.000000000000625125,0.2657
600.0,267.900,0.00005411,0.00005411,1.00000000,0.000000000609716,0.000000000000663455,0.2744
600.0,267.650,0.00005512,0.00005512,1.00000000,0.000000000644651,0.000000000000701470,0.2828
600.0,267.400,0.00005609,0.00005609,1.00000000,0.000000000679211,0.000000000000739076,0.2908
600.0,267.150,0.00005701,0.00005701,1.00000000,0.000000000713315,0.000000000000776186,0.2985
600.0,266.900,0.00005789,0.00005789,1.00000000,0.000000000746889,0.000000000000812719,0.3059
600.0,266.650,0.00005873,0.00005873,1.00000000,0.000000000779862,0.000000000000848599,0.3130
600.0,266.400,0.00005953,0.00005953,1.00000000,0.000000000812169,0.000000000000883753,0.3198
600.0,266.150,0.00006029,0.00006029,1.00000000,0.000000000843748,0.000000000000918115,0.3264
600.0,265.900,0.00006102,0.00006102,1.00000000,0.000000000874542,0.000000000000951624,0.3326
600.0,265.650,0.00006171,0.00006171,1.00000000,0.000000000904500,0.000000000000984222,0.3385
600.0,265.400,0.00006236,0.00006236,1.00000000,0.000000000933573,0.000000000001015858,0.3442
600.0,265.150,0.00006298,0.00006298,1.00000000,0.000000000961717,0.000000000001046482,0.3496
600.0,264.900,0.00006357,0.00006357,1.00000000,0.000000000988893,0.000000000001076053,0.3547
600.0,264.650,0.00006413,0.00006413,1.00000000,0.000000001015064,0.000000000001104531,0.3596
600.0,264.400,0.00006465,0.00006465,1.00000000,0.000000001040199,0.000000000001131881,0.3642
600.0,264.150,0.00006515,0.00006515,1.00000000,0.000000001064268,0.000000000001158072,0.3686
600.0,263.900,0.00006561,0.00006561,1.00000000,0.000000001087248,0.000000000001183078,0.3728
600.0,263.650,0.00006605,0.00006605,1.00000000,0.000000001109118,0.000000000001206874,0.3767
600.0,263.400,0.00006646,0.00006646,1.00000000,0.000000001129858,0.000000000001229443,0.3804
600.0,263.150,0.00006684,0.00006684,1.00000000,0.000000001149456,0.000000000001250768,0.3838
600.0,262.900,0.00006719,0.00006719,1.00000000,0.000000001167900,0.000000000001270837,0.3871
600.0,262.650,0.00006752,0.00006752,1.00000000,0.000000001185181,0.000000000001289642,0.3901
600.0,262.400,0.00006783,0.00006783,1.00000000,0.000000001201294,0.000000000001307175,0.3929
600.0,262.150,0.00006811,0.00006811,1.00000000,0.000000001216237,0.000000000001323435,0.3955
600.0,261.900,0.00006837,0.00006837,1.00000000,0.000000001230010,0.000000000001338422,0.3979
600.0,261.650,0.00006860,0.00006860,1.00000000,0.000000001242615,0.000000000001352139,0.4001
600.0,261.400,0.00006881,0.00006881,1.00000000,0.000000001254059,0.000000000001364591,0.4021
600.0,261.150,0.00006900,0.00006900,1.00000000,0.000000001264348,0.000000000001375787,0.4039
600.0,260.900,0.00006916,0.00006916,1.00000000,0.000000001273493,0.000000000001385738,0.4055
600.0,260.650,0.00006931,0.00006931,1.00000000,0.000000001281505,0.000000000001394456,0.4070
600.0,260.400,0.00006943,0.00006943,1.00000000,0.000000001288399,0.000000000001401957,0.4083
600.0,260.150,0.00006953,0.00006953,1.00000000,0.000000001294189,0.000000000001408258,0.4094
600.0,259.900,0.00006962,0.00006962,1.00000000,0.000000001298893,0.000000000001413377,0.4103
600.0,259.650,0.00006968,0.00006968,1.00000000,0.000000001302531,0.000000000001417335,0.4111
600.0,259.400,0.00006973,0.00006973,1.00000000,0.000000001305123,0.000000000001420156,0.4117
600.0,259.150,0.00006976,0.00006976,1.00000000,0.000000001306691,0.000000000001421861,0.4122
600.0,258.900,0.00006977,0.00006977,1.00000000,0.000000001307257,0.000000000001422478,0.4124
600.0,258.650,0.00006976,0.00006976,1.00000000,0.000000001306847,0.000000000001422032,0.4126
600.0,258.400,0.00006974,0.00006974,1.00000000,0.000000001305486,0.000000000001420550,0.4126
600.0,258.150,0.00006970,0.00006970,1.00000000,0.000000001303199,0.000000000001418062,0.4125
600.0,257.900,0.00006964,0.00006964,1.00000000,0.000000001300015,0.000000000001414598,0.4122
600.0,257.650,0.00006957,0.00006957,1.00000000,0.000000001295961,0.000000000001410186,0.4118
600.0,257.400,0.00006948,0.00006948,1.00000000,0.000000001291065,0.000000000001404859,0.4112
600.0,257.150,0.00006938,0.00006938,1.00000000,0.000000001285358,0.000000000001398648,0.4105
600.0,256.900,0.00006926,0.00006926,1.00000000,0.000000001278867,0.000000000001391585,0.4097
600.0,256.650,0.00006913,0.00006913,1.00000000,0.000000001271623,0.000000000001383703,0.4088
600.0,256.400,0.00006898,0.00006898,1.00000000,0.000000001263657,0.000000000001375035,0.4078
600.0,256.150,0.00006883,0.00006883,1.00000000,0.000000001254998,0.000000000001365613,0.4066
600.0,255.900,0.00006865,0.00006865,1.00000000,0.000000001245677,0.000000000001355470,0.4054
600.0,255.650,0.00006847,0.00006847,1.00000000,0.000000001235725,0.000000000001344641,0.4040
600.0,255.400,0.00006828,0.00006828,1.00000000,0.000000001225173,0.000000000001333159,0.4025
600.0,255.150,0.00006807,0.00006807,1.00000000,0.000000001214050,0.000000000001321055,0.4009
600.0,254.900,0.00006785,0.00006785,1.00000000,0.000000001202386,0.000000000001308364,0.3992
600.0,254.650,0.00006762,0.00006762,1.00000000,0.000000001190213,0.000000000001295118,0.3975
600.0,254.400,0.00006738,0.00006738,1.00000000,0.000000001177560,0.000000000001281349,0.3956
600.0,254.150,0.00006713,0.00006713,1.00000000,0.000000001164456,0.000000000001267090,0.3936
600.0,253.900,0.00006687,0.00006687,1.00000000,0.000000001150930,0.000000000001252372,0.3916
600.0,253.650,0.00006660,0.00006660,1.00000000,0.000000001137012,0.000000000001237227,0.3894
600.0,253.400,0.00006632,0.00006632,1.00000000,0.000000001122728,0.000000000001221685,0.3872
600.0,253.150,0.00006603,0.00006603,1.00000000,0.000000001108108,0.000000000001205776,0.3849
600.0,252.900,0.00006573,0.00006573,1.00000000,0.000000001093178,0.000000000001189530,0.3826
600.0,252.650,0.00006542,0.00006542,1.00000000,0.000000001077966,0.000000000001172977,0.3801
600.0,252.400,0.00006511,0.00006511,1.00000000,0.000000001062496,0.000000000001156143,0.3776
600.0,252.150,0.00006479,0.00006479,1.00000000,0.000000001046794,0.000000000001139058,0.3750
600.0,251.900,0.00006446,0.00006446,1.00000000,0.000000001030886,0.000000000001121748,0.3724
600.0,251.650,0.00006412,0.00006412,1.00000000,0.000000001014795,0.000000000001104239,0.3697
600.0,251.400,0.00006378,0.00006378,1.00000000,0.000000000998545,0.000000000001086556,0.3669
600.0,251.150,0.00006342,0.00006342,1.00000000,0.000000000982159,0.000000000001068725,0.3641
600.0,250.900,0.00006307,0.00006307,1.00000000,0.000000000965657,0.000000000001050770,0.3613
600.0,250.650,0.00006270,0.00006270,1.00000000,0.000000000949063,0.000000000001032713,0.3583
600.0,250.400,0.00006234,0.00006234,1.00000000,0.000000000932396,0.000000000001014577,0.3554
600.0,250.150,0.00006196,0.00006196,1.00000000,0.000000000915676,0.000000000000996383,0.3523
600.0,249.900,0.00006158,0.00006158,1.00000000,0.000000000898923,0.000000000000978153,0.3493
600.0,249.650,0.00006119,0.00006119,1.00000000,0.000000000882154,0.000000000000959906,0.3462
600.0,249.400,0.00006080,0.00006080,1.00000000,0.000000000865387,0.000000000000941661,0.3430
600.0,249.150,0.00006041,0.00006041,1.00000000,0.000000000848639,0.000000000000923437,0.3399
600.0,248.900,0.00006001,0.00006001,1.00000000,0.000000000831926,0.000000000000905251,0.3366
600.0,248.650,0.00005961,0.00005961,1.00000000,0.000000000815264,0.000000000000887121,0.3334
600.0,248.400,0.00005920,0.00005920,1.00000000,0.000000000798667,0.000000000000869061,0.3301
600.0,248.150,0.00005879,0.00005879,1.00000000,0.000000000782149,0.000000000000851087,0.3268
600.0,247.900,0.00005837,0.00005837,1.00000000,0.000000000765723,0.000000000000833213,0.3235
600.0,247.650,0.00005796,0.00005796,1.00000000,0.000000000749402,0.000000000000815453,0.3201
600.0,247.400,0.00005754,0.00005754,1.00000000,0.000000000733197,0.000000000000797821,0.3167
600.0,247.150,0.00005711,0.00005711,1.00000000,0.000000000717120,0.000000000000780327,0.3133
600.0,246.900,0.00005669,0.00005669,1.00000000,0.000000000701182,0.000000000000762983,0.3099
600.0,246.650,0.00005626,0.00005626,1.00000000,0.000000000685391,0.000000000000745801,0.3065
600.0,246.400,0.00005583,0.00005583,1.00000000,0.000000000669758,0.000000000000728790,0.3030
600.0,246.150,0.00005539,0.00005539,1.00000000,0.000000000654290,0.000000000000711959,0.2995
600.0,245.900,0.00005496,0.00005496,1.00000000,0.000000000638996,0.000000000000695317,0.2960
600.0,245.650,0.00005452,0.00005452,1.00000000,0.000000000623883,0.000000000000678872,0.2926
600.0,245.400,0.00005408,0.00005408,1.00000000,0.000000000608958,0.000000000000662631,0.2891
600.0,245.150,0.00005364,0.00005364,1.00000000,0.000000000594227,0.000000000000646602,0.2856
600.0,244.900,0.00005320,0.00005320,1.00000000,0.000000000579696,0.000000000000630791,0.2820
600.0,244.650,0.00005276,0.00005276,1.00000000,0.000000000565371,0.000000000000615202,0.2785
600.0,244.400,0.00005232,0.00005232,1.00000000,0.000000000551254,0.000000000000599841,0.2750
600.0,244.150,0.00005187,0.00005187,1.00000000,0.000000000537352,0.000000000000584714,0.2715
600.0,243.900,0.00005143,0.00005143,1.00000000,0.000000000523667,0.000000000000569823,0.2680
600.0,243.650,0.00005099,0.00005099,1.00000000,0.000000000510203,0.000000000000555172,0.2645
600.0,243.400,0.00005054,0.00005054,1.00000000,0.000000000496963,0.000000000000540765,0.2610
600.0,243.150,0.00005010,0.00005010,1.00000000,0.000000000483949,0.000000000000526604,0.2575
