600.0,273.150,0.00000200,0.00000200,1.00000000,0.000000000000031,0.000000000000000034,0.0005,0.00000400
600.0,272.900,0.00001301,0.00001268,0.97432176,0.000000000008268,0.000000000000008996,0.0192,0.00002603
600.0,272.650,0.00001845,0.00001731,0.93801776,0.000000000022677,0.000000000000024676,0.0369,0.00003690
600.0,272.400,0.00002278,0.00002050,0.89989807,0.000000000040931,0.000000000000044538,0.0536,0.00004555
600.0,272.150,0.00002654,0.00002292,0.86358213,0.000000000062141,0.000000000000067618,0.0694,0.00005308
600.0,271.900,0.00002996,0.00002483,0.82861183,0.000000000085781,0.000000000000093341,0.0843,0.00005992
600.0,271.650,0.00003325,0.00002621,0.78826568,0.000000000111502,0.000000000000121330,0.0982,0.00006649
600.0,271.400,0.00003648,0.00002715,0.74432192,0.000000000139062,0.000000000000151319,0.1110,0.00007295
600.0,271.150,0.00003971,0.00002773,0.69820537,0.000000000168292,0.000000000000183125,0.1228,0.00007942
600.0,270.900,0.00004291,0.00002807,0.65422015,0.000000000199011,0.000000000000216552,0.1337,0.00008582
600.0,270.650,0.00004608,0.00002826,0.61329380,0.000000000231055,0.000000000000251420,0.1437,0.00009217
600.0,270.400,0.00004983,0.00002773,0.55642995,0.000000000264977,0.000000000000288332,0.1518,0.00009965
600.0,270.150,0.00005488,0.00002606,0.47477822,0.000000000302151,0.000000000000328782,0.1568,0.00010977
600.0,269.900,0.00006708,0.00002053,0.30596570,0.000000000355588,0.000000000000386930,0.1509,0.00013417
600.0,269.650,0.00007719,0.00001796,0.23266909,0.000000000411877,0.000000000000448180,0.1510,0.00015437
600.0,269.400,0.00007599,0.00001982,0.26076208,0.000000000440472,0.000000000000479295,0.1617,0.00015198
600.0,269.150,0.00006795,0.00002545,0.37453684,0.000000000452250,0.000000000000492111,0.1827,0.00013589
600.0,268.900,0.00005767,0.00003654,0.63368543,0.000000000467881,0.000000000000509120,0.2154,0.00011534
600.0,268.650,0.00005005,0.00006022,1.20308012,0.000000000538247,0.000000000000631923,0.2516,0.00012043
600.0,268.400,0.00004763,0.00009976,2.09451016,0.000000000658269,0.000000000000948040,0.2398,0.00019953
600.0,268.150,0.00004483,0.00018242,4.06918251,0.000000000862535,0.000000000001535741,0.1644,0.00036485
600.0,267.900,0.00004281,0.00032284,7.54209195,0.000000001190620,0.000000000002477907,0.1514,0.00064569
600.0,267.650,0.00004233,0.00048270,11.40327437,0.000000001563591,0.000000000003623024,0.1443,0.00096541
600.0,267.400,0.00004248,0.00059546,14.01765270,0.000000001848895,0.000000000004500843,0.1426,0.00119092
600.0,267.150,0.00004278,0.00069165,16.16882969,0.000000002108479,0.000000000005301490,0.1422,0.00138331
600.0,266.900,0.00004337,0.00069343,15.98869629,0.000000002184103,0.000000000005463567,0.1455,0.00138687
600.0,266.650,0.00004397,0.00068473,15.57230556,0.000000002235927,0.000000000005545424,0.1489,0.00136945
600.0,266.400,0.00004485,0.00059835,13.34074725,0.000000002115368,0.000000000005041943,0.1557,0.00119670
600.0,266.150,0.00004580,0.00051582,11.26278035,0.000000001987374,0.000000000004532124,0.1632,0.00103165
600.0,265.900,0.00004692,0.00042843,9.13175497,0.000000001831454,0.000000000003950235,0.1722,0.00085686
600.0,265.650,0.00004822,0.00034743,7.20510194,0.000000001673818,0.000000000003383840,0.1828,0.00069486
600.0,265.400,0.00004967,0.00028150,5.66701194,0.000000001540354,0.000000000002909561,0.1942,0.00056301
600.0,265.150,0.00005130,0.00022816,4.44738810,0.000000001431854,0.000000000002515468,0.2065,0.00045633
600.0,264.900,0.00005337,0.00018345,3.43749789,0.000000001349699,0.000000000002188666,0.2478,0.00036691
600.0,264.650,0.00005647,0.00014368,2.54423872,0.000000001280876,0.000000000001919441,0.3039,0.00028736
600.0,264.400,0.00005886,0.00011766,1.99882431,0.000000001234492,0.000000000001707617,0.3383,0.00023531
600.0,264.150,0.00006138,0.00009718,1.58334451,0.000000001199527,0.000000000001533547,0.3618,0.00019436
600.0,263.900,0.00006389,0.00008171,1.27891611,0.000000001176735,0.000000000001397337,0.3761,0.00016343
600.0,263.650,0.00006651,0.00006915,1.03968940,0.000000001161271,0.000000000001281442,0.3841,0.00013830
600.0,263.400,0.00007031,0.00005896,0.83864016,0.000000001122017,0.000000000001220911,0.3647,0.00014062
600.0,263.150,0.00007616,0.00005081,0.66716119,0.000000001134671,0.000000000001234680,0.3473,0.00015233
600.0,262.900,0.00008190,0.00004475,0.54637192,0.000000001155554,0.000000000001257404,0.3317,0.00016381
600.0,262.650,0.00008807,0.00003963,0.44994756,0.000000001183102,0.000000000001287380,0.3162,0.00017614
600.0,262.400,0.00009354,0.00003602,0.38503259,0.000000001213273,0.000000000001320210,0.3045,0.00018709
600.0,262.150,0.00010699,0.00003261,0.30477320,0.000000001263593,0.000000000001563303,0.2822,0.00021397
600.0,261.900,0.00012056,0.00003038,0.25201632,0.000000001327788,0.000000000001849697,0.2687,0.00024112
600.0,261.650,0.00013773,0.00002821,0.20482658,0.000000001419312,0.000000000002241481,0.2561,0.00027545
600.0,261.400,0.00015633,0.00002636,0.16862093,0.000000001527771,0.000000000002698635,0.2457,0.00031266
600.0,261.150,0.00017804,0.00002465,0.13845331,0.000000001661128,0.000000000003272728,0.2349,0.00035607
600.0,260.900,0.00020135,0.00002319,0.11516372,0.000000001810580,0.000000000003938090,0.2259,0.00040271
600.0,260.650,0.00022543,0.00002196,0.09740493,0.000000001969454,0.000000000004673999,0.2185,0.00045085
600.0,260.400,0.00024870,0.00002097,0.08429936,0.000000002126755,0.000000000005432012,0.2126,0.00049741
600.0,260.150,0.00027433,0.00002003,0.07300449,0.000000002301497,0.000000000006313407,0.2070,0.00054866
600.0,259.900,0.00030447,0.00001910,0.06274469,0.000000002510444,0.000000000007418429,0.2016,0.00060895
600.0,259.650,0.00033452,0.00001829,0.05468551,0.000000002717426,0.000000000008574875,0.1967,0.00066904
600.0,259.400,0.00035958,0.00001772,0.04929063,0.000000002894705,0.000000000009599111,0.1933,0.00071916
600.0,259.150,0.00038251,0.00001725,0.04508478,0.000000003056054,0.000000000010569514,0.1904,0.00076502
600.0,258.900,0.00040222,0.00001686,0.04190922,0.000000003192210,0.000000000011423529,0.1880,0.00080445
600.0,258.650,0.00041862,0.00001657,0.03957971,0.000000003308279,0.000000000012162157,0.1862,0.00083723
600.0,258.400,0.00042731,0.00001642,0.03841749,0.000000003367902,0.000000000012556053,0.1853,0.00085462
600.0,258.150,0.00042844,0.00001638,0.03823117,0.000000003370538,0.000000000012594173,0.1850,0.00085688
600.0,257.900,0.00042604,0.00001641,0.03851258,0.000000003349597,0.000000000012475294,0.1852,0.00085209
600.0,257.650,0.00041654,0.00001654,0.03971712,0.000000003275094,0.000000000012024087,0.1860,0.00083309
600.0,257.400,0.00040567,0.00001671,0.04119592,0.000000003191486,0.000000000011520389,0.1870,0.00081134
600.0,257.150,0.00038906,0.00001698,0.04365309,0.000000003065408,0.000000000010768794,0.1886,0.00077813
600.0,256.900,0.00037366,0.00001726,0.04620355,0.000000002951050,0.000000000010097017,0.1903,0.00074732
600.0,256.650,0.00035835,0.00001755,0.04896722,0.000000002834846,0.000000000009438554,0.1919,0.00071669
600.0,256.400,0.00033279,0.00001809,0.05435668,0.000000002648831,0.000000000008392100,0.1951,0.00066559
600.0,256.150,0.00030547,0.00001877,0.06145652,0.000000002455850,0.000000000007337907,0.1992,0.00061094
600.0,255.900,0.00028018,0.00001950,0.06959863,0.000000002278655,0.000000000006411862,0.2035,0.00056035
600.0,255.650,0.00025336,0.00002039,0.08046785,0.000000002092962,0.000000000005481700,0.2087,0.00050672
600.0,255.400,0.00022829,0.00002138,0.09363655,0.000000001922942,0.000000000004666405,0.2146,0.00045658
600.0,255.150,0.00020632,0.00002239,0.10853846,0.000000001775792,0.000000000003992697,0.2207,0.00041263
600.0,254.900,0.00018232,0.00002377,0.13036647,0.000000001622049,0.000000000003309555,0.2291,0.00036464
600.0,254.650,0.00015983,0.00002543,0.15908717,0.000000001484429,0.000000000002720944,0.2395,0.00031967
600.0,254.400,0.00013731,0.00002759,0.20089736,0.000000001355538,0.000000000002178591,0.2521,0.00027462
600.0,254.150,0.00012196,0.00002945,0.24145067,0.000000001272204,0.000000000001834679,0.2627,0.00024392
600.0,253.900,0.00010925,0.00003140,0.28738844,0.000000001209342,0.000000000001569900,0.2740,0.00021851
600.0,253.650,0.00009653,0.00003403,0.35249441,0.000000001157808,0.000000000001328020,0.2922,0.00019306
600.0,253.400,0.00008751,0.00003808,0.43516139,0.000000001122597,0.000000000001221542,0.3108,0.00017502
600.0,253.150,0.00008028,0.00004416,0.55008239,0.000000001095598,0.000000000001192163,0.3303,0.00016056
600.0,252.900,0.00007447,0.00005054,0.67860993,0.000000001078821,0.000000000001173907,0.3476,0.00014894
600.0,252.650,0.00006871,0.00005895,0.85795747,0.000000001071548,0.000000000001165993,0.3665,0.00013743
600.0,252.400,0.00006493,0.00007169,1.10405075,0.000000001123225,0.000000000001266201,0.3845,0.00014338
600.0,252.150,0.00006177,0.00009033,1.46233048,0.000000001161320,0.000000000001443789,0.3724,0.00018066
600.0,251.900,0.00005880,0.00011530,1.96093880,0.000000001216559,0.000000000001669638,0.3471,0.00023060
600.0,251.650,0.00005619,0.00014643,2.60593684,0.000000001285237,0.000000000001936545,0.3076,0.00029285
600.0,251.400,0.00005288,0.00019557,3.69839707,0.000000001385788,0.000000000002290824,0.2390,0.00039115
600.0,251.150,0.00005104,0.00024446,4.78914781,0.000000001491570,0.000000000002668094,0.2103,0.00048892
600.0,250.900,0.00004976,0.00029550,5.93905268,0.000000001608759,0.000000000003064254,0.2000,0.00059100
600.0,250.650,0.00004880,0.00034169,7.00233308,0.000000001708922,0.000000000003408020,0.1923,0.00068338
600.0,250.400,0.00004816,0.00037204,7.72541035,0.000000001763894,0.000000000003614340,0.1873,0.00074409
600.0,250.150,0.00004780,0.00037942,7.93748817,0.000000001758267,0.000000000003631598,0.1850,0.00075885
600.0,249.900,0.00004752,0.00037887,7.97210390,0.000000001732183,0.000000000003584468,0.1835,0.00075775
600.0,249.650,0.00004743,0.00036100,7.61124294,0.000000001663126,0.000000000003401718,0.1837,0.00072200
600.0,249.400,0.00004736,0.00034135,7.20681045,0.000000001590373,0.000000000003207668,0.1842,0.00068269
600.0,249.150,0.00004739,0.00031613,6.67116348,0.000000001504714,0.000000000002973638,0.1854,0.00063226
600.0,248.900,0.00004746,0.00028996,6.10899380,0.000000001417733,0.000000000002736226,0.1871,0.00057991
600.0,248.650,0.00004760,0.00026360,5.53835421,0.000000001331459,0.000000000002501420,0.1891,0.00052721
600.0,248.400,0.00004775,0.00023950,5.01531939,0.000000001252104,0.000000000002287814,0.1911,0.00047900
600.0,248.150,0.00004790,0.00021815,4.55465953,0.000000001180471,0.000000000002096254,0.1931,0.00043630
600.0,247.900,0.00004889,0.00019107,3.90773246,0.000000001105138,0.000000000001913360,0.2013,0.00038213
600.0,247.650,0.00004902,0.00017687,3.60802389,0.000000001054636,0.000000000001780317,0.2158,0.00035374
600.0,247.400,0.00004913,0.00016430,3.34427890,0.000000001008039,0.000000000001661183,0.2276,0.00032861
600.0,247.150,0.00004923,0.00015298,3.10766717,0.000000000964606,0.000000000001552903,0.2374,0.00030596
600.0,246.900,0.00004932,0.00014272,2.89402457,0.000000000923974,0.000000000001454038,0.2464,0.00028545
600.0,246.650,0.00004921,0.00013677,2.77905033,0.000000000893085,0.000000000001387556,0.2499,0.00027354
600.0,246.400,0.00004909,0.00013136,2.67578442,0.000000000863783,0.000000000001326136,0.2525,0.00026272
600.0,246.150,0.00004917,0.00012262,2.49381823,0.000000000827626,0.000000000001241878,0.2588,0.00024525
600.0,245.900,0.00004919,0.00011545,2.34721429,0.000000000795303,0.000000000001170065,0.2629,0.00023091
600.0,245.650,0.00004903,0.00011120,2.26793082,0.000000000769674,0.000000000001119921,0.2635,0.00022241
600.0,245.400,0.00004928,0.00010565,2.14382607,0.000000000744412,0.000000000001074704,0.2657,0.00021130
600.0,245.150,0.00004899,0.00010337,2.10998699,0.000000000723604,0.000000000001039304,0.2640,0.00020674
600.0,244.900,0.00004873,0.00010068,2.06587460,0.000000000702228,0.000000000001001567,0.2628,0.00020136
600.0,244.650,0.00004848,0.00009794,2.02024845,0.000000000681096,0.000000000000964200,0.2614,0.00019588
600.0,244.400,0.00004821,0.00009543,1.97933840,0.000000000660766,0.000000000000929043,0.2598,0.00019085
600.0,244.150,0.00004792,0.00009316,1.94387502,0.000000000641284,0.000000000000896238,0.2580,0.00018632
600.0,243.900,0.00004760,0.00009137,1.91936888,0.000000000623095,0.000000000000867249,0.2557,0.00018273
600.0,243.650,0.00004727,0.00008975,1.89874360,0.000000000605573,0.000000000000839981,0.2532,0.00017950
600.0,243.400,0.00004692,0.00008828,1.88132729,0.000000000588631,0.000000000000814130,0.2506,0.00017655
600.0,243.150,0.00004654,0.00008731,1.87621198,0.000000000572986,0.000000000000792070,0.2475,0.00017463
