600.0,273.150,0.00000400,0.00000400,1.00000000,0.000000000000246,0.000000000000000268,0.0019,0.00000800
600.0,272.900,0.00001351,0.00001307,0.96728028,0.000000000009189,0.000000000000009999,0.0205,0.00002703
600.0,272.650,0.00001887,0.00001749,0.92660482,0.000000000023981,0.000000000000026094,0.0382,0.00003775
600.0,272.400,0.00002321,0.00002053,0.88471380,0.000000000042560,0.000000000000046311,0.0548,0.00004641
600.0,272.150,0.00002701,0.00002282,0.84455019,0.000000000064096,0.000000000000069745,0.0705,0.00005403
600.0,271.900,0.00003049,0.00002461,0.80703785,0.000000000088090,0.000000000000095855,0.0853,0.00006099
600.0,271.650,0.00003390,0.00002582,0.76169080,0.000000000114264,0.000000000000124335,0.0990,0.00006781
600.0,271.400,0.00003727,0.00002664,0.71482332,0.000000000142403,0.000000000000154954,0.1117,0.00007453
600.0,271.150,0.00004061,0.00002715,0.66868660,0.000000000172360,0.000000000000187552,0.1234,0.00008121
600.0,270.900,0.00004401,0.00002737,0.62202145,0.000000000204080,0.000000000000222067,0.1341,0.00008802
600.0,270.650,0.00004729,0.00002756,0.58276344,0.000000000237296,0.000000000000258211,0.1441,0.00009459
600.0,270.400,0.00005116,0.00002708,0.52929359,0.000000000272822,0.000000000000296868,0.1523,0.00010232
600.0,270.150,0.00005414,0.00002734,0.50497746,0.000000000308560,0.000000000000335756,0.1613,0.00010829
600.0,269.900,0.00005465,0.00002968,0.54308534,0.000000000341184,0.000000000000371255,0.1740,0.00010930
600.0,269.650,0.00005424,0.00003294,0.60738779,0.000000000373090,0.000000000000405974,0.1881,0.00010848
600.0,269.400,0.00005360,0.00003667,0.68422479,0.000000000405550,0.000000000000441295,0.2028,0.00010720
600.0,269.150,0.00005259,0.00004122,0.78379068,0.000000000438750,0.000000000000477421,0.2183,0.00010517
600.0,268.900,0.00005142,0.00004651,0.90455046,0.000000000473414,0.000000000000515140,0.2343,0.00010284
600.0,268.650,0.00005045,0.00005418,1.07390597,0.000000000516749,0.000000000000577695,0.1941,0.00010836
600.0,268.400,0.00004861,0.00008279,1.70309824,0.000000000624774,0.000000000000819507,0.1914,0.00016558
600.0,268.150,0.00004726,0.00012069,2.55383093,0.000000000761700,0.000000000001128968,0.1858,0.00024137
600.0,267.900,0.00004642,0.00016608,3.57794604,0.000000000923954,0.000000000001498878,0.1816,0.00033216
600.0,267.650,0.00004600,0.00021598,4.69484396,0.000000001105763,0.000000000001914681,0.1801,0.00043196
600.0,267.400,0.00004595,0.00026239,5.70977843,0.000000001284955,0.000000000002321080,0.1800,0.00052478
600.0,267.150,0.00004618,0.00029828,6.45849217,0.000000001440709,0.000000000002664957,0.1814,0.00059656
600.0,266.900,0.00004666,0.00031550,6.76113640,0.000000001546192,0.000000000002877827,0.1845,0.00063101
600.0,266.650,0.00004735,0.00031352,6.62127274,0.000000001594642,0.000000000002944338,0.1890,0.00062703
600.0,266.400,0.00004825,0.00029393,6.09230211,0.000000001585515,0.000000000002865863,0.1949,0.00058786
600.0,266.150,0.00004934,0.00026407,5.35245327,0.000000001537431,0.000000000002692449,0.2021,0.00052814
600.0,265.900,0.00005063,0.00022970,4.53698100,0.000000001466541,0.000000000002466239,0.2104,0.00045940
600.0,265.650,0.00005210,0.00019628,3.76730841,0.000000001390660,0.000000000002231737,0.2195,0.00039256
600.0,265.400,0.00005373,0.00016652,3.09908272,0.000000001320523,0.000000000002013891,0.2289,0.00033304
600.0,265.150,0.00005548,0.00014152,2.55068122,0.000000001261519,0.000000000001824966,0.2409,0.00028305
600.0,264.900,0.00005729,0.00012131,2.11764015,0.000000001214697,0.000000000001667612,0.2523,0.00024262
600.0,264.650,0.00005909,0.00010524,1.78091622,0.000000001179378,0.000000000001539435,0.2626,0.00021048
600.0,264.400,0.00006085,0.00009269,1.52333033,0.000000001154514,0.000000000001437623,0.2717,0.00018539
600.0,264.150,0.00006254,0.00008271,1.32237821,0.000000001137309,0.000000000001355251,0.2798,0.00016542
600.0,263.900,0.00006418,0.00007459,1.16217953,0.000000001125589,0.000000000001287009,0.2870,0.00014918
600.0,263.650,0.00006581,0.00006756,1.02665053,0.000000001116574,0.000000000001225714,0.2936,0.00013513
600.0,263.400,0.00007112,0.00005856,0.82343207,0.000000001140063,0.000000000001240548,0.3661,0.00014223
600.0,263.150,0.00007806,0.00004983,0.63840728,0.000000001168970,0.000000000001272003,0.3483,0.00015612
600.0,262.900,0.00008501,0.00004338,0.51027784,0.000000001206856,0.000000000001313227,0.3317,0.00017002
600.0,262.650,0.00009266,0.00003795,0.40954149,0.000000001254169,0.000000000001364711,0.3153,0.00018532
600.0,262.400,0.00010171,0.00003439,0.33812787,0.000000001305746,0.000000000001490184,0.2997,0.00020342
600.0,262.150,0.00011963,0.00003096,0.25881550,0.000000001399632,0.000000000001856051,0.2789,0.00023926
600.0,261.900,0.00013762,0.00002854,0.20739986,0.000000001513599,0.000000000002264439,0.2662,0.00027524
600.0,261.650,0.00016081,0.00002618,0.16278289,0.000000001674093,0.000000000002835537,0.2540,0.00032162
600.0,261.400,0.00018652,0.00002418,0.12962304,0.000000001864811,0.000000000003523197,0.2426,0.00037304
600.0,261.150,0.00021702,0.00002238,0.10311075,0.000000002103063,0.000000000004414315,0.2327,0.00043403
600.0,260.900,0.00025079,0.00002083,0.08306666,0.000000002378592,0.000000000005488494,0.2245,0.00050158
600.0,260.650,0.00028669,0.00001953,0.06813133,0.000000002681860,0.000000000006724760,0.2177,0.00057338
600.0,260.400,0.00032232,0.00001849,0.05736287,0.000000002992478,0.000000000008046027,0.2124,0.00064464
600.0,260.150,0.00036254,0.00001752,0.04831599,0.000000003351330,0.000000000009643682,0.2073,0.00072508
600.0,259.900,0.00041104,0.00001657,0.04031838,0.000000003798737,0.000000000011728139,0.2024,0.00082207
600.0,259.650,0.00046180,0.00001576,0.03411769,0.000000004278654,0.000000000014074233,0.1982,0.00092360
600.0,259.400,0.00050463,0.00001518,0.03008199,0.000000004696400,0.000000000016192143,0.1952,0.00100925
600.0,259.150,0.00054477,0.00001470,0.02698617,0.000000005092787,0.000000000018275314,0.1926,0.00108954
600.0,258.900,0.00058151,0.00001433,0.02463732,0.000000005469177,0.000000000020293114,0.1907,0.00116302
600.0,258.650,0.00061103,0.00001404,0.02298252,0.000000005770761,0.000000000021962499,0.1892,0.00122207
600.0,258.400,0.00062645,0.00001389,0.02217789,0.000000005923153,0.000000000022838652,0.1883,0.00125290
600.0,258.150,0.00062950,0.00001387,0.02202801,0.000000005953694,0.000000000023016754,0.1882,0.00125899
600.0,257.900,0.00062312,0.00001390,0.02231344,0.000000005874406,0.000000000022614008,0.1883,0.00124625
600.0,257.650,0.00060594,0.00001404,0.02316520,0.000000005682192,0.000000000021587655,0.1889,0.00121187
600.0,257.400,0.00058530,0.00001421,0.02428473,0.000000005458599,0.000000000020396932,0.1898,0.00117061
600.0,257.150,0.00055588,0.00001449,0.02607324,0.000000005149735,0.000000000018759398,0.1912,0.00111175
600.0,256.900,0.00052726,0.00001478,0.02802552,0.000000004848380,0.000000000017207346,0.1925,0.00105452
600.0,256.650,0.00050079,0.00001508,0.03010287,0.000000004578649,0.000000000015836678,0.1940,0.00100158
600.0,256.400,0.00045732,0.00001563,0.03418586,0.000000004150621,0.000000000013696047,0.1968,0.00091464
600.0,256.150,0.00041135,0.00001634,0.03971550,0.000000003713062,0.000000000011579738,0.2004,0.00082271
600.0,255.900,0.00037009,0.00001709,0.04617386,0.000000003330883,0.000000000009804163,0.2042,0.00074018
600.0,255.650,0.00032805,0.00001802,0.05492747,0.000000002954466,0.000000000008122979,0.2090,0.00065611
600.0,255.400,0.00028976,0.00001907,0.06580376,0.000000002622855,0.000000000006705643,0.2144,0.00057951
600.0,255.150,0.00025712,0.00002015,0.07836766,0.000000002347062,0.000000000005580132,0.2199,0.00051424
600.0,254.900,0.00022211,0.00002164,0.09740821,0.000000002064974,0.000000000004470777,0.2278,0.00044422
600.0,254.650,0.00019057,0.00002336,0.12256423,0.000000001821285,0.000000000003553440,0.2373,0.00038115
600.0,254.400,0.00015966,0.00002568,0.16080987,0.000000001598027,0.000000000002741621,0.2505,0.00031932
600.0,254.150,0.00013968,0.00002762,0.19770514,0.000000001459733,0.000000000002257034,0.2606,0.00027937
600.0,253.900,0.00012590,0.00002926,0.23241996,0.000000001367858,0.000000000001942856,0.2690,0.00025180
600.0,253.650,0.00010849,0.00003206,0.29556506,0.000000001268721,0.000000000001580797,0.2839,0.00021697
600.0,253.400,0.00009326,0.00003579,0.38375735,0.000000001198119,0.000000000001303720,0.3076,0.00018651
600.0,253.150,0.00008463,0.00004167,0.49240135,0.000000001148822,0.000000000001250078,0.3268,0.00016925
600.0,252.900,0.00007945,0.00004603,0.57935856,0.000000001118372,0.000000000001216944,0.3388,0.00015889
600.0,252.650,0.00007482,0.00005073,0.67802376,0.000000001093305,0.000000000001189669,0.3500,0.00014964
600.0,252.400,0.00007148,0.00005458,0.76356157,0.000000001073587,0.000000000001168213,0.3574,0.00014296
600.0,252.150,0.00006931,0.00005713,0.82428425,0.000000001056560,0.000000000001149684,0.3611,0.00013862
600.0,251.900,0.00006753,0.00005926,0.87746894,0.000000001040379,0.000000000001132077,0.3636,0.00013507
600.0,251.650,0.00006631,0.00006053,0.91278343,0.000000001024452,0.000000000001114746,0.3641,0.00013262
600.0,251.400,0.00006513,0.00006177,0.94831332,0.000000001008623,0.000000000001097522,0.3645,0.00013026
600.0,251.150,0.00006400,0.00006298,0.98405878,0.000000000992883,0.000000000001080395,0.3648,0.00012799
600.0,250.900,0.00006293,0.00006416,1.01962988,0.000000000971503,0.000000000001064147,0.2821,0.00012832
600.0,250.650,0.00006225,0.00006569,1.05518419,0.000000000962148,0.000000000001066223,0.2790,0.00013137
600.0,250.400,0.00006159,0.00006718,1.09084147,0.000000000952480,0.000000000001067428,0.2758,0.00013437
600.0,250.150,0.00006094,0.00006865,1.12660809,0.000000000942517,0.000000000001067804,0.2726,0.00013730
600.0,249.900,0.00006030,0.00007008,1.16233778,0.000000000932251,0.000000000001067316,0.2695,0.00014017
600.0,249.650,0.00005967,0.00007148,1.19806523,0.000000000921704,0.000000000001066007,0.2663,0.00014297
600.0,249.400,0.00005905,0.00007284,1.23361936,0.000000000910867,0.000000000001063847,0.2631,0.00014568
600.0,249.150,0.00005844,0.00007416,1.26902517,0.000000000899763,0.000000000001060882,0.2599,0.00014832
600.0,248.900,0.00005784,0.00007543,1.30414119,0.000000000888386,0.000000000001057085,0.2568,0.00015086
600.0,248.650,0.00005725,0.00007666,1.33898023,0.000000000876760,0.000000000001052506,0.2536,0.00015332
600.0,248.400,0.00005667,0.00007783,1.37339734,0.000000000864880,0.000000000001047120,0.2504,0.00015567
600.0,248.150,0.00005610,0.00007896,1.40740930,0.000000000852770,0.000000000001040980,0.2473,0.00015792
600.0,247.900,0.00005554,0.00008003,1.44086883,0.000000000840429,0.000000000001034066,0.2442,0.00016005
600.0,247.650,0.00005499,0.00008104,1.47374799,0.000000000827880,0.000000000001026432,0.2410,0.00016208
600.0,247.400,0.00005445,0.00008199,1.50594447,0.000000000815124,0.000000000001018064,0.2379,0.00016398
600.0,247.150,0.00005391,0.00008288,1.53747741,0.000000000802186,0.000000000001009017,0.2349,0.00016577
600.0,246.900,0.00005338,0.00008371,1.56820263,0.000000000789066,0.000000000000999279,0.2318,0.00016743
600.0,246.650,0.00005286,0.00008448,1.59815376,0.000000000775793,0.000000000000988911,0.2288,0.00016897
600.0,246.400,0.00005235,0.00008518,1.62718818,0.000000000762367,0.000000000000977904,0.2257,0.00017037
600.0,246.150,0.00005185,0.00008582,1.65533774,0.000000000748815,0.000000000000966316,0.2227,0.00017165
600.0,245.900,0.00005135,0.00008639,1.68238855,0.000000000735138,0.000000000000954140,0.2198,0.00017278
600.0,245.650,0.00005086,0.00008689,1.70853697,0.000000000721368,0.000000000000941445,0.2168,0.00017379
600.0,245.400,0.00005037,0.00008732,1.73348302,0.000000000707502,0.000000000000928220,0.2139,0.00017465
600.0,245.150,0.00004990,0.00008769,1.75736068,0.000000000693572,0.000000000000914530,0.2110,0.00017538
600.0,244.900,0.00004943,0.00008798,1.78003768,0.000000000679580,0.000000000000900377,0.2081,0.00017597
600.0,244.650,0.00004896,0.00008821,1.80148262,0.000000000665552,0.000000000000885817,0.2053,0.00017641
600.0,244.400,0.00004851,0.00008836,1.82174296,0.000000000651496,0.000000000000870860,0.2025,0.00017673
600.0,244.150,0.00004805,0.00008845,1.84070751,0.000000000637433,0.000000000000855559,0.1997,0.00017691
600.0,243.900,0.00004761,0.00008847,1.85834578,0.000000000623371,0.000000000000839923,0.1970,0.00017694
600.0,243.650,0.00004717,0.00008842,1.87472859,0.000000000609335,0.000000000000824010,0.1942,0.00017685
600.0,243.400,0.00004673,0.00008831,1.88974534,0.000000000595328,0.000000000000807826,0.1915,0.00017662
600.0,243.150,0.00004630,0.00008813,1.90347437,0.000000000581376,0.000000000000791429,0.1889,0.00017627
